johnTyler,Occurences
prepare,1
half,3
trois,1
belligerent,1
withdraws,1
withdrawn,2
disapproval,1
discourage,1
owners,3
pollution,1
disproportion,1
guards,1
asserts,1
approved,1
imperfect,1
dishonor,2
would,7
installments,1
customs,2
gloomy,1
warrant,1
ten,1
sake,1
devoutly,1
energy,2
successfully,1
solid,1
wedded,1
$,1
),1
competent,1
investment,1
require,7
circular,1
reserves,1
1,1
2,1
3,1
southerly,1
diplomacy,1
applies,1
4,1
size,1
left,1
5,1
reserved,1
6,1
7,2
8,2
$294,1
9,5
rounded,2
resumption,1
rejoice,1
statute,1
object,3
newspaper,1
britannic,1
vengeance,1
suffice,2
essayed,1
concede,1
turn,1
example,1
result,1
gold,6
minds,2
opposition,1
same,4
selfish,1
levying,1
commission,3
after,1
rational,1
policy,5
hand,1
resume,1
a,57
ordered,1
b,1
address,1
collisions,1
d,1
i,27
j,1
blood,1
violating,1
n,1
the,192
straight,5
entering,1
consisting,1
destroyed,1
sale,1
heightened,1
s,1
police,2
throw,1
w,1
exciting,1
fifth,6
obvious,1
information,1
accumulated,1
reimburse,1
violent,1
november,1
inaccessible,1
imbitter,1
resolve,1
zealously,1
good,2
faithful,2
empty,1
amounted,2
tie,1
justifiably,1
reconsideration,1
suffered,1
bondage,1
intersection,14
besides,1
serious,3
exceeded),1
export,1
others,2
justifiable,1
signally,1
making,1
owes,1
tachereau,1
abated,1
check,1
beset,1
relatives,1
deducted,1
disguised,1
gone,1
shadowing,1
supposed,1
conjectural,1
anticipating,1
enjoined,1
ascend,1
applied,1
disturbed,1
raging,1
provided,1
effecting,1
indispensable,1
representation,1
lent,1
society,1
expanded,1
arranged,1
nowhere,1
motive,1
flows,1
provides,1
postmaster,2
anticipation,1
multiply,1
assaults,1
pioneers,1
conducive,1
definitively,2
approval,1
quarters,2
indispensably,1
realized,1
concentrate,1
better,2
explosion,1
permit,1
well,2
suitable,4
taking,1
states:we,1
extinguished,1
observance,1
atlas,1
severally,1
signatures,1
sexes,1
conjecture,1
rainy,3
fearing,1
experiment,2
discharged,1
implication,1
estcourt,2
reservation,1
endangering,2
flow,3
cordial,1
order,1
cooperation,1
protecting,2
consigned,2
enlisting,1
pressed,1
considering,1
indelible,1
distant,1
custody,1
exertion,1
reformed,1
propose,1
withthe,1
reform,1
illustrated,1
bringing,1
schools,1
prohibited,1
presses,1
derangement,2
orders,2
southeast,1
reestablishing,1
legislatures,1
averse,1
successor,1
pine,2
confides,1
save,1
protection,2
respectively,3
solemnly,1
matter,1
footsteps,1
frankly,1
top,1
too,2
belligerents,2
honesty,1
acquiring,1
orderly,1
have,16
neutrality,1
redundancy,1
kentucky,1
energetic,1
succession,1
product,2
question,1
additions,1
scepter,1
lover,1
violative,1
spirit,2
intellectual,1
reclaim,1
produce,2
picture,2
reminded,1
perfected,3
disable,1
regard,4
undoubtedly,1
thanksgiving,1
constraint,1
unreasonable,2
thousand,1
captives,1
extravagance,3
capital,2
minor,1
hostile,1
exhibiting,1
smuggling,1
upon,5
bryan,1
lac,2
employed,1
ambitious,1
unaided,1
function,1
raise,1
west,1
delinquency,1
territory),1
quite,1
circumspection,1
representative,2
precluded,1
traffic,1
longitude,2
pigeon,3
frontiers,1
ceasing,1
circumstances,6
law,4
including,1
lay,1
patriot,1
introducing,1
unmingled,1
lest,1
plenty,1
constitutes,1
less,2
institutions,1
adventure,1
successive,2
conflicting,1
condition,1
markets,3
202,1
inventions,1
gratification,1
were,2
obligation,1
ghent,2
improve,1
desirous,1
violation,1
lslands,1
constituted,1
taxation,3
patriotic,1
became,2
ceded,1
hastily,1
university,1
censure,1
levy,1
effective,1
210,1
times,4
vacillating,1
debtor,2
expedients,2
generous,1
constitutionally,1
coincidence,1
detrimental,1
direction,2
contiguity,1
exhibition,1
bettering,1
twofold,1
conclusively,1
realizing,1
distinguished,1
opening,2
remission,3
adopts,1
directing,2
canton,2
foment,1
productions,3
incident,1
maintenance,1
barbarous,1
capita,1
exceeds,1
lieutenant,5
expedition,3
led,1
absorb,1
supply,1
infatuation,1
wherein,1
uncertain,2
unimportant,1
beautiful,2
mountain,2
adverted,1
integrity,1
236,1
liable,1
mccoy,2
states:it,1
let,1
state,5
les,1
press,1
cargo,3
contrasted,1
subordinates,1
defined,1
honeywell,1
superabundant,1
warring,1
undue,1
22d,1
regretted,1
pace,1
probable,2
opposite,1
courtesy,2
states:if,1
each,1
complied,1
240,1
restraint,1
watchful,1
rendered,2
offering,2
europeans,1
creating,1
restrained,1
cordially,1
directs,1
thirty,1
wasting,1
cur,1
23d,1
cut,1
ardent,1
perfectly,2
probably,1
warrior,1
libels,1
jurisdiction,1
constitutional,4
manly,1
dollars,1
steamers,1
two,1
moment,1
promote,1
desired,1
does,2
attack,1
25:,1
overissue,1
reported,1
tabasco,1
(as,1
attach,1
reissue,1
distribute,2
prevented,1
situation,1
uninhabited,1
creation,4
legislation,1
confederation,1
clause,2
inclination,1
think,1
participate,2
occurred,4
consolidate,2
perplexed,1
desires,1
anxiously,1
forbidden,1
withdrawal,1
refuses,1
services,1
forfeited,1
1920,1
emphatically,1
filling,1
admitting,1
prayer,1
speech,1
laboring,2
reenacted,1
watch,1
detained,2
economical,1
thing,1
cabinet,1
demanded,1
southwest,1
surely,1
privileges,1
principle,1
lessening,1
vexatious,1
lie,1
reflecting,1
source,1
domestic,1
paying,1
deception,2
separation,1
vitality,1
guaranties,1
homes,1
weakened,1
stability,2
acquired,1
actual,1
eastern,1
reflection,1
involves,1
ultimate,1
erie,1
judgments,1
prosecute,1
doubt,2
merit,2
280,1
develop,1
enlisted,2
surprising,1
pecuniary,1
involved,1
converted,1
district,8
fixed,2
page,1
assume,1
cordon,1
halls,1
philanthropy,1
full,1
immorality,1
johns,1
destiny,1
away,1
290,1
house,2
indefinite,1
painful,1
convention,5
deservedly,1
pain,1
unjust,2
harvest,1
suspicion,1
center,1
shore,5
purchase,1
enlarged,1
discordant,1
titles,1
earliest,1
equal,2
obviates,1
fallen,2
separating,1
fund,3
conveniences,1
gravity,1
moderation,2
spared,1
paid,3
short,1
replete,1
blemish,1
finance,1
exacted,1
(resting,1
incur,1
instigates,1
extinguished),1
regulate,3
unsold,1
surveyors,2
obstacles,1
truths,1
imagined,1
three,1
17th,1
required,1
ordeal,2
measures,2
payable,1
colonize,1
line595,1
suppression,1
season,1
specifically,1
payment,3
sedulously,1
enter,2
savings,1
attain,1
allotted,1
restoration,1
sessions,1
threw,1
suppressing,1
roads,2
destroy,1
dates,1
deemed,2
statesmen,1
respectfully,2
metallic,1
pennsylvania,1
coast,1
judicial,1
provide,2
consultation,1
requires,1
primary,1
exertions,1
submitting,1
inhumanity,1
competency,1
enterprise,1
bright,2
consume,1
lop,1
(in,1
undefined,2
unknown,1
hazards,1
aided,2
premium,1
frivolous,1
low,1
pretext,2
assure,1
distinguishable,1
consult,1
merely,1
wealth,1
means,3
deplored),1
funding,1
impracticable,1
performed,2
contemplation,1
redress,1
absurdity,1
fellow,1
barely,1
evading,1
advancing,1
$350,1
interests,1
outlines,1
door,1
alliance,1
compact,1
indemnification,3
speedy,1
repudiated,1
sixteenth,1
friendly,1
possession,1
improper,1
recognizing,1
experience,2
shores,1
muskets,1
tygris,1
commander,1
thoseauthorities,1
shows,1
shown,1
wasteful,1
controversies,1
$360,1
disappeared,1
forcibly,1
inscription,1
affair,1
prescribing,1
pointing,1
majesty,1
day,1
keeps,1
obtain,1
raising,1
statesman,1
claimants,1
coasts,1
island,2
created,3
particularize,1
sacrifice,1
particular,1
inviolability,1
water,6
done,1
illegal,1
corps,1
pause,1
congratulate,1
formal,1
countless,1
forcible,1
perceived,1
peculation,1
ample,1
retrench,1
proclaims,1
appraisers,3
entertain,1
concentrating,1
overrun,1
deceptive,1
critical,1
part,2
boards,1
jealousy,1
elsewhere,1
workmen,1
judiciary,3
expediency,1
theauthorities,1
principal,1
perpetrate,1
megantic,1
guarded,1
inducement,2
tend,1
exceedingly,1
east,1
unrestrained,1
equitable,1
restraints,3
dated,1
weightiest,2
possessing,1
relief,4
$383,1
affirmed,1
amply,1
semiannual,1
thither,1
introduction,2
schlosser,1
sacredly,1
villages,1
persuaded,1
burdened,1
threads,1
azimuths,1
entertained,1
heavily,1
thibideau,1
seeking,1
capitol,1
successively,1
third,1
meridian,1
build,1
gratitude,1
unceded,1
coffers,1
interfere,1
further,1
reclamation,1
demands,1
(of,1
condign,2
contracted,1
regulated,1
annexation,6
reductions,1
mutually,1
presidents,1
outlets,2
unissued,1
exemption,1
parliament,1
conducting,1
asylum,1
path,1
finds,1
depending,1
exportations,1
principally,1
richford,2
reimbursement,1
prejudices,1
provinces,1
dorr,6
carefully,1
pass,1
going,1
banks,3
mile,1
past,2
shock,1
demoralization,1
bill,15
paralysis,1
whose,1
easy,1
partisanship,1
importers,1
domain,1
census,2
adopting,1
assigned,1
relative,1
attitude,1
average,2
expounders,1
obstructions,3
bodies,1
equivalents,1
investments,1
existed,1
mint,1
adoption,2
harmonize,1
distinctive,1
philadelphia,1
grass,1
weighty,1
unlike,1
term,1
acquisition,1
rigid,1
presumed:,1
prosequi,1
overruling,1
mind,1
ambassadors,1
business,1
reverence,1
adjoining,1
transported,1
staff,1
right,4
possible,1
involve,1
indestructible,1
partly,2
9th,1
constrained,1
requisite,1
carriedhim,1
touches,1
depositories,2
stage,1
retrograde,1
inflexible,1
returning,1
borrow,1
supersede,1
maximum,2
crimination,1
inch,2
under,5
did,2
quarter,1
ryan,1
london,1
rigor,1
repealed,2
added,1
happiest,1
quantities,1
bereavement,1
emergency,1
down,1
recommendations,1
$1,2
$2,1
divisions,2
incumbent,1
chepachet,2
$3,1
$4,1
$5,1
$6,4
later,1
$7,1
affaires,1
kingdoms,2
elucidation,1
$8,1
$9,1
adding,1
legal,1
forgotten,1
midst,1
evils,1
boundaries,1
dispensing,1
highway,1
seated,1
possibly,1
impair,1
transmitted),1
emancipation,1
seasons,1
chartered,2
test,1
reviving,2
finally,1
alterations,2
remained,3
enforcement,1
exhaust,1
thereafter,4
varied,1
conviction,1
aegis,1
louisiana,2
regarding,1
month,2
embraced,2
final,1
occasions,1
expiration,1
solvent,1
acres,1
trustees,1
distract,1
occasion,1
impossibility,1
convening,1
hampshire,1
loan,1
virtual,1
embraces,1
rather,1
requesting,1
importance,2
worthy,1
back,3
endless,1
expectation,1
heavier,1
title,2
corrective,3
papers,1
states,13
duration,1
sheets,3
engagements,3
company,1
hemisphere,1
human,1
continuation,1
thetreasury,1
relax,1
robinson,1
custom,1
ayres,1
(their,1
length,1
blessed,2
abode,1
advert,1
concerns,1
grand,1
considerations,1
inconveniences,1
henry,1
schedule,1
decidedly,1
apprehend,1
unconditionally,4
faction,1
universe,1
interpret,1
recommends,1
engendered,1
grant,4
articles,1
showing,1
qualified,1
inscription:capt:,1
turpitude,1
armies,1
bureaus,1
reared,1
exhausted,1
discount,1
construct,1
attempt,1
rivalry,1
division,1
navigation,2
conciliating,1
balance,4
impaired,1
supplies,1
inexpressibly,1
revealed,1
corroborated,1
resorted,1
usually,1
whereas,1
letters,1
kindness,1
fear,1
lying,1
incessant,1
exceeded,1
inferences,2
made,4
conciliation,1
signed,2
appreciation,1
sense,1
being,2
yielded,1
audited,1
removing,2
pretension,1
menace,1
printed,1
field,1
contents,1
virtuous,1
served,1
wilderness,1
(a,1
messages,1
legitimate,1
interval,1
wheaton,1
whereby,1
dog,1
renown,1
brig,1
trading,1
imperious,1
diffusion,1
familiarity,1
deigning,1
overtures,1
operates,1
embarrassed,1
portugal,1
whipple,3
dot,1
cultivating,1
operated,1
bands,1
garrisoning,1
mention,1
government,4
inserted,1
willfully,1
known,1
stream,26
condemnation,3
recur,1
crime,2
man,1
stand,1
map,3
surround,1
twenty,2
characterized,1
contemplated,2
may,12
advocates,1
supplied,1
forward,1
irregularity,1
zealous,1
quebec,1
bless,1
cultivation,1
300,1
deriving,1
space),1
authorizing,1
inexpedient,1
warlike,1
bespeaks,1
trustworthy,2
selfishly,1
contemplates,1
feet,6
incumbencies,1
repealing,1
mail,2
approximating,1
subject,1
use,1
presiding,1
recognition,2
defending,1
feel,2
main,1
arrangement,1
circulating,1
sufficiency,1
revenue,3
esteemed,1
monopoly,1
unavoidably,1
negotiation,2
315,1
pretense,1
grain,1
credit,9
residence,1
impressment,2
discountenance,1
alter,1
cheerfully,1
approximation,1
bearing,1
caroline,3
imperatively,2
equipment,1
establishment,1
unavoidable,1
includes,1
pressure,2
apprehensions,1
interrupted,1
deposits,5
becomes,1
storehouse,1
creditable,1
unterrified,1
directions,1
323,1
dispose,1
constitution,13
fidelity,2
disapproving,1
negotiating,1
beneficially,1
stain,1
reckless,1
cheapest,1
336,1
repeat,1
men,2
threats,1
louis,2
suppressed,1
make,2
met,2
included,1
reprehensible,1
hostilities,3
repeal,1
mania,2
repealable,2
wicked,1
attempting,1
opposed,1
penetrated,1
diversified,1
questioned,1
speeches,1
constituting,1
surveyed,2
rapidly,3
340,1
stake,1
witness,1
fortify,2
constituency,1
cessations,1
345,1
due,1
346,1
conform,1
nourished,1
circulation,2
contingency,1
authentic,1
threat,1
renewability,1
mercy,1
inform,1
03,1
depend,1
avowed,1
05,1
enters,1
06,3
about,1
commit,1
danger,2
trees,1
granted,2
observed,1
presidency,2
observer,1
happier,1
hiding,1
character,5
bank,13
reconquest,1
consummate,1
unfaithfulness,1
meaning,1
above,5
drawing,1
expended,1
beneficent,1
salutary,1
vexation,1
moderate,1
height,2
10,2
comprise,1
resident,1
11,1
12,1
supererogation,1
injunction,1
13,1
14,1
august,1
15,1
16,1
17,1
myself,2
18,1
19,1
received,2
execute,1
substantial,1
benefit,1
labor,1
quality,1
decayed,1
deduced,1
avoided,1
certificates,5
highest,1
animal,1
consistently,1
sincere,1
following:1,1
20,2
invested,2
promptitude,1
transporting,2
23,1
25,1
seizure,1
shelter,2
postponement,2
outset,1
27,1
28,1
vigor,2
latitude,1
experiments,1
association,1
industry,1
freighted,1
believe,3
last),1
long,1
shares,1
remember,1
into,2
1st,6
voyages,1
arbitrator,1
supports,1
30,1
destruction,1
acquit,1
32,1
liquidation,2
unceasing,1
middle,5
expression,1
though,1
renewal,1
appeal,3
receivable,2
many,1
heavenly,1
clearness,1
transportation,2
appear,1
2d,1
extensive,1
inspire,1
exacts,1
increasing,1
associated,1
progress,1
westerly,1
holds,1
40,1
respected,1
41,1
open,1
seeks,1
devote,1
$400,1
46,3
treat,1
agent,3
militia,1
wholly,1
woodland,1
forced,1
suffering,1
approximate,1
invest,2
engendering,1
numbers,2
rapid,1
expressing,1
seven,1
arena,1
397,1
3d,1
uniformly,1
tobacco,1
california,1
50,1
bare,1
52,1
55,1
abrogate,1
formidable,2
admitted,2
surprise,2
abound,1
maps,31
sealed,1
apportioned,1
felt,2
complaints,1
invited,1
owing,1
conquest,1
secures,1
look,1
modification,1
effected,1
duress,1
sections,1
grounds,1
(june),1
fabrics,1
scar,1
forces,1
states:notwithstanding,1
purchasers,1
61,1
62,1
secured,1
rebuked,1
allow,1
defer,1
68,2
needed,1
invoking,1
lord,1
mass,1
proper,2
inferential,1
peculiarly,1
stocks,1
tree),1
admit,2
common,1
interest,1
urgency,1
themselves,2
indicted,1
70,1
lakes,3
73,1
organic,1
unaffected,1
77,1
78,1
winning,1
apply,1
recently,2
steamer,1
separated,1
gratifying,2
disordered,1
renewed,1
landing,1
money,1
healthy,2
80,1
step,1
fisheries,1
revolt,1
forever,1
mark,1
base,1
88,1
$444,1
subordinate,1
requisition,1
achievement,1
claimed,1
mechanic,1
whole,3
revolution,1
relation,1
shillings,1
reliable,1
loss,1
impediments,2
relate,1
chinghai,1
repudiate,1
lost,1
90,1
perseveres,1
capitalists,1
controlling,2
everwatchful,1
97,1
attempts,1
unconstitutional,1
98,2
profits,2
still,1
worn,1
relating,1
work,1
resemblance,1
lose,1
constitute,1
expanse,1
toward,1
books,1
providence,1
among,4
delays,2
convince,1
irritating,1
missionary,1
terminate,1
stated,1
theory,2
confederacy,1
indulged,3
love,1
continental,1
extension,1
internal,1
signature,1
republican,1
enjoy,1
secret,1
foundation,1
ourselves,1
specified,1
slave,2
unwise,1
across,1
naturally,1
installation,1
federal,3
believed,2
pretends,1
europe,1
reward,1
prevailed,1
loud,1
(amounting,1
disagreement,1
persevered,1
removals,2
nucleus,1
disagreeable,1
monroe,1
destructive,1
opinion,4
altogether,1
alexander,2
regulations,1
devotion,1
cutting,1
unarmed,1
exists,3
ages,1
majorities,1
dispersion,1
indian,1
insult,1
voice,2
endeavored,1
fastnesses,1
injuries,2
prepared,1
existence,1
amendments,1
threshold,1
gipps,1
perfecting,1
unqualified,1
disarming,1
evade,1
$485,1
spell,1
exploration,1
subduct,1
unsettled,1
excite,1
capture,1
failed,1
exigencies,1
revision,1
appointed,2
estimation,1
preparing,1
shipped,1
provision,2
insertion,1
seems,1
commence,1
abolition,1
revising,1
tabulated,1
scientific,3
congratulations,1
luxuries,1
winter,1
snively,1
insure,1
enmity,1
prescribed,1
jackson,2
expedited,1
destinies,1
corporators,1
appertain,1
tenants,1
prescribes,1
unrepealed,2
computations,1
soundness,1
advantage,1
assistant,2
instead,1
controversy,1
ultimately,1
shipments,2
command,2
indies,2
abortive,1
anticipate,1
francis,1
imparted,1
constituents,2
slightest,1
prevailing,1
exception,1
temporary,1
hands,1
ningpo,1
year,2
saved,1
sufficiently,1
leading,1
allowed,2
(which,2
politically,1
urge,1
branch,1
cruiser,1
jacinto,1
prostrating,1
empire,1
understanding,1
because,1
near,2
shortest,1
remedial,1
agreement,1
inviting,1
shannon,1
agreeable,1
viz,1
farthing,1
merchant,4
economy,3
inspired,1
community,1
tendered,1
contains,1
selection,4
science,1
ensued,1
protracted,2
inspires,1
detain,2
happening,1
returns,1
detail,1
convictions,1
folded,1
usefulness,1
boston,1
appropriate,1
forest,1
stretches,1
undisposed,1
confiding,1
least,3
immediately,2
subsequently,1
sleep,1
elevated,1
excises,1
prohibition,2
hereunto,1
reversing,1
agreed,1
estimating,1
secretly,1
sweep,1
cultivated,1
fostering,1
unfriendly,2
were:,1
learn,1
unlimited,1
representing,1
(all,1
withholds,1
characterize,1
intrusion,1
missions,1
severe,1
specie,3
instructions,2
addressing,1
notes,1
evidence,1
gratuitous,1
unhesitatingly,1
republic,1
occupancy,1
amity,1
official,1
signified,1
repetition,1
spring,1
casus,1
leave,1
discrimination,1
chaining,1
surrender,2
minister,1
need,1
cruel,1
originally,1
often,1
blazes,8
cardinal,1
newspapers,1
obtaining,2
energies,1
alters,1
nefarious,1
canada,5
inroad,1
materials,1
buildings,1
hardly,1
sailing,1
discriminating,2
useful,1
lasting,1
private,1
respecting,1
complained,1
tortuous,1
indebtedness,1
precisely,1
stretch,1
calamity,1
accomplish,1
pendleton,2
engine,1
proportioned,1
responsible,1
end,1
lines,1
presumptions,1
fails,1
forty,1
capitalist,2
memphis,1
rich,1
chiefly,2
agencies,4
denominated,1
rice,1
praise,1
residue,1
special,1
noted,1
undertaking,1
arises,1
visited,1
progressive,1
achieved,1
arisen,1
attacked,1
family,1
deliberate,1
referred,2
reproduction,1
gift,1
slightly,1
discretionary,1
wanting,1
career,1
occupation,1
education,1
called,3
charter,1
abiding,1
crosses,2
turns,3
moral,3
fullest,1
diminution,1
gradually,1
tried,1
brethren,1
burdensome,1
collins,6
deepest,1
succeeding,1
outbreak,2
brave,1
proceedings,2
judge,1
passively,1
similar,1
contradict,1
comport,1
momentous,1
nay,1
foundations,1
harassed,1
forth,1
crossing,3
seventh,1
driven,1
graver,1
406,1
expulsion,1
authors,1
prussia,1
inequalities,1
indicated,1
against,4
intersected,1
accusations,1
industriously,1
manufactures,1
representations,1
isles,1
swell,1
manufacturer,2
tumults,1
410,1
encourage,1
asked,2
holders,1
morality,1
413,1
rights,1
414,1
charters,1
administer,1
ere,1
share,1
deficit,2
manufactured,1
umpire,1
thoroughly,1
honestly,1
stores,1
cession,2
weighing,1
sharp,1
concessions,1
species,1
adjudicated,1
preceding,1
strongest,1
429,1
journeys,1
displeasure,1
cent,2
honor,3
tops,1
indemnity,2
metals,1
worthlessness,1
degradation,1
mexican,2
losses,1
naked,1
trial,1
disorders,1
undertake,1
bonds),1
pages,1
432,1
states:the,1
bureau,1
ancestors,1
belgium,2
new,2
took,1
subjected,1
canals,1
below,1
woods,5
intimately,1
surviving,1
estate,1
shall,6
positions,1
godlike,1
intervals,3
unimpaired,1
substituted,1
stimulating,1
continuance,1
therefor,2
joseph,1
inconvenience,1
northwesterly,1
boundary,4
torn,1
unexpectedly,1
acourse,1
angles,1
financial,1
influenced,1
befallen,1
respective,4
around,2
protraction,1
promulgated,1
450,2
453,1
credits,1
influences,1
define,1
dictate,2
tokens,1
douglas,1
unprofitable,1
render,1
promulgates,1
republics,1
declared,2
derange,1
frontier,4
egypt,1
indefensible,1
manifest,1
rates,1
relieve,1
endeavor,1
drawer,2
adjacent,1
employment,1
specific,1
prostration,1
complying,1
plots,1
disastrously,1
42°,1
estuary,2
467,1
engage,1
alleged),1
wrongfully,1
borrowing,1
forms,2
territory,2
axiom,1
amendment,2
developments,1
victories,1
farther,1
maintain,4
belgian,2
establishing,1
implore,1
birthright,1
(equal,1
johnson,5
stevenson,2
amendable,1
securities,1
decided,1
companies,1
pounds,1
represented,2
fully,1
imminent,1
remain,2
expected,1
anticipations,1
rims,1
exchanges,2
uninterrupted,1
countries,3
words:the,1
disinterested,1
liberated,1
483,1
eye,1
himself,1
supplying,3
deposit,2
exchanged,1
officeholders,1
fluctuation,1
degrades,1
skillful,1
continent,4
$500,1
disturbance,1
retributed,1
another,3
guarantee,1
recommend,2
enemy,1
blackford,1
literal,1
unreservedly,1
default,1
permitted,1
envoy,2
obeyed,1
exaction,1
insane,1
expectations,1
superintending,1
trophy,1
sixths,1
triumph,1
defray,1
ratification,1
fluctuating,1
liberation,1
arouse,1
refinements,1
persuade,1
such,7
recovered,1
cogently,1
absolute,2
understood,1
countenance,1
necessities:on,1
resulted,3
antecedent,2
incorporation,1
dwelt,1
chargeable,2
wealthy,1
penalties,2
documents,1
navigable,1
florida,5
administration,1
sounder,1
sterling,1
developing,1
objections,6
remains,1
dwell,1
incorporate,1
arriving,1
sciences,1
refreshes,1
features,1
openly,1
houses,1
retaining,1
cambridge,1
1ongitudes,1
expansions,1
sovereign,1
termination,1
suez,1
town,1
might,5
boats,1
duplicate,1
sharing,1
whatever,1
improving,3
servants,1
embarrassing,1
reopen,1
installment,1
orbits,1
patriotism,1
clothing,1
reexamine,1
involving,1
next,6
furnishing,4
blind,1
submit,2
import,1
occupy,2
nearly,1
classes,1
vested,1
redundant,1
nor,2
conclusion,1
durable,1
admissible,1
not,14
habeas,1
doubtless,2
central,1
nos,1
impose,1
hurriedly,1
now,5
statement,1
manacled,1
lived,1
astronomers,1
factor,1
derived,2
bangor,1
postponed,1
severity,1
delivery,1
royale,1
election,2
green,1
race,1
congresses,1
was,3
war,1
grew,1
way,2
necessaries,1
what,2
refer,1
furthermore,1
detailed,1
african,3
timely,1
risk,1
attempted,1
rise,1
taxes,1
decide,1
when,3
issues,1
withheld,1
excluded,1
instruments,1
conflagration,1
confirming,1
ashburton,1
endured,1
far,1
coastwise,1
proudest,1
taxed,1
issued,1
plan,1
recited,1
reimbursing,1
treason,2
give,1
practicable,2
counsel,1
lives,1
cartridges,1
depends,3
misinformation,1
probability,1
erecting,1
double,1
dissolution,1
instituted,1
rendering,1
contention,1
stations,5
touting,1
survived,1
limiting,1
lofty,1
lowest,2
tribunals,1
chaffering,1
explicit,1
propriety,2
invasions,1
ships,1
embarrassing),1
determined,2
comfortable,1
prevail,1
burdens,1
completely,1
rested,2
dividing,1
brokers,2
commencing,1
enormously,1
purity,1
portion,1
differences,1
direct,1
flags,1
districts,2
enabled,1
gain,2
receiving,1
modern,1
occasionally,1
feeds,1
(estimated,1
coquimbo,1
immaterial,1
berlin,1
northeasterly,1
relieved,2
adjourned,1
pirates,1
nonintercourse,1
following:an,1
climate,1
great,2
happened,2
wrong,2
statesfellow,1
ordained,1
northward,3
proceeded,1
monarchical,1
organization,1
pleased,1
rage,1
peaceable,1
sides,1
terminating,1
heads,1
bounties,1
organizing,1
certain,2
woolen,1
board,3
statistics,1
augments,1
southaugust,1
pursuing,1
arrest,1
distinction,1
unprincipled,1
disability,1
heretofore,2
section,1
eleventh,1
used,3
discontent,1
constantly,1
retirement,1
ruinous,1
originated,1
breakwaters,1
looks,1
discounts,3
arrete,1
whale,1
threaten,1
presented,1
controverted,1
few,2
marked,1
otherwise,1
framers,1
intrigue,1
visible,1
remonstrate,1
borne,1
recurring,1
nearer,1
opened,1
plea,2
pleasing,1
exceptions,1
solely,1
produced,2
voyage,2
market,3
effects,1
indifferent,1
detentions,1
citizens:,1
keep,1
effect,2
arraigned,1
produces,1
conventions,1
unfavorable,1
topic,1
producer,1
solemn,1
sugar,1
perceive,2
embarrass,1
sums,2
who,2
option,4
subjoin,1
weigh,1
quintuple,1
unexpected,1
imprisonment,2
deserves,1
contribute,1
why,1
faith,2
transpired,1
remark,1
denies,1
rocky,1
necessarily,1
invests,2
relaxed,1
alone,3
along,2
parallel,16
hospitality,1
stipulation,1
designed,1
win,1
coining,1
wit,1
stimulus,1
barter,1
drafts,2
regiment,1
approaches,2
diminish,1
recommended,1
000),1
originates,1
000land,1
contained,1
matters,1
variance,1
various,2
posterity,1
attention,1
stipulating,1
uses,1
visit,2
fulfillment,1
multitudes,1
reduction,1
denied,1
extent,1
inhabitants,2
parent,1
mcleod,2
civilizing,1
bring,1
northeastern,1
appointing,2
promoted,1
replenished,1
fond,2
fit,1
colonial,1
0001,1
warfare,2
manufacturing,1
honest,1
assumption,1
rank,1
pension,2
promotes,1
outlet,9
negroes,1
preparatory,1
neglect,1
addition,3
departing,1
24th,2
revolutionize,1
sure,1
ad,1
grow,1
aggressions,1
urging,1
excited,1
shrink,1
quissibis,1
furnishes,1
supremacy,1
locality,1
ordinarily,1
engineers,1
licentious,1
proceeding,2
madawaska,1
privation,1
am,1
an,5
former,1
extend,1
punctually,1
thirds,1
as,17
at,12
superfluities,1
unanimously,1
turning,1
peace,1
contrivers,2
intermediate,1
consideration,1
looking,1
(unless,1
exerts,1
formed,1
frank,1
be,26
prove,1
tracings,1
disclaimed,1
consequently,2
commodities,1
remotest,1
deranges,1
permanency,1
recourse,1
communications,2
search,1
fatigues,1
furnished,1
systems,1
deranged,1
sudden,1
transmutation,1
by,26
groundwork,1
insures,1
whom,1
permanence,1
scarcely,1
attainable,1
foot,1
humanity,1
wills,1
enabling,1
outstanding,3
charge,2
keeping,3
irredeemable,1
familiar,1
votes,1
empowered,1
unfit,1
freely,1
acquisitions,1
portage,1
essential,1
sanctity,1
expenditure,1
tributaries,1
congress:,1
11th,1
admits,1
pohenagamook,6
accomplishes,1
duplicity,1
presumed,5
language,1
do,5
oppressively,1
observe,1
furnish,1
commissioned,1
generosity,1
du,2
unsatisfied,1
accomplished,1
bequest,1
attacks,1
undersigned,14
won,1
exclude,1
preceded,2
commissioner,1
utmost,1
which,24
needs,1
immeasurably,1
coinage,1
lamentably,1
topography,2
blight,1
fourteen,1
profound,1
homogeneous,1
affirm,1
never,1
cherishing,1
temptation,1
intervened,1
carry,1
advantageously,1
necessity,5
fe,1
mountains,2
presume),1
origin,1
foo,2
for,15
pursuits,1
wrongdoers,1
augmentation,1
mistaken,1
fox,1
content,1
burden,1
precaution,1
unitedstates,1
perhaps,1
sanction,2
rate,2
brightest,1
skill,1
trouble,1
prosperity,1
divide,1
proprietor,1
representatives:i,1
contrary,2
class,1
ishaganalshegeck,1
attended,1
governors,2
thence,11
000the,1
disbursed,1
go,1
kept,1
excavating,1
palliatives,1
perpetuity,1
justly,1
fork,5
form,1
adjournment,1
500,1
management,1
correspondent,1
fort,3
renew,1
(1816),1
he,3
presents,1
withdraw,1
intrench,1
very,1
hi,1
practice,1
nakedly,1
placed,1
congress,16
examinations,1
canadian,1
electing,1
delayed,2
divine,1
memorable,1
capricious,1
contractions,1
legislative,3
flourish,1
dispatches,2
appeared,1
william,1
511,1
else,1
four,1
512,1
embarrassments,5
vessel,1
contemplate,1
coincides,1
if,2
french,1
likely,1
unbroken,1
dispatched,1
issue,1
in,53
dependency,1
subsistence,1
metal,1
index,1
is,27
it,43
schemes,2
dictated,1
sault,2
disputes,1
announce,1
promotive,1
decree,3
dictates,2
distraction,1
acted,1
unceasingly,1
untiring,1
alteration,1
gave,1
continuing,1
become,2
affinity,1
wider,1
lawful,3
$10,2
solicitude,1
turned,1
$11,2
$12,3
accrue,2
$14,1
$15,1
freest,1
$16,1
(but,1
occurrence,1
$18,1
rhode,20
inflation,1
disposal,1
settlement,3
settlers,1
accomplices,1
library,1
meted,1
sphere,1
dependence,1
ability,1
veto,1
belief,1
vassal,1
modifications,1
$20,1
inflating,1
$22,1
reclaimed,1
avouched,1
seemed,3
$23,1
$24,1
suggestion,1
$25,1
$26,1
$28,1
obnoxious,1
instrumentality,1
clearing,2
off,2
generally,1
places,2
disposition,2
exploring,3
contended,1
la,3
troublesome,1
smithsonian,1
despoiled,1
dissensions,1
misunderstood,1
complete,2
transaction,1
accomplishment,1
$30,1
$31,1
fur,1
obliterated,1
$32,1
$33,1
montreal,1
purports,1
political,2
jeopard,1
while,4
second,2
that,29
than,4
sufficient,1
557,1
me,1
limit,1
claim,3
unrepresented,1
colonies,1
communication,1
jarring,1
abstaining,1
months,1
$43,1
contest,1
mr,1
possessed,2
follows,1
feeling,1
my,25
stipulated,1
chosen,1
expansion,2
entry,1
paving,1
headquarters,1
fiscal,11
annexing,1
possesses,1
orleans,2
magistrate,1
noble,1
survey,1
coal,1
outbreaks,1
termed,1
$50,1
kendall,1
no,5
importer,4
np,1
code,2
legacy,1
chambers,1
abundantly,1
careful,1
withwhom,1
inestimable,2
concurred,1
preparations,1
head,1
elapsed,1
considerable,2
misunderstanding,1
of,124
imported,1
proposition,2
artfully,1
subsist,1
sympathy,1
occupied,1
fight,1
rescue,1
on,11
$61,1
brief,2
or,15
recover,1
clair,1
determine,2
considerably,1
$69,1
tendencies,1
bouchette,4
voluntarily,1
occupies,1
confer,1
intelligent,1
regiments,1
whilst,2
redeemable,1
disbursement,2
deflections,1
54°,1
contractors,1
wrought,1
ipso,1
gunnery,1
offsets,1
lands,5
vermont,1
amendatory,1
inexperienced,1
indications,1
irrationality,1
exercised,1
$600,1
subversive,1
readily,1
nation,2
wholesome,1
amounting,1
adaptation,1
downfall,1
convenience,1
determination,2
discipline,2
falsehood,3
expedient,1
593,1
shewing,1
extremely,1
speaking,1
proclamation,1
province,2
inevitably,1
disbursements,1
agitator,1
retribution,1
accruing,2
blending,1
recent,2
promises,1
they,6
suspension,2
breaking,1
forks,2
inevitable,1
compensations,1
consciousness,1
$88,1
old,2
settled,1
spectators,1
them,3
allowance,1
then,1
seat,1
seas,2
consolidated,1
adopt,1
teachings,1
twelve,1
obtained,1
austria,1
commentary,1
strengthening,1
archives,3
crossings,1
conservative,1
seed,1
activity,1
$627,1
executed,1
repudiation,1
seek,1
seen,3
unsubstantial,1
seem,2
se,3
apprenticeship,1
compelled,1
variety,1
incurring,1
disturb,1
thompson,1
so,3
caution,1
accountability,1
apart,2
issuing,1
maintains,1
exported,1
calendar,1
st,1
follows:no,1
necessary,1
decision,1
rectified,1
one,3
incurred,2
souls,1
s},1
adorn,1
quito,1
single,2
connected,1
cement,1
crowned,1
uttering,1
molest,1
scourge,1
dealer,1
elastic,1
assist,1
flowed,1
closed,1
materially,1
consequent,3
to,92
attained,1
augusta,1
vindicated,1
acquiescence,1
partially,1
storms,2
purchase),1
country,3
commercial,1
builders,1
$645,1
joint,1
separate,1
blessings,1
reasonable,1
willing,1
generations,1
trout,2
endangered,2
innumerable,1
rules,1
ruler,1
regularly,2
embracing,1
military,2
satisfactory,1
details,2
up,2
futility,1
conscientious,1
fifteenth,1
us,2
46пїѕ,4
$640,1
waters,2
treated,1
guizot,1
abolished,1
usual,2
invading,1
purchases,1
this,24
retarded,1
alacrity,1
reasonably,1
incorrectly,1
purchased,2
failure,3
towns,1
charterers,1
know,1
region,1
support,1
suggesting,1
coin,1
inoperative,1
consoling,1
changes,1
destination,1
injudicious,1
disposes,1
perpetuate,1
indisposed,1
approving,2
we,1
life,1
establishments,1
derangements,1
examination,2
lies,2
disposed,1
lieu,2
interchanged,1
cases,4
ore,1
slight,1
previous,2
wide,2
securing,2
argue,1
enactments,1
insubordination,1
superior,4
deflection,3
magalloway,1
itself),1
succeed,1
deeper,1
compensation,1
location,1
forego,1
intimidation,1
acknowledgment,1
localities,1
profitably,1
held,2
discounting,1
fruitful,1
competition,1
courts,1
none,1
troops,3
april,2
beyond,1
arnolds,2
seizes,1
restricts,1
forthwith,1
problem,1
terms,3
hazard,1
depressed,1
voluntary,1
deeply,1
connection,1
proof,1
abandoned,1
presence,1
seized,1
surrounding,1
inability,2
researches,1
petersburg,2
retributive,1
streams,2
contract,1
oaths,2
conclude,1
profitable,1
come,2
fortifications,2
elections,1
susceptible,1
harassing,1
exist,2
provisions,2
assail,1
examples,1
columbia,6
instrumental,1
constitutions,1
exact,1
force,1
peculiarity,1
$694,1
understandingly,1
ascertaining,1
ecuador,1
readiest,1
smithson,1
surrounded,1
emanating,1
south,13
mortifying,1
north,1
forefathers,1
distribution,4
our,5
out,3
capacity,1
eminence,1
hemp,1
continues,1
course,2
watchfulness,1
(the,1
power,8
copy,1
precise,1
commissioners:grand,1
evidences,1
sensible,1
rivers,4
yielding,1
precious,1
sell,1
industrious,1
premiums,1
continued,2
sojourning,1
imperiously,1
forcing,1
depth,1
firmness,1
dividends,1
ended,1
acceptation,1
self,1
located,1
matured,1
exposition,1
owe,1
insecurity,1
connecting,1
date,1
dress,1
addresses,1
data,1
own,6
sound,1
harbor,1
treasurer,1
bottoms,1
sales,5
inadmissible,1
distributing,2
consequences,1
create,2
criminal,1
avoiding,1
blow,1
comforts,1
incapacity,1
like,1
asserted,1
unexampled,1
proposes,4
sensibilities,1
branches,1
judged,1
sent,1
sheltered,1
ending,1
efforts,1
addressed,1
proposed,2
purposes,1
fraud,4
council,1
hills,2
condemnatory,1
ground,1
interposition,1
inconsiderable,1
judges,1
thereupon,1
expenses,1
subordination,1
necessities,2
here,2
fitful,1
note,1
(were,1
regret,1
purpose,2
interwoven,1
rejected,1
line,2
reconquer,1
penalty,1
scale,1
hers,1
aggrandize,1
security,3
pretexts,2
observations,4
station,2
inure,1
feeble,1
affairs,4
25th,1
stating,1
cost,1
lima,1
will,14
confidence,4
confidently,1
arbitrary,1
firmest,1
allowing,1
follow,2
intent,1
revenues,1
tyler,2
factors,1
oath,1
compliance,1
treaty,2
york,1
narration,1
assured,1
dignity,1
locations,1
wild,2
german,3
exceeding,1
satisfactorily,1
functions,1
govern,1
numerous,1
recognized,2
forwardness,1
your,5
remote,2
without,8
these,4
begins,1
introduced,1
nominally,1
contributions,1
framed,1
afflict,1
wasted,1
sovereignty,1
antirepublican,1
investing,1
prison,1
authorize,1
sister,1
exporters,1
nova,1
whatsoever,1
ultimo,1
thus,1
habitations,1
devices,1
possess,1
neutral,1
baker,1
analysis,1
apparent,2
dissension,1
reimbursed,1
edicts,2
remarking,1
exposure,1
ewing,1
seizing,1
enlightened,1
much,2
000necessary,1
presumption,1
revived,1
humble,1
entitled,2
12th,1
appomattox,1
independent,1
rejecting,1
acquitted,1
obedient,1
concluded,3
masters,2
are:,1
alleged,1
tribunal,2
alienating,1
plausible,1
afflicted,1
weekly,1
arrived,1
huron,2
antiquarian,1
problematical,1
lights,1
merciful,1
resolved,1
committed,1
hardships,1
sets,1
intrusted,1
union,8
forests,1
ruined,1
disbursing,1
americans,1
overwhelm,1
impartial,2
humbly,1
surer,1
unprecedented,1
days,2
illustration,2
combined,1
returned,2
yours,1
adopted,1
liberal,1
undone,1
standard,2
harmony,1
reports,1
acceptable,1
renders,1
chili,1
genial,1
correct,1
sworn,1
unawed,1
imitate,1
wish,1
belonging,1
institution,2
possessions,2
dragging,1
wise,1
equaled,1
anglewise,2
amounts,1
exceed,1
enlarge,1
patronage,2
enumeration,2
avert,1
contributed,1
par,1
890),1
murder,1
manifestation,1
canvassing,1
vicious,1
invitation,1
european,2
pay,1
enormous,1
alienation,1
revival,1
list,1
rivals,1
contributes,1
governmental,1
neglected,1
circumstance,1
success,1
treasury,2
sinking,1
tempests,1
600,1
revise,1
ingenuity,1
authority,1
remarked,1
claims,1
scenes,1
paramount,1
preserving,4
cleared,1
chile,2
creature,1
legislature,3
child,1
extricating,1
withholding,1
evinced,2
promptings,2
young,1
relieving,1
divided,1
instrument,1
medium,2
remove,1
wisdom,6
fatal,1
producing,1
divides,2
treasure,1
616,1
ridge,4
live,1
sustaining,1
harbors,4
perform,2
unpardonable,1
negotiations,3
peak,1
invadedthe,1
occurring,1
with,18
redemption,1
china,10
620,1
furtherance,1
complaint,1
service,1
there,1
remonstrances,1
enumerating,1
hopeless,1
named,1
injustice,1
indifference,2
foreigners,1
offense,1
cheerfulness,1
monuments,12
considered,1
channel,3
american,1
delivered,3
minutely,1
favorable,1
unpaid,1
entire,1
approach,1
moiety,1
affords,2
qualifications,1
reurging,1
russia,1
decisive,1
precursor,1
gooseberryno,1
per,3
ceased,1
period,3
africa,4
envoys,1
passengers,2
proceed,1
parsimony,1
offenses,4
tanner,1
corporation,10
understand,1
birth,1
suspended,1
jointly,1
intelligence,1
ever,1
assisted,1
640,1
uniting,1
injuriously,1
unhappy,1
million,3
even,1
arrogance,1
strongly,1
manifested,3
646,1
restriction,1
assumed,1
engaged,2
larger,1
assumes,1
dispensation,1
circuit,1
doubted,1
desolating,1
vitally,1
piracy,1
annulling,1
kinds,2
instant,1
engages,1
native,1
legislate,1
(under,1
adverting,1
imperative,2
entailing,1
hitherto,1
violence,1
tempted,1
accordingly,1
laid,1
consequence,1
availing,1
particularly,1
dominant,1
attributed,1
desolation,1
discussed,1
bought,1
impressions,1
inconsistent,1
pacific,3
swampy,1
plenipotentiary,1
ceases,1
writ,1
names,2
longitudes,1
propositions,1
requiring,2
666,1
ineffectual,1
attributes,1
discerned,1
armaments,1
tide,1
prohibit,1
imposed,1
predecessors,1
bearings,1
arrears,1
almost,1
conduce,1
equally,1
30th,1
appropriated,1
reign,1
prevents,1
manner,1
sustained,1
foresee,1
earthly,1
672,1
stricken,1
gleam,1
imposes,1
judgment,1
earlier,1
whether,2
members,2
(whose,1
mineral,1
stock,2
verification,1
counting,1
suspend,2
void,1
accumulation,1
liability,1
valorem,1
4th,4
heroic,1
strengthened,1
sway,1
unpunished,1
basis,1
affected,1
army,1
reconcile,2
tempt,1
contentions,1
annum,1
reciprocate,1
admonishes,1
fannin,1
arms,2
october,1
governor,1
virginia,1
evil,4
lake,33
rising,1
unite,1
fruit,1
prisoner,1
cause,2
panoply,1
manifestly,1
restoring,1
indulge,2
adjudication,1
represents,1
1816),1
agitated,1
intended,1
extra,1
design,1
laurels,1
land,1
explanations,1
redeem,2
conformity,1
importation,1
remuneration,1
department,2
allude,1
station422,1
imposing,1
coextensive,1
chief,1
liberties,1
$715,1
performing,1
doubtful,1
satisfying,1
followed,3
despite,1
consecutive,1
merchandise,2
conduct,2
interested,1
defeating,1
ply,1
formerly,1
vessels,1
extending,1
quietly,1
marred,1
refusing,1
ardently,1
witnessing,1
discussion,1
styled,3
incidental,1
retarding,1
emigrant,2
unproductive,1
lessen,1
liberty,2
lawrence,9
arrangements,1
meeting,3
apprentice,1
events,3
confidential,1
portions,1
separately,1
mankind,1
began,1
abundant,1
want,2
herewith,1
forecast,1
exerted,3
recognize,2
induce,1
palmerston,1
kennedy,1
difference,1
must,3
creditor,1
demonstration,1
commendation,1
anomaly,1
dispersed,1
reside,2
equivocal,1
facto,1
indicative,1
ward,1
objectionable,2
giving,2
scrutiny,1
facts,1
marine,1
incompatible,1
fondly,1
found,1
excuse,1
defense,2
lard,1
sanctioned,1
coolness,1
currency,1
tariff,2
sectional,3
canal,1
escape,1
arts,2
gives,2
limits,1
depreciation,1
unaltered,1
colombia,1
emerging,1
latest,1
receive,1
implied,1
states:i,1
surplus,6
correspondence,1
consulting,2
auxiliaries,1
intimate,1
dispositions,1
entirely,2
declaration,1
abstains,1
memphremagog,3
marts,1
standing,1
instigation,1
extensively,1
prosperous,1
representatives,1
implies,1
feelings,2
till,2
friendship,1
rightfully,1
smith,4
attend,1
waged,1
goods,1
had,2
forsaken,1
accounting,1
secure,1
guided,1
placing,2
reposes,1
disappointed,1
late,1
school,1
impolitic,1
continue,2
preserved,1
interpose,1
subsisting,1
proclaimed,1
things,2
passages,3
immense,1
has,5
realize,1
cautiously,1
offers,1
advantageous,1
given,1
pronounced,2
exaggerates,1
perish,1
last,2
definite,1
ascription,1
crimes,1
croix,6
preserves,1
weight,1
insufficient,1
intrepidity,1
pro,1
favoritism,1
warm,1
measure,3
guilty,2
harrison,1
proximity,1
statutory,1
receipt,1
maritime,2
wars,1
employees,1
basement,1
derogatory,1
injurious,1
situated),1
evacuated,1
pursuance,1
exports,2
schoolmaster,1
impossible,1
effort,1
harshness,1
peru,1
untenable,2
anything,1
interpolations,1
agriculture,1
acquirement,1
partiality,1
marys,1
stronger,1
ends,2
michaud,1
prudent,2
assembled,1
vote,2
steady,1
early,1
commissioners,6
disease,1
notwithstanding,1
yet,2
steadiness,1
reserving,1
possible),1
quieted,1
aggrandizement,1
alike,3
genius,1
earle,1
inasmuch,1
heinous,1
time,7
buenos,1
applications,1
unquestionably,2
forming,1
vortex,1
dominions,2
notorious,1
shadow,1
dominion,1
happy,4
desertion,1
electoral,1
sickness,1
governments,1
continually,1
put,4
wildernesses,1
her,1
franking,1
fluctuations,2
frugality,1
authorized,1
struggle,1
molested,2
slaves,6
having,1
laws,1
stationed,1
meets,1
accrediting,1
subscribers,1
authorizes,2
conclusions,1
supreme,1
heritage,1
lapse,1
discharging,1
unquestionable,1
light,1
forestall,1
passenger,2
apparently,2
unfounded,1
fearlessly,1
valuable,1
adams,3
tampered,1
enormities,1
doubled,1
methods,1
indictment,1
merits,1
s}cranberry,1
confirmed,1
emigrate,1
ways,1
grown,1
anomalous,1
appropriation,1
profligate,1
predatory,2
deficient,1
chain,1
organs,1
desire,3
efficient,1
chair,1
unfortunately,1
consistent,1
lately,1
disgrace,1
reverse,1
adventurers,1
encountered,1
sword,1
earnings,2
january,2
permanent,2
organized,1
choice,1
travel,2
facility,1
lays,1
governed,3
small,1
gallant,2
civilization,1
defeated,1
before,1
appointment,1
sinecures,1
him,1
assumptions,1
viciously,1
listen,1
temptations,1
his,1
major,1
answering,1
companions,2
interrupt,2
funds,3
bear,1
consider,1
prescribe,1
flatter,1
repeatedly,1
imports,1
gross,1
vigilant,1
resist,1
camden,1
tree,1
inappropriately,1
history,1
grossly,1
reciprocity,1
square,2
repairs,1
distrust,1
absolutely,1
gasford,1
interference,1
sustain,1
belonged,1
request,1
substitution,1
values,1
their,7
point,2
banking,1
depositors,2
uttermost,1
general,3
visits,1
lender,1
september,2
attachment,1
devolved,2
induced,1
uphold,1
crock,1
deserve,1
reestablished,1
process,1
philosopher,1
embassies,1
restore,2
hereafter,2
fugitive,1
clear,1
alternative,1
eighth,1
encounter,1
debts,2
contests,1
marking,1
praiseworthy,1
approve,1
neither,1
fulfilling,1
asunder,1
determining,1
suggestions,2
abrogation,1
account,1
settlements,2
unforeseen,1
13th,1
been,7
undoubted,1
innocent,1
debased,1
advance,3
diligence,1
appreciate,1
foregoing,2
transmitting,1
strict,1
you,9
safely,1
rally,1
knowledge,1
fictitious,1
limitations,1
happen,1
commotions,1
commissionboundary,1
preference,1
avoidable,1
active,1
opportunity,1
july,2
court,2
population,1
opinion),1
opinion:,1
disregarded,1
atlantic,2
route,1
valuation,3
islands,8
excrescences,1
trying,1
dealt,2
councils,1
millions,1
replenish,1
wisely,1
hog,2
negotiated,1
comes,1
cited,1
soil,1
abuses,1
characteristic,1
interior,1
procured,1
originating,1
thereto,1
how,1
hearing,1
consisted,1
schooner,2
emigrants,1
parental,1
burthens,2
equable,1
committing,1
endeavors,1
adulteration,2
subjects,1
overcoming,1
assemble,1
inaugural,1
march,6
transition,1
cargoes,1
atonement,1
appeals,1
repel,1
prevails,1
june,2
advantages,1
meet,2
regarded,3
answer,1
calls,1
operations:the,1
series,1
cultivate,1
(1836),1
restored,2
unfading,1
outrages,1
thrive,1
706,2
purse,1
represent,1
publications,1
abused,1
chateaugay,1
exportation,2
dispatch,1
(what,1
sometimes,1
arkansas,1
questions,2
corpus,1
inclined,1
inconvenient,1
promise,1
enjoying,1
hold,1
chinese,5
shipwreck,1
designated,1
seals,1
prior,2
reply,1
bucknall,1
train,1
perpetrated,1
enactment,1
commonly,1
rapidity,1
prerequisite,1
fide,1
revolting,1
granting,1
take,2
accompany,1
thereof,1
immediate,1
beneficial,1
origination,1
undecided,1
blame,1
723,1
relatively,1
inclines,2
726,1
confusion,1
carrying,1
some,3
affording,1
beginning,1
landlord,1
session,4
additional,2
denominations,1
thereon,1
santa,1
remount,1
law:at,1
passes,1
734,1
exposed,1
soften,1
passed,3
blanc,1
steamship,2
annexed,1
just,3
bloody,1
respects,1
notice,1
grants,1
sole,1
owner,2
sold,1
disparage,1
jury,2
highlands,10
lumber,1
overaction,1
restraining,1
affects,1
augmenting,2
superintendence,2
bryarlys,1
strictly,1
home,1
pious,1
entreaties,1
passedbetween,1
existing,1
postage,2
although,2
material,1
encouragement,1
742,1
owned,1
peculiar,2
iron,1
rites,1
patriots,1
president,3
contracting,1
fortunes,1
explain,1
relinquishment,2
reaches,1
therein,2
hope,1
soon,1
america,3
executive,2
tables,2
misprision,1
action,3
anticipated,3
bounty,1
ridicule,1
protest,1
choo,1
distinctly,1
heavy,2
altered,1
detached,2
captains,1
accompanied,2
afford,1
explored,1
reached,1
asks,1
impression,1
aberdeen,1
constitutionality,1
acting,1
machinery,1
speculations,1
shield,1
britain,2
lettering,1
inference,1
enforcing,1
diligently,1
dealings,2
instantaneous,1
grogan,1
summer,2
products,2
eight,1
770,1
buchanan,2
induction,1
file,1
member,1
incidents,1
periods,1
guaranty,1
actuated,2
together,1
within,1
could,2
topics,1
thwarting,1
subdue,2
5th,1
health,1
gathered,1
marks,3
positive,1
agents,2
corrected,1
prospect,1
withhold,1
trusted,1
able,1
efficiently,1
infidelity,1
trustee,1
return,1
suffrages,1
instance,1
concerned,1
consonant,1
$800,1
conscience,2
unambiguous,1
british,1
serve,1
acquiesced,1
accredited,1
trampled,1
encampments,1
importing,1
inviolate,1
surrendering,1
solution,1
fine,3
caton,1
find,1
therefrom,1
delaware,1
derby,2
inducing,1
international,1
calculated,1
regardless,1
selected,1
upward,2
citizen,1
cities,2
sooner,1
illustrate,1
occur,3
difficult,1
definitive,1
irreconcilable,1
seriously,1
sort,1
fill,1
heart,1
friends,1
corporations,2
undergone,2
forget,1
task,3
convenient,1
infer,1
transit,2
principles,2
true,1
valley,3
position,2
present,1
populous,1
curtail,1
importations,1
since,1
sentiment,3
arrested,1
belong,1
toils,1
accommodations,1
unoppressive,1
borders,1
soul,1
abundance,1
dangerous,1
surveys,1
soundest,1
appears,1
best,1
quantum,1
movements,1
effectually,1
persevering,1
assuredly,1
hour,1
ast:,1
competitor,1
remnants,1
alliances,1
rooted,1
regulating,1
magazines,1
magnitude,1
provisioning,1
ameliorating,1
excitements,1
heard,1
experienced,1
steamboat,1
execution,1
falling,1
certainly,1
principle),1
impressive,1
scotia,1
deviation,1
sought,1
writers,1
shocked,1
master,1
compacts,2
extraordinary,2
attraction,1
regulation,1
mere,6
evident,1
accommodation,2
opinions,2
tracts,1
merchants,1
coming,1
armament,1
disturbances,1
feared,1
sown,1
indemnities,1
cover,1
reflect,1
conveyance,1
massacre,1
ignorant,1
fire,3
refinement,1
devolve,1
dissolved,1
adventures,1
hawaiian,2
based,1
000interest,1
brokerage,1
servility,1
adds:it,1
richmond,3
septieme,2
dissatisfied,1
herein,1
dissimilar,1
something,1
intention,2
undertaken,1
thereby,1
disastrous,1
propelling,1
except,2
remonstrance,1
sturtle}dagle,1
inflicted,1
concur,2
religious,1
nevertheless,2
fact,2
prominent,1
superiority,1
overrule,1
respectable,1
fundamental,4
unmindful,1
collecting,1
deliberation,1
extremities,1
entitle,1
nominal,1
unless,2
ecuadorian,1
excess,1
denoted,1
operating,1
particulars,1
free,1
equality,2
ought,1
measurements,1
$860,1
dictation,1
irregularities,1
invade,3
accordance,1
weary,1
wears,1
valor,1
people,4
surpluses,1
designing,1
chesapeake,1
actually,1
peninsula,1
congratulation,1
abandon,1
oldest,1
cessation,1
stagnation,1
invite,4
operation,1
adverse,1
preemption,1
ratio,1
announces,2
legation,1
alarming,1
obligations,1
visitation,1
independence,2
debenture,1
descriptions,1
mainly,2
zollverein,2
presentation,1
afforded,1
wheelock,1
whenever,1
leaves,1
curtailing,1
restrain,1
exactness,1
adjusting,1
concernment,1
crews,1
stockholders,1
five,1
ruin,3
redeeming,1
hesitated,1
superinduced,1
durability,1
sufferings,1
please,1
collection,2
finding,1
elected,1
announced,1
channels,1
mountainous,1
extends,1
judging,1
campaign,1
vital,1
ultimating,1
rewards,1
expelling,1
conflict,1
convulsion,1
reasons,1
delusion,1
rough,1
imparting,1
father,1
rule,1
regis,8
commerce,7
decrees,4
expired,2
multiplied,1
declaring,1
wants,1
every,1
aristocratical,1
defalcation,1
pekin,1
answered,3
decreed,1
again,1
refuge,1
certainty,2
indians,4
ratified,4
commend,1
indeed,1
deficiency,2
professed,1
sandy,1
removal,1
imparts,1
cutters,2
erroneously,1
railroads,3
employ,1
guns,1
comparatively,2
reasoning,1
discussions,1
residing,1
negotiator,1
binding,1
desirable,1
during,2
fair,2
wisest,1
reestablish,1
degrees,4
consist,1
venezuela,1
emboldens,1
compatible,1
politic,1
safety,1
enable,2
price,2
liabilities,1
dependent,1
stipulations,1
crest,3
houlton,1
deplore,1
briefly,1
arise,1
fruitless,1
cherish,1
reduced,2
agree,1
commended),1
swelling,1
eminent,2
federative,1
doors,1
fail,1
enjoyment,2
itself,2
emperor,1
pride,1
ascertained,1
inhuman,1
favorite,1
embodied,1
distress,1
spain,1
civilized,1
hazarding,1
regions,1
hoped,1
steep,1
seize,1
damages,1
magnanimity,1
isolated,1
protector,1
alexandria,1
requests,2
privilege,1
immunity,1
straightness,1
substitute,2
foreign,2
civilizer,1
uniform,1
subsisted,2
fall,2
blaze,3
causes,2
decisively,1
violate,1
hopes,1
boldly,1
event,4
explains,1
establishes,1
wherever,1
established,1
witnessed,1
sympathize,1
boundless,1
agency,1
caused,2
innate,1
exhaustion,2
gratify,1
abstract,1
alluvial,1
rigidly,1
hereby,1
runs,6
incumbents,1
first,3
perfect,1
astronomical,12
impediment,1
appealed,1
clearly,1
minority,1
space,1
descending,1
exhausting,1
reference,1
unbending,1
chamber,1
punctuality,1
theater,1
struggles,1
from,8
depart,1
operation),1
resistless,1
privations,1
squadron,1
arresting,1
exactions,1
ill,1
finished,1
representatives:in,1
fostered,1
rejection,1
factions,1
incalculable,1
sanctioning,1
collision,1
munificent,1
mails,1
arbiter,1
covered,1
macedonian,1
invariably,1
repair,1
aforesaid,1
tract,1
accorded,1
death,1
arrival,1
advice,2
nolle,1
according,2
statements,1
denounced,1
powder,1
error,2
bestow,1
bends,3
aggregate,1
seemingly,1
trace,1
attendant,1
operations,1
public,7
paper,1
winds,1
steam,1
discriminate,1
value,1
concealed,1
procure,1
enforced,1
maine,1
imposts,1
quantity,2
iniquities,1
fortune,1
constructed,1
connecticut,7
verified,2
unchanged,1
trader,1
charging,1
resources,2
heaviest,1
rush,1
inducements,1
expensive,1
worthless,1
trade,1
performance,1
round,1
garrison,1
ambassador,1
insisted,1
stages,1
conferred,2
fleeing,1
shortness,1
growth,1
moneys,4
exemplification,1
authenticated,3
texan,1
objects,1
accuracy,1
imperishable,1
texas,10
shaken,1
resolution,1
building,1
tolls,2
setting,1
properly,3
score,1
isle,4
preexisting,2
interruptions,2
husbandman,1
quota,1
unanimous,1
scorn,1
sorts,1
navigate,1
enlists,1
appendix,2
virtually,1
fairly,1
raw,1
unsustained,1
authorities,1
persons,1
charges,1
advancement,2
invaders,1
800,1
artful,1
municipal,3
endure,1
charged,1
shortly,1
firmly,1
southern,1
providing,1
fate,1
conscientiously,1
hasten,1
unkind,1
uncertainty,1
exchanging,1
dollar,1
aspect,1
cupidity,3
departments,1
barbarity,1
close,3
morris,1
awarded,1
embarrassment,1
proclamations,1
invasion,2
trials,1
precedent,1
calling,1
qualities,1
collateral,2
citizens,1
edifice,1
unborn,1
nine,2
communicate,1
controls,1
concurrence,1
astonishment,1
saddle,1
asserting,1
offended,1
fortunately,1
red,1
act,2
transmission,1
agricultural,1
unbrokenly,1
post,1
norfolk,1
morrow,1
837,1
add,1
duplicates,1
liquidate,1
amend,2
its,25
constructive,1
conquests,1
remedy,2
propitious,1
consent,1
article,2
respect,2
escaped,1
barbarism,1
mutual,1
port,1
therefore,1
845,1
exchange,8
adjustment,1
hesitate,1
washington,2
contiguous,1
trust,1
income,2
joining,1
united,12
production,2
philanthropists,1
requisitions,1
directors,1
numberless,1
universally,1
morals,1
warehousing,3
benevolence,1
peaceful,1
miles,1
soldiery,1
prevent,1
dues,2
850,1
elaborately,1
unites,1
disturbing,1
previously,1
happiness,1
strikes,3
clearings,2
bills,5
usages,2
colonel,1
intersect,1
embrace,1
judicious,1
unqualifiedly,1
message,2
improvement,8
recorded,1
irritation,1
misconstruction,1
modify,1
interpolation,1
truth,1
mariner,1
pledge,3
enterprising,1
exempt,2
pushed,1
age,2
enjoyed,1
college,1
incongruous,1
avocations,1
tendency,2
ago,1
hardy,1
overlooked,1
years,2
number,3
870,1
obedience,1
dispensations,1
casual,1
property,2
decline,1
rio,1
conceded,1
luster,1
nothing,1
volumes,2
distributed,1
urged,1
guise,1
happily,1
system,2
erected,21
defects,1
spot,1
reaffirmed,1
productiveness,1
mighty,1
silver,6
presenting,1
aid,1
partial,1
sundry,1
repugnance,2
other,6
fathers,1
city,1
confident,1
retain,1
exclusion,1
arrearages,1
local,6
retail,1
crew,6
segments,1
defeat,1
extravagant,2
steadily,2
yield,1
898,1
promptly,1
decisions,1
speak,1
assertion,1
sacred,1
mortgaged,1
incidentally,1
tender,2
inhabiting,1
rests,1
filled,1
satisfaction,2
meantime,1
boat,2
remonstrated,1
tended,1
removed,1
powerful,1
future,1
fishery,1
objected,1
unsoundness,1
mississippi,3
movement,1
signing,1
pertain,1
workings,1
unfeigned,1
firesides,1
stimulated,1
impressed,1
$928,1
body,1
missouri,1
hamilton,1
commenced,1
points,1
absorbed,1
mode,1
amongst,2
elapse,1
ratifications,1
copies,1
stimulates,1
commissions,3
reap,1
banks),1
modified,3
maintained,1
complement,1
respectability,1
all,5
always,1
border,1
triangulation,1
already,1
avoids,1
informing,1
conducted,1
touch,1
applicable,1
real,1
admission,1
prompted,1
expense,1
strangers,1
maintaining,1
differed,1
garners,1
(not,1
monthly,1
territorial,2
coupled,2
collect,1
prayers,1
(now,1
retrenchments,1
adherents,1
facilitate,1
entertaining,1
interfering,2
jurisdictional,1
accession,1
contracts,2
lamented,1
subserve,1
diminished,2
and,62
petitioned,1
construction,2
saying,1
universal,1
abroad,1
undermine,1
fifteen,1
guilt,1
honorably,1
radical,1
deliberately,1
looked,1
cruisers,1
unnecessary,2
contingent,1
any,7
wrongs,2
duly,1
intercommunication,1
suggested,1
acerbity,1
application,1
productive,1
ascends,1
prune,1
derogation,1
communicated,1
consists,1
until,1
formally,1
honorable,1
comprehend,1
reason,2
thought,1
germanic,1
concession,1
accurate,1
prosecution,2
treaties,1
intimation,1
ship,1
acts,1
erect,1
revolutions,1
exalted,1
demonstrations,1
annual,1
english,1
exclusive,2
bois,1
resort,1
conterminous,1
occasioned,1
goodness,1
mitigation,1
devoted,1
using,1
reconciled,1
deeds,1
broke,1
apt,1
containing,1
hosts,1
inattentive,1
completed,1
males,1
demand,3
000,11
crouching,1
acquiesce,1
territories,1
rings,1
letter,1
45пїѕ,3
depreciated,1
calculations,1
corruption,1
annually,1
succeeded,1
increased,1
$987,1
northwest,1
assimilated,1
predecessor,1
acquire,2
fomenting,1
increases,1
fertile,1
diversity,1
deeming,1
provisos,1
varying,1
fruits,2
are,9
taken,1
where,2
barnharts,1
arm,1
popular,4
animadversions,1
retard,1
broken,1
vice,1
esteem,1
noticed,1
favors,1
suppress,1
fitted,2
describes,1
call,3
speculative,1
abrogated,1
calm,1
025,1
026,1
armed,1
relations,1
subjugation,1
through,1
becoming,1
strength,1
officer,1
offices,1
bloodshed,1
justified,1
run,1
occasional,1
individuals,1
exchequer,1
repeated,1
extinguish,1
view,2
either,2
ours,1
neighbors,1
warriors,1
subjugate,1
recollection,1
delegated,1
results,2
defiance,1
those,4
estimates,1
courses,6
correctness,1
accomplishing,2
flattering,1
motives,2
sanguine,1
unintentional),1
040,1
arbitration,3
prosecuted,2
agitation,1
difficulty,1
longer,1
noncombatant,1
volunteer,1
senate,1
everywhere,2
instability,2
gladly,1
consul,1
name,1
parties,1
selling,1
neighborhood,1
justifies,1
leaving,5
abatement,2
crop,1
forbearance,1
benefits,2
distance,1
unlawful,1
buckhall,1
novelty,1
abstain,1
prospects,1
unavailing,1
absence,2
abolish,1
attract,1
approaching,2
show,1
description,1
cautious,1
seamew,1
disappear,1
augmented,1
latitudes,1
situated,2
shot,1
vigilance,1
negative,2
058,1
defend,1
crowding,1
arrive,1
hence,1
seamen,1
ennobling,1
molestation,1
sympathies,1
resting,1
introduce,2
frown,1
estimated,1
valentine,6
approbation,1
agitating,1
suddenly,1
bona,1
receipts,5
mouth,1
069,1
restricted,1
assuming,1
sowing,1
duty,6
unreproved,1
penny,1
delicate,3
clearest,1
yard,2
dangers,2
commotion,1
judiciously,1
deprecated,2
usage,1
pledged,1
070,1
poured,1
tissue,1
collected,1
vouchsafe,1
072,1
transmitted,1
cheapness,1
cushing,1
subscribed,1
anxious,4
079,1
largely,1
broad,1
awakened,1
severely,1
greater,1
cash,3
elevate,1
case,3
oppressive,2
emigration,2
affections,1
perpetuating,1
082,1
ruinously,1
28th,1
unequivocal,1
saving,2
legislators,1
georges,1
dragoons,1
excessive,1
style,1
southeastern,1
care,1
participation,1
vindicate,1
assault,1
tolerated,1
lends,1
guard,2
fulfilled,1
settle,1
exercise,4
harsh,1
095,1
pressing,1
rouses,10
freedom,1
invitations,1
criminals,1
glorious,1
seldom,1
burthen,2
protect,1
$100,1
stress,1
richelieu,1
reliance,2
contingencies,1
more,4
born,1
tribes,1
consulted,1
nomination,1
beings,1
mexico,17
disorder,1
aggravate,1
waive,1
reluctantly,1
broadly,1
accounts,2
momentarily,1
persevere,1
shut,1
habits,1
questionable,1
navy,5
mature,1
amicable,1
nine),1
bonds,1
influence,1
amicably,2
responsibilities,1
labors,2
1774,2
1773,2
1772,2
1771,1
talent,1
$120,1
described,1
speculation,1
negotiate,2
england,2
$139,1
crisis,1
king,1
kind,1
supposition,1
obstructed,1
wayside,1
projectiles,1
both,4
most,12
important,1
1789,1
transfer,1
suicidal,1
parting,1
corrections,1
veteran,1
1783,2
affection,2
daily,1
exigency,1
correction,1
omit,1
erroneous,1
largest,1
limitation,1
$149,1
ascertain,1
affecting,1
forbid,1
footing,1
causing,1
reject,1
consummation,1
traced,1
imitation,1
correcting,1
sheet,1
refunded,1
mentioned,1
inseparably,1
accompanying,3
prosecuting,2
subvert,1
adds,1
rest,1
san,1
amount,1
administrations,1
original,1
adherence,1
saw,1
convertible,1
earnestly,1
say,2
also,3
sandwich,2
enough,1
increase,3
differ,1
spread,1
emoluments,1
favor,1
$150,1
interruption,1
investigation,1
latter,1
depression,1
treating,1
simply,1
equivalent,2
bad,1
alienate,1
awake,1
perpetual,1
offer,1
suffer,1
diplomatic,1
imputation,1
partake,1
complex,1
draft,1
bay,1
$163,1
914,1
$166,1
iniquitous,1
violated,1
afterwards,2
portages,1
religiously,1
disclaim,1
hazardous,1
newport,1
personal,1
angry,1
accurately,2
seconded,1
submitted,1
delay,4
globe,1
transient,1
plans,1
subverted,1
applause,1
blighting,1
greatly,3
hesitation,1
jones,1
ascribed,1
strong,1
deal,2
geographical,1
abuse,1
miscellaneous,1
scheme,2
affect,1
dead,1
onerous,1
eyes,1
sea,1
proves,1
sixth,1
lettings,1
proved,1
see,3
servant,1
responsibility,1
offered,2
civil,1
subsequent,1
national,7
effectual,1
indicate,1
roadsteads,1
compared,1
completion,1
set,1
contain,1
founded,3
words,1
entered,1
procedure,1
applicant,1
battle,1
instructed,1
tending,1
dissatisfaction,1
difficulties,1
943,1
auspices,1
somewhat,1
vicinity,1
earnest,1
river,5
validity,1
jealousies,1
spider,2
practiced,1
performs,1
rooms,1
transferred,2
beg,2
deposited,1
excused,1
states),1
needless,1
nearest,1
denomination,1
labored,1
insolvency,1
detention,2
refitment,1
states:,1
shipping,1
smallness,1
discharge,1
useless,1
france,1
955,1
(time,1
disadvantage,1
complain,1
zeal,1
defenses,3
she,1
anxiety,2
adjust,1
parts,1
western,2
vigorous,1
finances,3
debt,7
party,1
duties,2
little,1
however,1
invidious,1
deep,1
confined,1
humane,1
sources,3
viz:,1
relates,1
maryland,1
malabar,1
burthened,1
deem,1
liquidated,1
capable,2
exhibits,2
explained,1
collector,1
faederis,1
unhappily,1
970,1
signs,1
candid,1
jersey,1
supervision,1
captured,4
clears,1
976,1
await,1
confines,1
views,1
recruited,1
sit,1
pretensions,1
over,8
directed,2
assurances,1
brilliant,1
practical,1
six,2
sanguinary,1
captures,1
breathing,1
bound,2
false,1
obviously,1
retained,1
avoid,1
fresh,1
prompt,1
appealing,1
comprehensive,1
select,1
modes,2
fulfill,3
untutored,1
advanced,1
repose,1
recommendation,1
mechanical,2
invoke,1
nations,2
counsels,1
candor,1
improved,1
thanks,1
striking,1
warrants,1
convinced,1
illimitable,1
advances,1
majority,5
join,1
crown,1
reduce,1
inquire,1
faithfully,1
large,1
surface,1
20th,1
satisfied,1
vain,1
ordinary,5
transactions,1
harmonious,2
alludes,1
gibraltar,2
operate,3
verdict,1
exclusively,1
john,1
reconsider,1
doctrine,1
alluded,1
recommending,1
brought,1
works,1
proportion,1
payments,1
pursuit,1
drawbacks,1
steamboats,1
leech,2
finishing,1
world,1
composed,1
inquiry,1
astronomer,1
angle,5
december,1
urgent,2
everything,1
composing,1
table,1
resisted,1
amidst,1
side,1
creator,1
creditors,2
break,1
change,1
expressly,1
tabular,1
indirectly,2
extremes,1
comfort,1
respectful,1
deplored,2
pensions,3
punishment,1
suspicions,1
century,1
irrevocable,1
denunciations,1
corporate,2
instruction,1
report,1
powers,9
facilities,1
disburse,1
improvements,4
waiving,1
constant,1
breakwater,1
lament,1
personof,1
several,4
cotton,1
expresses,1
office,2
levies,1
northern,1
posts,1
high,2
proceeds,6
falls,1
imposition,1
levied,1
expressed,2
directly,3
different,1
administered,1
awaits,1
administrators,1
officially,1
discretion,1
descends,1
adjusted,4
extravagantly,1
restrictions,1
thrown,1
preserve,1
throws,1
establish,2
permanently,1
attaches,1
rations,1
proclaim,1
belongs,1
enacted,1
attached,1
evermore,1
oregon,1
comprised,1
jeopardize,1
errors,1
pursues,1
consumed,1
behind,2
tenth,1
sentiments,1
mental,1
hostility,1
afloat,2
eminently,1
preservation,2
enjoys,1
total,2
pursued,2
1/2,1
1/3,3
auxiliary,1
workshops,1
countrymen,1
savage,1
prices,2
informs,1
highly,1
unfortunate,1
auspicious,1
chance,1
nature,2
social,1
interesting,1
raised,1
relying,1
proviso,2
control,2
demanding,1
100,2
adventuring,1
meduxnikeag,1
acknowledge,1
ameliorate,1
convulsions,1
awards,3
unauthorized,2
earth,1
subtreasury,3
implicated,1
essentially,1
overthrow,1
inland,2
closest,2
steamships,2
occurrences,1
threatening,1
upper,3
delta,1
intercourse,8
dwelling,1
stood,1
pains,1
behalf,2
supposing,1
scene,1
000to,1
improperly,1
exert,3
encouraged,1
strengthen,1
injury,1
inclinations,1
drawn,2
exhibit,1
prompts,1
extremity,1
lighted,1
inadequate,1
assemblies,1
deny,2
closely,1
compromits,1
pleasure,1
miserable,1
remaining,2
glory,2
secondary,1
requested,1
mission,1
appreciated,1
stopping,1
mercantile,1
conditions,2
surrendered,1
access,1
redeemed,3
apprehension,2
advisable,1
cooperate,1
sum,5
ports,2
neighboring,1
extended,2
serving,1
132,2
referring,1
current,1
resorting,1
secretary,2
transpire,1
actively,1
copper,1
plainly,1
detroit,1
overweening,1
preferred,1
000leaving,1
situations,1
surprised,1
offensive,2
christendom,1
stopped,1
paralyzes,1
laying,1
fancied,1
makes,1
maker,1
threatened,1
store,1
convertibility,1
beloved,1
condemned,3
kennebec,2
confirm,1
hill,1
unconditional,1
mortality,1
depths,1
eventuate,1
vast,1
fourth,3
intervene,2
but,4
dissent,9
detriment,1
sincerely,1
declare,1
calamitous,1
available,1
unequal,1
express,1
150,1
confine,1
151,1
1811,1
thisdepartment,1
subjection,1
excesses,1
drawback,1
seizures,1
debtors,1
wishes,1
1816,1
written,2
1815,1
generate,1
unusual,1
extreme,1
reship,1
coordinate,1
greatness,1
hastened,1
despoil,1
sink,1
degree,3
dealers,1
deficiencies,1
functionaries,1
bending,1
1820,1
167,1
discord,1
ocean,1
especially,1
brazilian,1
naval,1
once,1
vitals,1
1823,1
peculiarities,1
higher,1
implements,1
renouncing,1
doing,1
brazil,6
records,1
unadjusted,2
idea,1
pending,1
prisoners,1
monument,16
1833,1
fraternal,1
ameliorated,1
1830,1
infraction,1
drawings,2
confederacies,1
throughout,2
disembarrass,1
conflicts,1
assent,21
1839,1
1838,1
virtue,2
1837,1
1836,2
1835,1
successful,2
1834,2
figure,1
gradual,1
deliberations,1
transmit,1
weaker,1
180,1
consumption,1
sir:,1
passports,1
29th,1
weaken,1
185,1
stone,2
1844,2
1843,1
1842,2
1841,1
contravention,1
1840,1
unbiased,1
speedily,1
subjecting,1
passing,1
1848,2
1847,1
punctual,1
compromise,1
1845,2
reach,1
comparative,1
bluffs,1
commencement,1
inches,3
positively,1
children,3
road,1
review,1
justify,1
massachusetts,5
weather,2
sight,1
devolving,1
between,1
guide,2
$200,1
exhibited,1
efficiency,1
spectacle,1
consumption),1
$215,1
natural,1
arising,3
consummated,1
uncongenial,1
inclining,1
answerable,1
pillage,1
jeopardy,2
tranquillity,3
expenditures,3
following,1
acquainted,1
substantially,1
amoy,1
deprives,1
$224,1
unwillingly,1
provoked,1
flag,2
intestine,1
promulgation,1
testator,1
ropewalk,1
unison,1
insignificant,1
james,2
languid,1
freight,1
unsuccessful,1
range,1
wean,1
weal,1
derive,1
16th,1
rock,2
impress,1
announcing,1
seeing,1
feature,1
flat,1
place,2
variously,1
lawless,1
regular,2
irrational,1
objection,1
informed,3
dispute,1
generals,1
observation,1
prominently,1
hesitancy,1
aggression,1
suggest,4
offenders,2
lead,1
expect,1
site,1
cease,1
riotous,1
apprehensive,1
elements,1
gentlemen,2
submission,2
$230,1
northwesternmost,2
apology,2
argument,1
passage,3
adequate,4
utter,2
uniformity,1
begun,1
annoyances,1
growing,3
routes,1
utterly,1
retaliating,1
deciding,2
enlargement,1
plain,1
should,6
only,2
justice,3
sage,1
appertaining,1
officers,1
enumerated,1
reprobated,1
incursions,2
appropriations,1
individual,2
indirect,1
goes,1
loans,1
netherlands,1
salmon,1
comparing,1
accepted,1
tax,1
constrain,2
excitement,1
lovers,1
suffrage,2
reparation,1
person,1
testimony,3
safe,2
$250,1
enforce,1
destined,1
glitter,1
presidential,1
departure,1
accepter,2
herself,2
week,1
acknowledged,1
sail,1
instances,1
balls,1
emphatic,1
graham,5
distinct,1
superadded,1
terminates,1
guarding,1
aware,1
can,6
numerical,1
paris,1
albert,3
ready,1
securely,1
alarm,1
endowments,1
cincinnati,1
said,1
interposed,1
terminated,1
greatest,1
carried,1
illustrious,1
storehouses,1
immunities,1
motion,1
limited,1
satisfy,1
idle,1
weakest,1
seaboard,1
fearful,1
passive,1
really,1
clothes,1
succinctly,1
efficacy,1
granada,1
carrier,1
corresponding,1
granite,1
accrued,1
(friday,1
arguments,1
informal,1
tends,1
