richardNixon,Occurences
communist,11
strategic,3
nation,17
year,30
bring,7
areas,6
fighting,7
stevenson,10
without,7
concern,6
offer,8
integrity,7
let,21
because,14
state,9
meeting,7
energy,17
goals,8
agreement,4
going,15
past,9
want,12
voices,8
vietnam,52
opportunity,7
personal,6
economy,8
am,9
quality,6
000,14
charges,7
haldeman,8
attorney,8
peace,9
must,6
programs,13
actions,6
much,9
dean,14
strong,6
deal,8
role,7
achieve,8
enemy,9
cambodia,20
believe,10
abuses,8
facts,14
moment,6
result,6
involvement,8
same,6
responsibility,7
offered,7
where,10
after,9
free,6
policy,17
think,13
committee,6
necessary,8
decision,10
vietnamese,12
withdrawal,18
union,6
right,6
m,17
march,13
soviet,9
americans,14
such,6
s,41
t,35
meet,13
ask,8
days,8
progress,7
god,6
open,12
through,7
country,7
principle,7
evidence,9
strength,6
administration,8
good,5
got,10
act,5
white,7
attacks,10
continue,6
ehrlichman,7
military,7
five,19
those,7
us,13
others,6
budget,8
needs,10
making,5
pat,10
last,7
transcripts,22
need,8
might,7
publicly,9
casualties,9
whatever,7
respect,6
ve,14
mutual,8
involved,8
forces,19
campaign,7
know,15
proposals,8
washington,10
support,8
full,12
next,9
private,15
united,16
hanoi,6
gasoline,9
house,7
life,9
states,15
sanctuaries,12
getting,9
end,23
prosperity,7
every,6
just,16
vote,5
live,8
over,8
war,45
technology,6
negotiations,4
message,6
home,9
better,6
truth,7
fund,12
well,11
embargo,12
president,5
tapes,10
very,6
decade,7
localities,7
congress,20
ago,8
american,10
governments,3
nations,6
program,7
welfare,7
troops,7
issues,5
years,10
america,8
1974,9
problem,19
far,13
price,9
supplies,8
property,6
action,6
truly,7
greater,7
plan,12
case,10
between,9
generation,6
give,7
still,7
goal,10
watergate,22
work,8
sense,7
propose,8
toward,13
system,14
provide,8
schools,5
john,11
become,9
care,7
don,10
south,28
against,7
north,9
differences,6
air,8
secret,13
matter,12
inflation,7
local,7
foreign,6
capacity,6
world,5
government,11
freedom,9
too,7
federal,9
decisions,6
crime,9
neutrality,6
man,26
place,7
power,10
europe,6
together,7
incidentally,10
means,6
question,13
forward,6
knew,10
change,8
spirit,6
health,8
great,8
eisenhower,13
help,7
future,8
regard,8
interests,10
economic,6
tonight,8
door,9
concerned,14
before,10
tell,9
own,9
honor,6
political,10
office,7
major,8
me,37
should,15
only,12
different,8
always,15
new,6
law,8
months,12
crisis,8
mr,13
shall,7
history,7
both,6
most,7
senator,17
efforts,7
coverup,12
personally,10
improve,5
here,8
rising,5
policies,7
why,11
conversations,14
percent,6
point,9
general,8
security,10
east,6
paris,8
public,8
men,8
today,12
land,10
working,7
occupied,6
petersen,7
abroad,8
chance,11
resources,12
also,10
say,41
employment,7
clean,9
any,18
build,7
earth,9
investigation,7
growth,11
front,9
