georgeWashington,Occurences
frowning,1
prepare,1
half,1
belligerent,2
fifty,1
withdrawn,2
intrinsically,1
discourage,1
stationing,1
dishonor,1
would,2
customs,1
palladium,1
warrant,1
scanty,1
ten,1
someauxiliary,1
sake,1
energy,2
deference,2
successfully,1
solid,1
spreading,1
(,1
competent,1
require,1
yourselves,2
standards,1
1,1
temper,1
left,1
reserved,1
professors,1
rounded,1
(though,1
rejoice,1
standeth,1
object,3
britannic,2
vengeance,1
constantand,1
infinite,1
turn,1
perseverance,1
elect,1
example,1
result,2
minds,3
characters,2
opposition,1
balances,1
same,5
levying,1
commission,1
after,1
quiet,1
citizens:i,1
rational,1
connect,1
hand,1
policy,9
resume,1
a,8
ordered,1
address,2
collisions,2
posture,2
i,6
emissaries,1
blood,1
violating,1
obeying,1
the,55
entering,1
unimproved,1
sale,2
destroyed,1
s,1
t,1
u,1
throw,1
exciting,1
obvious,1
fifth,1
information,1
tho,1
november,1
imbitter,1
alloyed,1
resolve,1
good,1
faithful,1
virginia),1
provocation,1
suffered,1
besides,1
serious,1
disperse,2
offensively,1
others,4
powerfulinstruments,1
signally,1
making,3
savages,1
mustbe,1
check,1
disguised,1
cloathing,3
frustrate,1
aside,1
supposed,1
bursting,1
enjoined,1
applied,1
disturbed,1
provided,1
effecting,1
indispensable,4
seminaries,1
representation,1
embody,1
powers:i,1
society,1
motive,3
anticipation,1
postmaster,1
root,1
reinforcement,1
conducive,2
indispensably,1
quarters,1
expose,1
concentrate,1
room,1
better,1
permit,2
well,1
suitable,1
ambitions,1
taking,1
refractory,1
observance,1
severally,1
powers:,1
expeditionsor,1
experiment,3
discharged,1
struck,1
hath,1
cordial,1
flow,1
order,1
cooperation,1
reminds,1
protecting,1
poorer,1
consigned,1
distant,3
felicity,3
exertion,1
withthe,1
despaired,1
bringing,1
prohibited,1
homage,1
women,1
woman,1
save,1
kentucke,1
respectively,1
protection,1
solemnly,1
matter,2
trusty,1
frigates,1
disquietude,1
too,4
acquiring,1
honesty,1
have,6
neutrality,1
forfeiture,2
kentucky,1
product,1
question,1
additions,1
humanevents,1
spirit,14
cheap,1
reclaim,1
produce,1
trusts,1
confided,1
regard,3
thousand,2
communities,2
contributed:,1
capital,1
hostile,1
upon,1
expeditions,1
pray,1
employed,1
abilities,1
consular,1
creeks,1
ambitious,1
defective,1
raise,2
west,3
circumspection,1
traffic,1
frontiers,1
circumstances,6
law,2
including,1
lay,1
coins,1
devising,1
patriot,1
lest,1
pardon,1
pernicious,1
plenty,1
constitutes,1
less,5
institutions,3
incurs,1
condition,1
markets,1
inventions,1
obligation,3
were,7
improve,1
ceremony,1
taxation,1
constituted,1
patriotic,1
presqu,1
became,1
distressful,1
immovable,1
university,1
regency,1
captivity,1
effective,1
times,2
expedients,1
defraying,1
generous,1
repressed,1
possibility,1
direction,1
printers,1
whence,1
empowers,1
inspector,4
distinguished,1
opening,1
theknowledge,1
stable,1
adopts,1
productions,2
impelled,1
incident,1
maintenance,1
caught,1
expedition,1
concert,1
led,1
indemnifying,1
supply,4
infatuation,1
wherein,1
concern,1
rectify,1
integrity,1
eventual,1
mountain,1
refrain,1
liable,3
let,11
state,3
press,1
alluredby,1
defined,1
cares,1
appointments,1
22d,1
night,1
probable,1
opposite,1
deputation,1
complied,1
each,4
restraint,1
clouded,1
rendered,1
offering,1
creating,1
restrained,1
cordially,1
infringe,1
felicity:,1
thirty,1
distrustful,1
ardent,1
perfectly,1
probably,1
jurisdiction,1
constitutional,2
dollars,1
weighed,1
two,1
moment,1
promote,1
desired,2
punishments,1
does,2
oeconomy,1
attach,2
prevented,1
situation,3
creation,1
inclination,3
think,2
ingredient,1
refused,1
occurred,1
consolidate,1
perplexed,1
anxiously,1
brotherly,1
services,4
haughty,1
forfeited,1
outweighed,1
prayer,1
watch,1
speech,1
detained,1
misrepresent,1
antwerp,1
quit,2
thing,1
privileges,2
lessening,1
principle,2
surmounted,1
reflecting,1
source,1
domestic,1
unable,1
punishing,1
bias,1
weakened,1
discountenancing,1
miamee,2
stability,1
acquired,1
actual,1
undertook,1
reflection,1
ultimate,1
erie,1
doubt,2
merit,1
employing,1
pecuniary,1
involved,1
district,2
imploring,1
redound,1
fixed,1
whereof,1
philanthropy,1
full,1
destiny,2
away,2
obviatea,1
house,2
practising,1
dueto,1
painful,1
enhance,1
imbittered,1
convention,3
pain,1
unjust,1
suspicion,1
purchase,1
enlarged,1
advised,1
equal,3
fallen,1
fund,1
moderation,1
paid,1
spared,1
commonwealth,1
conducts,1
regulate,1
ninety,1
contemplating,1
17th,1
three,1
consistency,1
required,1
measures,2
remembered,1
suppression,1
season,2
payment,1
enter,1
allotted,1
unprejudiced,1
clime,1
sessions,1
convincing,1
roads,2
destroy,1
deemed,1
dependencies,1
pennsylvania,2
judicial,1
provide,1
primary,3
requires,1
exertions,1
competency,1
enterprise,1
teaching,1
consume,1
formation,1
belongingto,1
unknown,1
accidental,1
lot,1
aided,1
assure,2
pretext,1
prop,2
inheriting,1
consult,1
gracious,1
merely,1
manners,1
consuls,2
meant,2
wealth,2
means,2
impracticable,1
fury,1
centre,1
precarious,1
performed,1
contemplation,1
eternal,1
evince,1
redress,1
fellow,2
barely,1
interests,7
prevalent,1
acquiesced:,1
natchez,2
commanded,1
door,1
speedy,1
friendly,2
tell,1
possession,2
improper,1
experience,10
daughters,1
commander,1
shown,1
controversies,1
exhort,1
majesty,5
encouragementsshall,1
day,1
accustomed,1
raising,1
obtain,1
contraband,1
fixing,1
moons,1
created,1
sacrifice,2
particular,6
done,2
water,1
congratulate,1
formal,1
perceived,1
senekas,4
ample,1
diffidence,1
infusing,1
andpolitical,1
entertain,1
ease,1
critical,1
part,3
insulted,1
boards,1
jealousy,3
banished,1
judiciary,1
expediency,1
perpetrate,1
principal,2
tend,2
inducement,2
declining,1
east,2
equitable,1
unrestrained,1
surest,2
session:,1
relief,1
amply,1
introduction,1
sacredly,2
annals,1
villages,1
revenge,1
subscribe,1
persuaded,1
entertained,2
seeking,1
ordained:,1
third,1
gratitude,1
further,3
demands,1
condign,1
smiles,1
regulated,1
(on,1
outlets,1
exemption,1
(or,1
conducting,1
asylum,1
avidity,1
path,4
michelimackina,1
depending,1
finds,4
dey,1
examining,1
reimbursement,1
abusing,1
accepting,1
prejudices,1
provinces,1
preventing,1
carefully,1
going,1
pass,1
past,1
mild,1
shock,1
bill,2
whose,2
easy,1
clog,1
replenishing,1
census,1
omitted,1
assigned,1
relative,1
attitude,1
profoundly,1
obstructions,1
bodies,1
equivalents,1
intitled,1
accelerating,1
existed,1
mint,2
adoption,2
harmonize,1
philadelphia,2
weighty,1
annoyed,1
term,2
mine,1
accords,1
grateful,1
mind,1
business,1
reverence,1
forbear,1
withdrawing,1
right,6
possible,2
involve,1
partly,1
requisite,2
burthening,1
depositories,1
featurein,1
regulates,1
sedition,1
bylaw,1
complicated,1
supersede,1
under,3
desert,1
did,3
quarter,1
london,2
added,2
emergency,1
impel,1
recommendations,1
$2,1
exemplary,1
habit,1
brings,1
later,1
forgotten,1
legal,2
midst,1
boundaries,1
evils,2
beattained,1
fortitude,1
signal,2
impair,1
possibly,1
parcel,1
(to,1
journey,1
test,1
finally,1
alterations,1
varied,1
conviction,2
month,2
acceptance,2
embraced,1
final,2
occasions,3
expiration,1
distract,1
occasion,4
impossibility,1
loan,1
requesting,1
rather,1
importance,1
worthy,1
endless,1
expectation,1
title,1
papers,1
states,6
progenitors,1
propagating,1
engagements,3
human,5
continuation,1
thetreasury,1
relax,1
length,1
blessed,1
concerns,3
considerations,4
inconveniences,1
universe,2
arduous,1
interpret,1
faction,5
grant,1
articles,1
qualified,1
brothers,1
deplorable,1
exhausted,1
triumphed,1
attempt,1
division,1
navigation,2
conciliating,1
upholding,1
supplies,1
diffusing,1
whereas,1
calamities,1
kindness,2
renounced,1
fear,1
lying,1
inspection,1
framing,1
unwarrantable,1
made,2
bythe,1
conciliation,1
appreciation,1
signed,1
sense,3
being,2
printed,1
field,1
aggravated,1
alienations,1
virtuous,2
served,1
opens,1
(a,1
interval,1
senators,2
trading,1
(i,1
diffusion,1
overtures,1
serves,1
cultivating,1
us),1
stamped,1
bands,1
garrisoning,1
mention,1
government,6
known,1
wisdomof,1
legally,1
condemnation,1
recur,1
man,3
stifled,1
stand,1
disappointments,1
leisure,1
knows,1
juncture,1
contemplated,1
ennobles,1
may,1
success:,1
supplied,1
forward,3
consolations,1
zealous,1
bless,1
cultivation,1
murders,3
inexpedient,1
succor,1
warlike,1
subject,1
use,3
recognition,1
deluded,1
feel,1
main,2
bail,1
arrangement,1
circulating,1
revenue,3
esteemed,2
sufficiency,1
negotiation,1
grain,2
credit,2
residence,1
discountenance,1
citizensat,1
summoning,1
alter,1
waste,1
carolina,1
bearing,1
establishment,3
unavoidable,1
interrupted,1
apprehensions,1
weights,2
becomes,1
directions,1
null,1
deputies,1
dispose,1
constitution,3
presage,1
fidelity,1
discontents,1
indispensible,1
trumbull,1
men,2
repeat,1
threats,1
suppressed,1
justification,1
make,1
included,1
met,2
fulfil,1
hostilities,2
repeal,1
wicked,1
ingratitude,1
opposed,1
thenceforward,1
penetrated,1
questioned,1
apportionment,1
constituting,1
admittance,1
structure,2
witness,1
fortify,1
due,1
conform,1
circulation,2
authentic,1
contingency,1
disgraced,1
tamper,1
inform,1
deceased,1
depend,1
avowed,1
about,1
friendships,1
cure,1
danger,6
colerain,1
granted,1
observed,1
character,4
bank,1
consummate,1
meaning,1
alltimes,1
above,1
drawing,1
dependant,1
beneficent,1
salutary,1
moderate,1
resident,1
injunction,1
august,1
myself,6
gilding,1
received,1
theconvenience,1
execute,1
substantial,1
celerity,1
benefit,2
labor,1
vastly,1
avoided,1
pillar,1
highest,1
consistently,1
sincere,1
receives,1
invested,1
transporting,1
binds,1
examine,1
outset,1
experiments,1
vigor,1
industry,1
believe,2
long,1
remember,2
into,2
1st,1
extremelyinteresting,1
3%,1
misrepresentations,1
participates,1
resuming,1
garrisons,1
benign,1
supports,1
invites,1
examined,1
attentively,1
destruction,1
31,1
acquit,1
intirely,1
unceasing,1
prosper,1
expression,1
36,1
though,1
appeal,1
many,4
transportation,1
desirableness,1
controlled,1
appear,1
extensive,1
2d,1
sovereigns,1
inspire,1
increasing,1
progress,1
respected,1
open,1
44,1
devote,1
agent,1
treat,3
46,1
47,1
militia,2
odious,1
forced,1
suffering,1
numbers,1
rapid,1
expressing,1
seven,1
hawkins,1
exemplified,1
5%,1
sever,1
funded,1
uniformly,1
algiers,2
displaying,1
admitted,1
56,1
richness,1
sealed,1
apportioned,1
complaints,1
felt,1
invited,1
bears,1
look,3
modification,1
effected,1
unanimity,1
injuring,1
assurance,1
grounds,1
immutable,2
temperate,1
advisers,1
impotency,1
secured,1
allow,1
alloy,1
lord,1
mass,2
proper,4
peculiarly,2
palliated,1
distillers,1
andwhereas,1
admit,1
common,11
interest,14
urgency,1
themselves,1
]the,1
indicted,2
expectedto,1
immature,1
evacuation,1
apply,1
recently,1
staked,1
overlook,1
politician,1
gratifying,1
proportionably,1
prints,1
renewed,1
lodged,1
money,1
riches,1
yields,1
step,1
fisheries,1
unprotected,1
forever,2
tribute,1
mark,2
endanger,1
base,1
requisition,1
molestations,1
whole,1
revolution,1
relation,3
loss,1
impediments,2
relate,2
humor,1
lost,1
premises,1
richly,1
trifling,1
preliminary,1
obstacle,1
attempts,2
still,4
work,2
lose,1
cattle,4
toward,10
books,1
knowing,1
providence,1
among,2
delays,1
convince,1
humiliating,1
terminate,1
word,1
dispondence,1
therecess,1
stated,1
love,4
internal,2
extension,1
republican,2
excise,2
enjoy,1
foundation,1
ourselves,3
specified,1
indulges,1
appearances,2
slave,2
throwing,1
naturally,3
unwise,2
writing,1
federal,1
verify,1
believed,1
europe,3
academy,3
vicissitudes,2
reward,1
esqr,2
prevailed,1
destructive,1
opinion,12
apprehendthat,1
regulations,1
exists,3
ages,1
indian,1
insult,1
voice,2
seduced,1
injuries,1
prepared,1
fertility,1
existence,1
pretence,1
apprised,1
perversely,1
exaggerate,1
discover,1
imply,1
meansyet,1
excite,1
retaliations,1
treasonable,1
exigencies,1
revision,1
impolitic:,1
appointed,1
estimation,1
qualification,1
provision,1
seems,1
commence,1
transportationof,1
unseasonable,1
states:therefore,1
congratulations,1
fomented,1
insure,2
enmity,1
prescribed,1
walking,1
arsenals,1
grave,1
advantage,1
notified,1
instead,2
ultimately,1
controversy,1
command,1
indies,3
accustoming,1
anticipate,1
abodes,2
bullion,1
constituents,1
excepted),1
exception,1
prevailing,1
animosities,1
temporary,4
hands,1
sufficiently,1
year,2
desperate,1
allowed,1
leading,1
(which,2
branch,1
urge,1
emergencies,1
understanding,1
diversifying,1
because,2
near,1
silence,1
extortion,1
victims,1
marched,1
agrees,1
agreement,2
inviting,1
agreeable,1
economy,1
inspired,1
community,3
version,1
sensations,1
tendered,1
contains,1
selection,1
stop,2
science,1
agreeably,1
contravene,1
returns,1
detail,1
prudence,1
consented,1
boston,1
usefulness,1
inspire:,1
least,3
utility,1
immediately,1
resignation,1
admonishing,1
hungry,1
refuse,1
antipathy,1
variations,1
excises,1
proffered,1
misrepresentation,1
discriminations,3
agreed,1
tioga,3
extendthe,1
cultivated,1
unfriendly,1
preferences,1
fourteenth,1
learn,1
excepting,1
unparellelled,1
sweet,1
florins,2
subdivisions,1
instructions,1
evidence,1
republic,4
amity,1
entangle,1
official,1
ohio,1
repetition,1
spring,2
leave,1
incorporated,1
excluding,2
surrender,1
deputed,1
minister,1
obligatory,1
cruel,1
need,1
misapprehended,1
wrote,1
shade,1
originally,1
often,4
intentions,1
newspapers,6
insist,1
obtaining,1
volume,1
canada,1
materials,1
buildings,1
useful,3
lasting,1
private,2
respecting,2
10th,1
andit,1
penaltieson,1
deficencies,1
accomplish,1
governmentmay,1
ofcandor,1
end,1
upright:,1
satellite,1
forty,1
unequivocally,1
complyance,1
impracticability,1
chiefly,1
praise,1
whersoever,1
belaid,1
people:,1
special,1
undertaking,1
arises,1
visited,1
detected,1
progressive,1
foments,1
betray,1
arisen,1
attacked,1
deliberate,1
referred,1
wanting,1
career,1
education,1
called,1
springs,1
charter,1
liberate,1
occurs,1
turns,1
fullest,1
diminution,1
gradually,1
tried,1
brethren,1
deepest,1
necessityof,1
succeeding,1
narrow,1
proceedings,1
judge,1
appellation,1
navigation:,1
sullied,1
similar,1
aliens,1
nay,1
momentous,1
foundations,1
forth,1
wives,1
seventh,1
driven,1
prussia,1
indicated,1
tone,1
against,2
accusations,1
manufactures,1
representations,1
selfrespect,1
withstand,1
tumults,1
encourage,1
asked,1
morality,5
rights,2
administer,1
share,1
punished,2
obstinate,1
thoroughly,1
thousand:,1
stores,1
comprehending,1
concessions,2
species,1
dawning,1
strongest,1
shake,1
cent,5
honor,1
indemnity,1
metals,1
thestudy,1
trial,1
disorders,1
constancy,1
declares,1
conceptions,1
new,1
took,1
subjected,1
secrecy:,1
overawed,1
woods,1
remedies,2
shall,4
intervals,1
rigorous,1
stimulating,1
continuance,2
tribe,1
bestowed,1
strenuous,1
inconvenience,1
boundary,3
torn,1
influenced,1
respective,1
promulgated,1
running,1
exalt,1
eve,1
define,1
dictate,1
tokens,1
commensurate,1
render,1
declared,1
frontier,3
manifest,1
rates,1
relieve,1
endeavor,3
employment,1
specific,1
engage,1
borrowing,1
remainder,1
forms,1
territory,1
same),1
amendment,2
farther,1
maintain,1
establishing,1
implore,1
bargain,1
decided,1
predominates,1
elective,1
willshew,1
represented,2
supplications,1
fully,1
beneficence,1
conclusive,1
ensuing,1
intrigues,2
remain,1
expected,1
anticipations,1
forgiveness,1
countries,3
disinterested,2
eye,1
himself,1
efficatious,1
supplying,1
deserved,1
associations,2
disturbance,1
feels,1
maybe,1
another,9
recommend,1
enemy,1
permitted,1
envoy,1
obeyed,1
expectations,1
ratification,1
liberation,1
disregarding,1
riot,1
fortunate,1
such,1
recovered,1
absolute,1
cherokees,1
understood,1
countenance,1
supported,2
resulted,1
counsellors,1
penalties,1
wealthy,1
documents,1
florida,1
administration,7
objections,1
dwell,1
remains,1
betrays,1
sciences,1
benediction,1
incomplete,1
white,2
sinister,1
houses,1
procuringwarlike,1
thelot,1
sovereign,1
termination,1
endeavours,1
town,1
might,2
indistinctly,1
whatever,7
destroying,1
moreeffectually,1
ignorance,1
leads,2
installment,2
particularcircumstances,1
patriotism,6
clothing,1
next,1
furnishing,1
occupy,1
import,1
submit,1
nearly,1
classes,1
vested,1
nor,2
conclusion,1
durable,1
not,3
doubtless,1
impose,1
now,2
statement,1
derived,2
postponed,1
corrisponding,1
thoughts,1
election,2
race,1
was,5
war,3
derives,1
way,1
what,6
summons,1
refer,1
fortified,1
timely,1
rise,1
flame,1
discard,1
recalls,1
disciplined,1
fought,1
foes,1
taxes,2
decide,1
insurrection,1
when,7
withheld,1
intripidity,1
excluded,1
doubly,1
instruments,1
hatred,1
confirming,1
far,1
issued,1
plan,3
recited,1
reimbursing,1
treason,3
give,4
practicable,2
partaking,1
counsel,2
lives,1
depends,1
probability,1
instituted,1
rendering,1
stations,1
horrid,1
lowest,1
invasions,1
propriety,1
tripoli,1
explicit,1
ships,1
determined,1
comfortable,1
prizes,1
prevail,1
tranquility,1
completely,1
suit,1
becamepayable,1
choicest,1
dividing,1
study,1
explicitly,1
sentences,1
citizens),1
portion,4
direct,1
districts,2
enabled,1
gain,1
receiving,1
modern,1
dupes,1
uninfluenced,2
acknowledging,1
occasionally,1
relieved,1
enables,1
adjourned,1
peaceably,1
great,6
entrusted,1
happened,1
veneration,1
wrong,1
wanton,1
proceeded,1
monarchical,1
organization,2
pleased,1
peaceable,1
behold,1
sides,1
organizing,1
certain,1
preside,1
board,1
augments,1
offspring,1
bread),1
pursuing,1
arrest,1
unprincipled,1
heartburnings,1
heretofore,1
whomsoever,1
eleventh,1
section,1
used,2
discontent,2
constantly,4
retirement,2
subservient,1
malignant,1
originated,1
notification,1
looks,1
presented,1
threaten,1
few,1
highways,1
otherwise,1
marked,1
intrigue,1
recurring,1
nearer,1
repugnant,1
tranquil,1
opened,1
pleasing,1
produced,1
market,1
effects,1
loanat,1
effect,1
keep,2
andwith,1
conventions,1
produces,1
solemn,1
perceive,1
sums,1
embarrass,1
who,3
option,1
politics,1
game,1
whatwill,1
manifesting,1
almighty,1
contribute,1
deserves,1
faith,1
why,3
necessarily,1
alone,1
along,1
ofcongress,1
david,1
win,1
breach,1
fondness,1
stimulus,1
drafts,1
diminish,1
recommended,2
contained,1
various,1
posterity,1
attention,3
visit,2
fulfillment,2
denied,2
reduction,1
unfold,1
extent,1
parent,1
inhabitants,1
bring,1
assures,1
promoted,1
equity,1
fit,1
skins,1
(considering,1
fromthe,1
fix,1
apprehending,1
honest,1
manufacturing,1
rank,1
addition,2
neglect,1
promoting,1
westand,1
24th,1
grow,1
sure,1
aggressions,1
urging,1
excited,1
veil,1
licentious,1
proceeding,1
am,5
an,2
former,4
extend,1
punctually,1
thirds,3
as,5
at,3
turning,1
peace,1
consideration,2
looking,2
formed,2
be,7
prove,1
commodities,1
consequently,1
permanency,3
reluctance,1
communications,1
extinction,1
enlightenedpolicy,1
furnished,1
systems,1
by,6
popularity,1
whom,3
scarcely,1
attainable,2
exhorting,1
foot,1
humanity,2
innovation,1
charge,1
keeping,1
acknowledgments,1
alternate,2
co,1
food,2
assuage,1
maturing,1
fly,1
freely,1
acquisitions,1
essential,5
congress:,1
vent,1
spirit:wherefore,1
presumed,1
congenial,1
sites,1
language,1
do,3
recompense,1
passamaquoddy,1
observe,2
accomplished,1
warning,1
exclude,2
encroachment,1
criticism,1
commissioner,4
utmost,1
which,4
specious,1
seduction,1
coinage,1
favored,1
residuary,1
profound,1
homogeneous,1
affirm,1
never,1
usurp,2
cherishing,1
wiles,1
interweaving,1
carry,2
advantageously,1
arose,1
functionwithin,1
necessity,1
presume),1
mountains,1
origin,1
for,2
pursuits,1
watching,1
content,1
unitedstates,2
plow,1
overgrown,1
perhaps,4
sanction,1
rate,1
skill,1
(especially,1
trouble,1
prosperity,5
representatives:i,1
contrary,1
dutiful,1
attended,1
spanish,1
thence,1
go,1
encrease,1
justly,1
rash,1
form,1
management,2
publish,1
seperate,1
fort,1
he,2
presents,1
promotion,1
assign,1
very,7
practice,1
placed,2
congress,1
languish,1
divine,1
welfare,2
condemnations,1
legislative,1
appeared,1
four,1
else,2
contemplate,1
embarrassments,1
context,1
easily,2
insomuch,1
if,1
french,1
likely,1
issue,1
in,17
maturity,1
subsistence,1
index,1
is,5
impartiality,1
it,2
felicitating,1
dictated,1
aimed,1
disputes,1
resulting,1
announce,1
dictates,2
contrast,1
alteration,1
seemproper,1
become,2
restoredwhen,1
lawful,1
admonish,1
solicitude,3
eventually,1
subscription,1
settlement,1
literature,1
sphere,1
customary,1
peril,1
ability,2
belief,1
remembrance,1
oran,1
seemed,1
suggestion,1
draw,1
instrumentality,1
off,1
statesto,1
generally,1
disposition,2
predilection,1
places,2
complete,1
conscious,1
transaction,1
accomplishment,1
domination,1
outcast,1
pursuant,2
political,9
while,5
enterprises,1
contentment,1
second,1
laudable,1
that,13
weaving,3
than,2
sufficient,1
marshal,3
me,1
claim,1
overbalance,1
communication,1
contest,1
months,1
mr,1
author,1
enmities,2
feeling,1
my,30
stipulated,1
remitting,1
chosen,1
offenders:,1
extraordinaries,1
expand,1
fiscal,1
magistrate,1
essay,1
survey,1
no,1
favourable,1
swayed,1
code,1
passionate,2
abundantly,1
seal,1
careful,1
incompetent,1
concurred,1
inestimable,1
illusion,2
preparations,1
elapsed,1
head,1
considerable,2
representatives:,3
misunderstanding,1
of,28
proposition,2
reserve,1
sympathy,2
hear,1
occupied,1
avenues,1
on,2
[the],1
brief,1
or,4
determine,1
batteries,1
exonerate,1
guardians,1
families,1
whilst,2
confer,1
violences,2
lands,4
easier,1
communicating,1
(pursuant,1
indications,1
exercised,1
subversive,1
nation,20
wholesome,1
readily,1
amounting,1
convenience,2
determination,1
discipline,1
expedient,1
promised,1
shewing,1
extremely,1
speaking,1
proclamation,1
statesought,1
disbursements,2
inevitably,1
retribution,1
engines,2
estimate,2
difficulties),1
promises,1
recent,1
they,2
suspension,1
inevitable,1
compensations,1
thee,1
old,1
them,1
allowance,2
then,5
ancient,1
seat,1
adopt,1
expire,1
austria,1
madrid,1
obtained,1
overtures92,1
checking,1
discovered,1
inflicting,1
executed,1
s],1
chickamagas,2
seek,1
seen,2
seem,1
fourths,1
conformable,1
compelled,1
incurring,1
variety,2
disturb,1
adore,1
george,1
aiding,1
quelling,1
so,2
caution,2
issuing,1
st,2
necessary,8
decision,1
one,20
incurred,2
purpose),1
neighbours,1
adorn,1
single,1
connected,1
compliances,1
supercede,1
cement,1
crowned,1
assist,1
materially,1
to,33
attained,1
acquiescence,2
partially,1
country,1
commercial,3
joint,2
separate,1
blessings,2
willing,1
reasonable,1
generations,1
innumerable,1
rules,1
ruler,1
sincerity,1
aids,1
military,1
satisfactory,1
up,3
us,10
treated,1
emotions,1
ensure,1
usual,1
endeavoring,1
this,3
alacrity,1
anarchy,1
union:,1
upright,1
recess,1
sees,1
failure,1
towns,1
solve,1
know,1
region,1
support,1
deceive,1
changed,1
superficially,1
consoling,1
changes,2
cold,1
learning,1
resolutions,1
reciprocal,1
hearken,1
disposes,1
pure,1
perpetuate,1
misconception,2
approving,1
life,4
we,10
willingly,1
privilegesof,1
establishments,2
summoned,1
shapes,1
examination,1
disposed,1
legalstate,1
lieu,2
cases,2
slight,2
previous,1
wide,1
securing,1
teach,1
succeed,1
compensation,1
forego,1
talents,1
hasnot,1
acknowledgment,1
procrastinated,1
held,1
courts,1
none,1
displays,1
troops,2
beyond,1
april,1
propagated,1
scrupulously,1
years:,1
forthwith,1
terms,3
hazard,1
preserved:,1
voluntary,1
deeply,1
connection,2
proof,1
seized,1
abandoned,2
presence,1
bebrought,1
whosoever,1
serviceof,1
method,2
mildness,1
beingthe,1
contract,1
oaths,1
streams,1
misfortune,1
come,1
unpractised,1
fortifications,1
props,1
exist,1
provisions,2
combinations,1
examples,1
instrumental,1
fabric,1
exact,1
constitutions,1
force,1
south,2
precautions,1
caprice,1
north,3
excepts,1
conceived,1
distribution,2
our,30
tools,1
out,2
capacity,1
eminence,1
get,2
miscarried),1
course,6
power,1
precise,1
copy,1
evidences,1
dare,1
sensible,2
rivers,1
yielding,1
precious,1
ulterior,1
sell,3
cool,1
obstinacy,1
industrious,2
premiums,1
continued,1
theindians,1
oblivion,1
enfeeble,2
forcing,1
actsto,1
allegeny,2
mingle,1
firmness,1
vesselscommissioned,1
self,1
matured,1
lastly,1
owe,2
constitution:,1
date,1
succeeds,1
corn,1
own,3
obliged,1
murdering,1
sound,1
bottoms,1
sales,1
disaffection,1
successes,1
distributing,1
consequences,1
create,1
criminal,1
avoiding,3
incapacity,1
like,2
resource,1
maxim,1
judged,1
branches,1
sent,1
efforts,1
addressed,1
proposed,2
purposes,1
council,1
fraud,1
thesale,1
ground,2
interposition,1
send,3
judges,1
inconsiderable,1
expenses,1
subordination,1
here,3
necessities,1
undecaying,1
councils!,1
purpose,1
regret,1
abridge,1
rejected,1
interwoven,1
line,1
link,1
snake,1
scale,1
rankness,1
engaging,1
security,6
gentlement,1
organize,1
pretexts,1
observations,1
station,1
hearts,1
feeble,1
continual,1
affairs,2
considers,1
25th,1
medals,1
stating,1
cost,1
aims,1
warmest,2
will,4
confidence,4
firmest,1
follow,2
revenues,1
gentlemen:,1
oath,2
compliance,1
treaty,1
york,1
assured,1
dignity,1
intend,1
15[note:on,1
sentimentits,1
exceeding,1
functions,1
numerous,1
recognized,1
your,46
wabash,1
remote,1
without,1
youth,2
these,11
senate:two,1
holstin,1
contributions,1
purposes:,1
protected,1
afflict,1
recruiting,1
abetting,1
sovereignty,1
sight),1
calculate,1
authorize,1
whatsoever,3
thus,4
devices,1
possess,1
neutral,2
devise,1
niagara,1
apparent,1
dissension,1
reimbursed,1
extinguishment,1
enlightened,1
much,6
revived,1
humble,1
entitled,1
folly,1
banditti,1
miseries,1
independent,1
defence,1
concluded,2
alleged,1
alienating,1
plausible,1
arrived,1
indulgent,1
accordingto,1
insidious,1
fortuitous,1
fervent,1
lights,1
borrowed,1
resolved,1
committed,1
licensed,1
committee,1
intrusted,1
namely,1
union,1
plentiful,1
impartial,2
overwhelm,1
humbly,2
producetheir,1
days,1
combined,1
althoughthe,1
recruits,1
yours,1
god,2
adopted,1
novel,1
liberal,1
standard,1
harmony,2
reports,1
renders,1
incapableof,1
courtswhen,1
correct,1
unawed,1
wish,1
miami,1
adjustedby,1
institution,1
belonging,1
wise,1
equaled,1
ambition,1
delinquent,1
exceed,1
enlarge,1
enumeration,1
patronage,1
avert,1
contributed,1
degreeof,1
tracing,1
vicious,1
european,1
pay,1
enormous,1
revival,1
contributes,1
conforming,1
neglected,1
external,4
circumstance,1
success,1
treasury,1
authority,2
cognizance,1
claims,1
remarked,1
preserving,2
shocking,1
legislature,1
irresolution,1
evinced,1
young,1
detaining,1
instrument,2
remove,1
fatal,1
wisdom,2
producing,1
secrecy,1
depredations,1
holston,1
live,1
treaty:,1
departed,1
harbors,1
perform,1
negotiations,2
with,6
redemption,1
complaint,1
service,1
there,11
remonstrances,1
proneness,1
ourcitizens,1
named,1
foreigners,1
offense,2
indifference,1
considered,2
invisible,1
american,1
delivered,1
favorable,1
entire,1
approach,1
qualifications,1
decisive,2
representatives:among,1
per,5
period,3
proceed,2
offenses,2
fatherly,1
understand,1
birth,1
dismiss,1
confirmation,1
heaven,1
unwelcome,1
suspended,1
intelligence,1
inquietude,1
ever,1
assisted,1
uniting,1
even,6
strongly,1
restriction,1
manifested,1
meetings,1
appearing,1
assumed,1
engaged,1
larger,1
hundred,2
doubted,1
conveyances,1
irregular,1
kinds,1
liberty:,1
instant,1
injured,1
native,1
hitherto,2
violence,1
accordingly,1
laid,4
consequence,1
availing,1
particularly,2
prosecutionshave,1
rivalship,1
liberatecertain,1
apprehended,1
impressions,1
ourcommon,1
opportunities,2
pacific,3
inconsistent,1
denounce,1
hopedthat,1
propositions,1
requiring,1
attributes,1
imposed,1
predecessors,1
conduce,1
equally,2
appropriated,1
manner,1
equipping,2
sustained,1
foresee,1
associate,1
imposes,1
judgment,1
earlier,1
whether,1
members,3
stock,1
honoredby,1
guarantees,1
suspend,1
void,1
accumulation,1
4th,1
strengthened,1
unpunished,1
sway,1
basis,1
affected,1
army,4
admonishes,1
inveterate,1
arms,1
october,2
virginia,1
evil,1
governor,2
lake,1
rising,1
agitates,1
unite,1
prisoner,1
cause,3
restoring,1
grievous,1
indulge,1
sacrificed,1
unity,1
agitated,1
pursue,1
ties,2
intended,1
design,1
convey,1
explanations,1
land,1
victim,1
conformity,1
department,2
elevation,1
burn,1
tied,1
liberties,2
chief,1
accord,1
doubtful,1
assimilation,1
(comprehending,1
conduct,1
obey,1
labours,1
plunder,1
walk,1
vessels,3
extending,1
accumulating,1
refusing,1
apparatus,1
ardently,1
decay,1
discussion,1
neville,1
punishmt),1
liberty,15
rendezvous,1
arrangements,3
meeting,1
welcome,1
events,1
mankind,1
disinclination,1
abundant,2
began,1
want,1
violations,1
mystrenuous,1
herewith,1
unnecessarily,1
europe),1
difference,2
reality,1
must,17
commendation,1
cherokee,1
discarded,1
reside,1
crops,2
scrutiny,1
giving,2
facts,2
prize,1
marine,1
characterizing,1
incompatible,1
correspondency,1
found,2
defense,1
sanctioned,1
reprobate,1
coolness,1
impeachment,1
currency,1
inclement,1
escape,1
arts,2
limits,2
gives,2
latest,1
receive,2
interests:,1
surplus,1
auxiliaries,1
correspondence,1
consulting,1
intimate,1
dispositions,1
declaration,1
disclose,1
entirely,1
religion,4
standing,1
war),1
prosperous,1
representatives,2
feelings,2
withal,1
till,1
friendship,1
attend,2
negotiationhaving,1
goods,1
had,4
infractions,1
inferiority,1
secure,3
guided,4
placing,1
digested,1
disappointed,1
late,1
continue,1
preserved,1
subsisting,1
things,4
immense,1
has,3
abounds,1
reposed,1
realize,1
given,1
tendering,1
encroach,1
pre,1
pronounced,1
last,1
definite,1
crimes,1
croix,1
insufficient,1
weight,2
intrinsic,1
casualties,1
warn,1
warm,1
measure,1
guilty,1
checks,2
maritime,3
wars,3
injurious,1
aranjuez,1
good:,1
pursuance,1
impossible,1
effort,1
anything,1
agriculture,1
]that,1
weapon,1
partiality,2
ends,1
prudent,1
retired,1
assembled,1
steady,1
early,1
commissioners,2
incitement,1
notwithstanding,1
lowering,1
yet,1
deploring,1
insurgents,1
alike,1
genius,1
observing,1
time,1
flourishing,1
dominion,1
happy,3
governments,7
continually,1
put,1
mansions,1
her,2
authorized,1
struggle,1
mischiefs,2
having,1
laws,6
authorizes,1
lesson,1
nugatory,1
supreme,2
andexercise,1
discharging,1
light,1
unfounded,1
valuable,1
enormities,1
actuate,1
merits,1
pronouncewhat,1
confirmed,1
alien,1
damped,1
ways,2
egbert,1
appropriation,1
predatory,1
indictable,2
henceforth,1
disclosure,1
vows,1
desire,1
touching,1
efficient,2
unfortunately,1
consistent,2
lately,1
permanent,5
organized,1
choice,5
waging,1
facility,2
governed,1
small,1
civilization,1
defeated,1
before,4
appointment,1
him,2
listen,1
his,5
vindictive,1
antipathies,1
funds,1
bear,2
consider,1
flatter,1
repeatedly,1
light:,1
resist,2
allotment,1
emboldened,1
history,1
stimulate,1
26th,1
uniformmilitia,1
repairs,1
careless,1
square,1
twice,1
distrust,1
animosity,3
counteract,1
interference,1
request,1
government:,1
their,13
point,1
general,3
diverted,1
september,1
attachment,5
devolved,1
induced,1
uphold,1
depository,1
deserve,1
process,2
reproached,1
clear,1
alternative,1
confining,1
encounter,1
theunited,4
desireable,1
debts,2
contests,1
mean,1
neither,1
fulfilling,2
glad,1
account,1
settlements,1
unforeseen,1
impels,1
been,5
innocent,1
executing,1
rectitude,1
advance,1
transmitting,1
hunting,1
strict,2
you,29
safely,1
knowledge,1
happen,1
devised,1
july,1
opportunity,1
active,1
court,1
subject:,1
population,1
meditated,1
disseminated,1
stanwix,2
atlantic,3
route,1
discern,1
propensity,1
councils,2
millions,3
natives,1
purse:,1
hoe,1
wisely,1
organ,1
mirror,1
obstruction,1
negotiated,1
unwilling,1
soil,1
abuses,1
characteristic,1
interior,1
procured,1
thereto,1
rouse,1
how,3
assembly,1
burthens,1
dooms,1
withholden,1
committing,1
endeavors,1
subjects,1
thursday,1
march,1
appeals,1
atonement,1
repel,1
june,1
advantages,3
meet,1
regarded,1
answer,1
calls,1
series,1
outrages,1
cultivate,1
encroachments,1
onthe,1
represent,1
passions,3
abused,1
subsequentcommunication,1
putting,1
sometimes,5
questions,1
presupposes,1
impregnably,1
inclined,1
inconvenient,1
promise,1
wounding,1
hold,5
designated,1
talk,4
designates,1
serviceable,1
reply,1
seneka,1
dedicated,1
perpetrated,1
commonly,1
count,1
fide,1
transgressions,1
granting,1
take,2
obviate,1
commissionersevince,1
thereof,1
immediate,1
beneficial,1
abet,1
numbers:,1
carrying,2
some,6
affording,1
beginning,1
representatives:the,2
forbids,1
session,2
inhabitating,1
additional,1
faithfulrepresentation,1
offences,2
exposes,1
exposed,1
throughoutthe,1
unfinished,1
passed,2
reception,1
just,5
notice,2
bloody,1
respects,2
sold,2
indissoluble,1
holy,1
restraining,1
remembering,1
particularized,1
killed,1
strictly,2
pious,1
home,2
existing,2
postage,3
although,1
material,1
encouragement,1
redemptionand,1
peculiar,3
patriots,1
president,1
fortunes,1
explain,1
therein,2
artifice,1
hope,1
soon,1
america,1
executive,2
fromthem,1
misprision,1
surpassed,1
manifold,1
action,1
fired,1
unfrequently,1
suspected,1
vacant,2
heavy,1
altered,1
procuring,1
detached,1
accompanied,1
afford,2
reached,1
impression,1
appease,1
paperswhich,1
discreetly,1
shield,1
britain,1
unpleasant,1
[before,1
notify,1
eight,1
sensibility,1
file,1
creek,1
stillmore,1
member,1
incidents,1
disapprove,1
guaranty,1
nourish,1
together,4
supplication,1
actuated,1
within,5
could,4
strike,1
subdue,1
health,1
marks,1
defining,1
agents,1
corrected,1
prospect,1
mediterranean,1
present45,1
withhold,2
affixed,1
able,1
infidelity,1
embittered,1
hundreds),1
return,1
suffrages,1
instance,1
concerned,1
conscience,1
practically,1
acquiesced,1
serve,3
misdirect,1
importing,1
inviolate,1
fine,1
find,4
therefrom,2
accelerate,1
supplementary,1
calculated,1
designating,1
selected,1
citizen,2
sooner,1
occur,1
difficult,1
definitive,1
seriously,1
sort,1
steps,1
friends,1
heart,2
forget,1
task,1
convenient,1
quarters),1
principles,1
true,5
armswith,1
position,2
present,1
since,1
sentiment,2
arrested,1
belong,1
toils,1
accommodations,1
borders,1
abundance,1
dangerous,1
surveys,1
appears,1
best,1
movements,1
effectually,1
persevering,1
cementing,1
hour,1
alliances,5
magnitude,1
magazines,1
regulating,1
genuine,1
succors,1
experienced,1
heard,1
execution,3
discontented,1
certainly,1
processes,1
pretended,1
sought,1
deviation,1
extraordinary,2
concerning,2
regulation,1
conventional,1
accommodation,1
mere,3
opinions,1
infractors,1
merchants,1
plentyof,1
intentional,1
vices,1
firm,1
reflect,1
congratulating,1
competitors,1
massacre,1
toequal,1
fire,1
extort,1
temporal,1
distinguish,1
pickering,3
husbandry,1
dissimilar,1
intention,1
pointed,1
exactingfrom,1
rangeto,1
thereby,1
except,1
communicatedto,1
concur,1
religious,2
nevertheless,2
aggressors,1
fact,1
respectable,1
fundamental,2
collecting,1
deliberation,1
plows,1
nominal,1
unless,1
christian,1
excess,1
encouragements,1
retaliate,1
particulars,1
free,10
ought,12
honour,1
invade,1
unnatural,1
thorough,1
people,1
procrastination,1
designing,1
actually,1
congratulation,1
abandon,1
invite,1
interpositions,1
operation,1
announces,1
calculation,1
habitual,3
alarming,1
reputation,1
independence,3
descriptions,1
honors,1
disclosed:,1
afforded,1
whenever,2
endangers,1
deliberating,2
leaves,1
beseech,1
prudencebe,1
restrain,1
intentioned,1
five,1
sufferings,1
collection,1
hunger,1
announced,2
channels,2
extends,1
vital,1
rewards,1
conflict,1
convulsion,1
reasons,1
delusion,1
traders,1
imparting,1
father,1
rule,2
forwarding,1
assistance,1
commerce,2
resentment,1
expired,1
wants,1
definition,1
every,3
bybelligerent,1
summary,1
illusory,1
covertly,1
answered,1
inferior,1
madness,1
again,1
indians,4
ratified,2
indeed,2
artificial,2
deficiency,1
imaginary,1
inauspicious,1
employ,1
diffused,1
discussions,1
avowing,1
binding,1
desirable,1
fair,1
wisest,2
during,2
degrees,1
preparation,1
consist,1
compatible,1
disadvantages,1
enable,1
safety,2
price,1
untried,1
absolutelylost,1
defensive,1
dependent,1
stipulations,1
provisional,1
arise,1
ourduties,1
fruitless,1
reduced,1
cherish,3
agree,1
patronize,1
facilitating,1
resistance,1
eminent,1
fallible,1
doors,1
fail,1
itself,6
enjoyment,3
repaid,1
pride,3
emperor,2
prolong,1
chastised,1
ascertained,1
favorite,5
spain,2
civilized,1
hoped,1
unequally,1
triumphs,1
alexandria,1
affectionate,1
substitute,1
dispositionfor,1
foreign,15
uniform,2
subsisted,1
moreover,1
causes,4
violate,1
hopes,1
collective,1
steer,1
event,2
demonstrated,1
explains,1
witnesses,1
establishes,1
established,1
witnessed,1
agency,2
caused,1
excel,1
appearance,1
cannot,3
hereby,1
first,1
first:,1
quotas,1
perfect,2
fondest,1
ascribe,1
hogs:,1
artifices,1
minority,1
space,1
exhausting,1
reference,1
preferable,1
solicitude),1
punctuality,1
inferred,1
from,6
unerring,1
expence,1
privations,1
cornplanter,3
seneca,1
ill,4
circuitous,1
misled,1
representatives:it,1
invariable,1
representatives:in,1
fostered,1
factions,1
manufacture,1
arbiter,1
fortress,1
[and,1
covered,1
nationsin,1
spinning,3
aforesaid,1
repair,1
death,1
umbrage,1
deportment,1
advice,1
according,2
frequent,4
statements,1
powder,1
error,2
superintend,1
aggregate,1
despotism,3
jealous,1
holding,1
trace,1
moments,1
operations,1
public,19
array,1
liberality,1
endeavour,1
discriminate,1
value,3
procure,1
listening,1
provocations,1
fortune,1
repay,1
resources,1
expensive,1
inducements,1
militarystores,1
trade,1
performance,1
conferred,1
growth,1
objects,1
gratifies,1
impunity,1
shaken,1
resolution,2
building,1
countenanced,1
properly,2
preexisting,1
isle,1
favoured,1
interruptions,1
husbandman,1
unanimous,2
farm,2
gratified,1
censureor,1
culpable,1
insurrections,1
excellent,1
virtually,1
fairly,2
adapted,1
authorities,1
envenomed,1
persons,1
recalling,1
charges,1
advancement,1
encountering,1
flight:,1
representatives:with,1
artful,1
warming,1
institute,1
charged,1
firmly,1
southern,1
(besides,1
providing,1
attachments,3
fate,1
uncertainty,1
founding,1
retire,1
aspect,1
departments,1
close,1
indulgence,2
baneful,2
sardinia,1
maxims,2
mitigate,2
requisite:,1
forall,1
inexchange,1
embarrassment,1
oblige,1
oppression,1
overt,1
fast,1
turbulent,1
invasion,1
precedent,1
calling,1
spin,1
magistrates,1
citizens,3
edifice,1
adviseable,1
persuasive,1
communicate,1
concurrence,1
offended,1
odium,1
annoyance,1
merittheir,1
interpreters,1
concord,1
act,2
transmission,3
post,4
youwill,1
insecure,1
dissensionwith,1
dubious,1
lenox,1
violators,1
add,3
conciliate,1
discouragement,1
imperfections,1
its,2
propitious,1
remedy,1
consent,4
commendable,1
respect,5
article,2
retreat,1
mutual,3
ruins,1
therefore,2
adjustment,1
exchange,1
unenlightened,1
hesitate,1
mercies,1
washington,1
trust,5
joining,1
united,5
smallest,1
requisitions,1
universally,1
soldiers,1
choose,1
benevolence,1
miles,1
prevent,3
benjamin,1
previously,1
happiness,3
perpetrators,1
colonel,3
embrace,1
malevolence,1
judicious,1
improvement,1
message,1
steadfast,1
truth,1
shunning,1
enterprising,1
exempt,1
enjoyed,1
age,1
shewn,1
smaller,2
incongruous,1
tendency,3
hardy,1
controverting,1
faults,1
years,2
excepted,1
number,1
obedience,1
defect,1
reinforce,1
punish,1
decline,1
property,2
stills,1
conceded,1
luster,1
nothing,2
distributed,1
journals,2
repaired,1
urged,1
disciplining,1
patronizing,1
happily,1
system,1
defects,1
animated,1
catholic,3
productiveness,1
aid,1
partial,2
blessing,1
other,2
city,1
affirmedthat,1
exclusion,1
air,1
local,2
defeat,1
steadily,1
yield,1
promptly,1
speak,2
sacred,1
tender,1
disregards,1
rests,1
filled,1
satisfaction,1
tunis,1
recollect,1
proportionally,1
tended,1
powerful,2
removed,1
future,2
objected,1
mississippi,1
precision,1
body,1
commenced,1
correspond,1
points,1
rioters,1
mode,1
ratifications,1
amongst,1
misprisions,2
modified,1
presume,1
maintained,2
respectability,1
all,4
always,10
abhorrence,1
read,1
already,1
conducted,2
applicable,1
real,8
admission,1
prompted,1
expense,1
maintaining,1
ofyour,1
territorial,1
collect,1
prayers,1
abetted,1
impostures,1
assaulting,1
facilitate,1
equipped,1
harbours,1
accession,1
favour,1
treasons,4
weakness,1
diminished,1
and,20
construction,1
universal,1
abroad,2
fifteen,1
undermine,1
warnings,1
cruisers,1
unnecessary,1
irresistible,1
any,1
duly,1
shew,1
suggested,2
transcendent,1
controul,1
application,1
productive,1
overbalanced,1
communicated,1
consists,1
until,1
hypothesis,2
honorable,2
comprehend,1
reason,3
comforting,1
thought,1
concession,1
prosecution,2
treaties,1
acts,1
exalted,1
chiefs,4
annual,2
exclusive,1
gentle,1
resort,1
occasioned,1
goodness,1
using,1
devoted,1
broke,1
apt,1
containing,1
spirits,1
completed,3
preceeding,1
demand,1
000,4
spheres,1
acquiesce,1
proofs,1
letter,3
calculations,1
hereinafter,1
corruption,2
increased,1
testimonyof,1
frequently,2
northwest,1
justifiedactive,1
acquire,2
ligament,1
worth,1
quarrels,1
deeming,1
releasing,1
fruits,1
are,3
taken,3
came,1
where,3
takes,1
popular,4
retard,1
art,3
esteem,1
favors,4
suppress,1
call,2
calm,1
unsubscribed,1
wilson,1
armed,1
astray,1
oliver,2
relations,3
through,1
engagement,1
becoming,1
strength,7
(who,1
disregard,1
offices,2
occasional,1
run,1
justified,1
individuals,1
debate,1
either,1
view,3
vulnerable,1
ours,1
neighbors,1
delegated,1
recollection,1
machinations,1
results,1
defiance,1
those,5
estimates,1
holland,1
flattering,1
motives,5
sanguine,1
lifted,1
consecrate,1
difficulty,1
themselvesin,1
longer,1
senate,1
everywhere,1
parties,5
name,1
worst,1
neighborhood,1
leaving,1
abatement,1
forbearance,1
benefits,1
distance,1
novelty,1
unlawful,1
reflections,1
prospects,1
unavailing,1
invigorated,1
book,1
description,1
renounce,1
presides,1
vigilance,1
defend,2
street,1
arrive,1
intimating,1
hence,4
inapplicable,1
outrageous,1
seamen,1
scruples,1
unto,3
nineteenth,1
estimated,1
approbation,1
bona,1
awe,2
receipts,1
compensated,1
obstruct,1
mouth,1
livingston,2
guidance,1
duty,1
ardor,1
stranger,1
delicate,1
dangers,2
commotion,1
judiciously,1
usage,1
pledged,1
delineated,1
transmitted,1
amnesty,1
subscribed,1
cast,1
anxious,1
pledges,1
awakened,1
incline,1
truly,2
greater,6
case,2
anxieties,1
affections,1
saving,1
rely,1
refined,1
excessive,2
care,1
participation,1
vindicate,1
damage,1
assault,1
purely,1
guard,1
fulfilled,1
settle,1
exercise,2
powerfully,1
pressing,1
freedom,1
glorious,1
burthen,1
protect,1
mischief,1
consolation,1
reliance,1
contingencies,1
more,21
superfluous,1
usurpation,1
licentiousness,1
consulted,1
tribes,2
kill,1
distressing,1
apostate,1
disorder,1
reluctantly,1
accounts,1
persevere,1
habits,3
mature,3
navy,1
amicable,1
menaced,1
influence,1
intercepting,1
georgia,1
amicably,1
labors,1
made),1
connections,1
described,1
speculation,1
corrupted,1
kindles,1
crisis,1
itis,2
king,1
kind,1
supposition,1
amsterdam,1
1791,1
obstructed,1
consultations,1
dinsmoor,4
both,3
misguided,1
most,1
important,4
persuasion,1
parting,2
1784,1
efficacious,1
1783,1
daily,1
affection,4
menaces,1
exigency,1
omit,2
marshals,1
inseparable,2
limitation,1
ascertain,1
awaken,1
affecting,1
forbid,2
footing,1
adjudged,1
1797,1
1794,1
reject,1
1793,1
received),1
naturalization,1
mentioned,2
calledinto,1
profit,1
sheep,3
subvert,2
rest,2
amount,1
comply,1
disclosed,1
perserving,1
phelps,2
assignment,1
adherence,1
alarms,1
freemen,1
earnestly,1
also,1
say,1
enough,1
increase,1
tennesee,1
spread,1
emoluments,1
favor,1
executiveis,1
investigation,2
interruption,2
arming,1
latter,3
simply,1
defrauded,4
projects,2
bad,5
stripped,1
alienate,1
assemblage,1
awake,1
perpetual,2
offer,2
suffer,1
neighbourhood,1
bay,1
gaining,1
violated,1
afterwards,1
humanly,1
personal,1
accurately,1
symptoms,1
submitted,1
delay,2
violates,1
transient,1
plans,2
commiserating,1
enquiry,1
applause,2
greatly,2
strong,2
geographical,2
abuse,1
hazarded,1
scheme,1
affect,1
readiness,1
scarcity,2
ascendency,1
deaf,1
intractable,1
eyes,3
drain,1
sixth,1
proved,1
honoured,1
see,2
discouraging,1
offered,1
enquire,1
civil,1
national,5
effectual,1
subsequent,1
wheat,3
indicate,1
dear,1
compared,1
completion,2
set,1
unabated,1
words,1
founded,1
benefited,1
insidiously),1
procedure,1
entered,1
confirmations,1
reiterated,1
instructed,1
tending,1
difficulties,1
lenity,1
auspices,1
vicinity,1
earnest,1
validity,1
river,1
jealousies,2
bereimbursed,1
subscriptions,3
pillars,1
broils,1
beg,1
deposited,1
therewith,1
developed,1
labored,1
states:,1
discharge,3
france,1
wavering,1
instructive,1
tilling,1
complain,1
zeal,4
anxiety,1
she,1
lessened,1
adjust,1
parts,4
upbraidings,1
western,1
vigorous,1
resumed,1
finances,1
debt,2
party,8
duties,1
little,2
deer,1
thatretirement,1
however,4
deep,1
confined,1
humane,1
unruly,1
trained,1
relates,2
maryland,1
compel,1
capable,2
exhibits,1
explained,1
apprise,1
related,1
candid,1
jersey,1
captured,1
indignantly,1
await,1
regencies,1
views,2
recruited,1
over,1
tenderness,1
directed,2
assurances,2
living,1
six,2
captures,1
assuring,1
bound,2
wearing,1
coercion,1
inimical,1
false,1
reviewing,1
7th,1
equalled,1
retained,2
instigated,1
candour,1
implicate,1
avoid,1
fresh,1
comprehensive,1
prompt,1
frustrated,1
fulfill,1
advanced,1
thankful,1
repose,1
recommendation,1
nations,10
counsels,2
unfolded,1
candor,1
improved,1
thanks,2
striking,1
enjoins,1
advances,1
model,1
majority,2
join,1
animals,2
crown,1
reduce,1
maturely,1
faithfully,1
large,1
quenched,1
director,1
satisfied,2
vain,1
ordinary,2
transactions,1
foolish,1
operate,1
exclusively,1
john,1
defy,1
begin,1
alluded,1
recommending,1
brought,1
proportion,1
alive,1
pursuit,1
thinking,1
distilled,1
prosecutions,1
world,2
composed,1
inquiry,1
viewed,1
prejudice,1
december,1
urgent,1
convicted,2
guardian,2
everything,1
amidst,1
side,2
creditors,1
change,2
indirectly,1
enforcethis,1
systematic,1
comfort,1
respectful,1
likewise,4
punishment,1
suspicions,1
discovery,1
instruction,1
report,1
powers,7
improvements,1
constant,1
lament,1
several,1
mislead,2
cotton,2
expresses,1
office,1
northern,1
posts,1
stands,1
vesting,1
high,1
proceeds,1
adoptgeneral,1
imposition,1
expressed,1
directly,1
administered,1
different,8
officially,1
dependsto,1
adjusted,1
magnanimous,1
preserve,1
establish,1
deter,1
belongs,2
rewarded,1
confide,1
enacted,1
contriving,1
morocco,1
overthrown,1
errors,1
shades,1
predominant,1
sentiments,2
hostility,1
eminently,1
preservation,5
enjoys,1
pursued,1
auxiliary,1
benson,1
countrymen,1
highly,1
unfortunate,1
auspicious,1
nature,2
social,1
interesting,1
raised,2
cross,1
relying,1
proviso,1
control,2
frightful,1
conjure,1
acknowledge,1
declined,1
thisoperation,1
apprize,1
essentially,1
their:,1
occurrences,1
cunning,1
murderers,2
inviolable,1
threatening,1
buried,1
dwelling,1
intercourse,5
commanding,1
pains,1
facilitated,1
behalf,1
endear,1
andrews,1
scene,1
injure,1
exert,1
encouraged,1
providential,1
strengthen,1
friend,3
injury,2
drawn,1
exhibit,1
societies,1
extremity,1
inadequate,1
closely,1
pleasure,2
ablest,1
remaining,1
potomack,1
accept,1
dismes,1
glory,1
requested,1
retraced,1
mercantile,1
interpreted,1
lessons,1
access,1
nations:,1
advisable,1
apprehension,1
cooperate,1
overcome,1
unusually,1
sum,1
ports,1
neighboring,1
extended,2
resorting,1
current,1
secretary,2
artists,1
actively,1
detroit,1
wayne,1
conferences,1
situations,1
offensive,1
laying,1
ungenerously,1
makes,1
enemies,1
beloved,1
confirm,1
allegany,1
appoint,1
fourth,2
but,2
sincerely,1
declare,1
calamitous,1
dislike,1
wished,2
unequal,1
express,1
confine,2
permanentby,1
excesses,1
fervently,1
wishes,1
written,1
passion,2
extreme,1
demeanor,1
oppositions,1
sink,1
degree,2
cogent,1
reins,1
discord,1
especially,2
once,1
naval,3
counties,2
implements,2
uninformed,1
doing,1
hire,1
unadjusted,1
nation),1
records,1
idea,3
(excepting,1
prisoners,1
prolongation,1
fraternal,1
throughout,1
assent,1
virtue,3
successful,1
gradual,1
preclude,1
deliberations,2
advices,1
disapprobation,1
discernment,1
weaken,2
rivalships,1
provisionally,2
speedily,1
specially,2
necessary:,1
reach,1
potent,1
lightly,1
commencement,2
children,1
review,1
sight,1
between,2
guide,1
exhibited,1
spectacle,1
natural,5
arising,2
benefiting,1
forwarded,1
jeopardy,1
tranquillity,1
expenditures,1
following,1
substantially,1
neighbouring,1
flag,1
james,1
unsuccessful,1
16th,1
derive,1
weal,1
weak,1
undeterred,1
undiminished,1
distressed,1
flax,2
announcing,1
auspiciously,1
assert,1
recall,1
lear,1
place,2
lawless,1
regular,1
objection,1
informed,2
occupying,1
sparingly,1
dispute,1
misemployed,1
intimated,1
observation,1
anddignity,1
aggression,1
rugged,1
suggest,1
offenders,1
lead,2
token,1
expect,2
cease,1
pacification,1
gentlemen,2
submission,1
scarce,1
concerted,1
argument,1
closean,1
adequate,1
uniformity,1
aver,1
growing,1
deciding,1
divert,1
plain,1
should,1
only,2
conspicuous,1
justice,6
confessed,1
appertaining,1
abounded,1
tenure,1
officers,2
clothed,1
incursions,1
mentioned],1
effusion,1
individual,3
appropriations,1
sharpened,1
loans,1
netherlands,1
accepted,1
tax,1
towards,1
regards,1
alas!,1
suffrage,1
ranks,1
person,2
testimony,1
retaliation,1
safe,1
enforce,1
destined,1
general:,1
departure,1
falsecolor,1
reflexion,1
acknowledged,1
instances,1
distinct,1
fled,1
enjoin,2
guarding,1
can,1
ready,1
eligible,1
endowments,1
said,1
village,1
terminated,1
greatest,1
carried,2
unconscious,2
unprovoked,1
immunities,1
motion,1
limited,2
magazinesand,1
satisfy,1
oswego,1
ways:,1
efficacy,1
manufactories,1
informal,1
