woodrowWilson,Occurences
german,9
half,4
thought,5
nation,12
year,8
fifty,9
unrest,10
objects,6
bring,6
ship,9
fighting,7
supply,8
without,11
character,5
liberty,8
warfare,10
record,7
empire,8
let,7
because,5
state,5
ten,8
promises,7
mankind,11
thus,5
going,6
neutral,10
bill,6
opportunity,4
personal,5
am,10
whose,7
labor,9
000,18
seas,5
persons,8
himself,5
plans,7
peace,12
must,28
consideration,5
millions,17
austria,6
conditions,7
much,6
object,4
fact,6
increased,5
another,5
least,5
masters,6
enemy,14
industry,7
believe,11
turn,6
facts,7
interstate,7
sea,7
covenants,6
current,6
same,5
submarine,5
defense,5
taken,6
whom,5
national,9
where,6
tariff,7
commission,7
after,5
free,8
equality,9
humanity,8
legislation,6
ought,12
policy,13
set,6
business,21
necessary,14
enemies,6
right,6
involve,6
possible,5
union,5
declaration,15
food,10
democracy,11
such,7
s,6
ownership,7
armed,5
days,8
under,7
representatives,8
imperial,12
thing,9
huerta,12
through,5
country,17
fleet,8
principle,8
commanders,5
officer,5
administration,6
questions,11
goods,7
seven,10
independence,18
individuals,5
recommendations,5
wish,6
act,11
things,11
legal,5
military,5
five,16
us,12
those,5
budget,5
peoples,8
last,7
need,9
might,5
judgments,5
doubt,5
remedy,5
take,6
never,7
tests,7
materials,5
immediate,6
naval,5
treasury,8
authority,5
district,7
therefore,6
know,6
washington,8
debt,8
necessity,5
party,19
duties,4
full,6
private,5
united,13
production,6
rather,5
exports,6
session,5
germany,10
provided,9
impossible,7
back,8
farmers,6
commerce,7
submarines,13
life,5
states,5
anything,11
central,7
common,7
interest,4
themselves,8
democratic,7
throughout,7
hemisphere,7
every,9
class,5
human,5
over,5
living,6
again,8
war,5
yet,5
indeed,7
special,5
receipts,5
money,7
service,6
permit,5
duty,10
well,4
railroads,6
president,13
play,7
very,10
big,6
congress,6
taxes,5
governments,7
whole,7
american,13
nations,7
during,8
program,10
hope,10
three,9
put,8
years,6
america,7
moral,6
measures,6
problem,9
balance,10
road,7
terms,13
safety,6
four,9
action,7
between,11
tasks,8
order,7
give,7
counsel,5
period,6
lives,6
russian,7
nothing,5
roads,7
railways,7
coast,8
ships,6
toward,6
itself,6
even,7
expenditures,7
registration,19
women,7
hundred,21
against,7
enterprise,9
matter,6
ourselves,5
alien,19
foreign,8
settlement,7
government,10
world,22
too,7
rights,7
federal,6
speak,5
power,13
man,10
stand,5
together,9
twenty,10
means,9
laid,4
question,8
within,10
knew,6
change,4
spirit,6
great,13
boat,6
wrong,6
opinion,9
mexico,12
ofthe,4
future,8
regulations,8
industries,6
regard,6
statutes,6
self,10
cannot,9
interests,8
economic,10
thousand,9
small,7
quick,6
capital,8
before,8
navy,10
prepared,6
own,25
political,11
upon,24
while,6
revenue,7
battleships,8
whether,6
monopoly,5
only,10
should,8
me,5
justice,9
consider,5
credit,8
international,8
officers,8
always,5
new,21
circumstances,10
development,6
law,6
appropriations,6
already,7
created,6
shall,9
done,6
both,6
most,10
army,8
markets,6
fiscal,5
person,8
effect,5
principles,5
present,8
seems,9
patriotic,10
note,7
purpose,8
faith,16
best,7
storage,5
general,12
public,8
ready,12
floating,5
men,17
land,5
affairs,7
fifteen,10
processes,9
resources,6
cruisers,14
also,6
control,10
say,8
increase,5
any,10
wrongs,6
industrial,5
trade,10
matters,5
administrative,5
revised,6
vessels,16
