jamesMadison,Occurences
seaport,1
half,1
belligerent,2
naturalized,1
guards,1
would,2
reproach,1
customs,1
palladium,1
warrant,1
daring,1
sake,1
energy,1
successfully,1
solid,1
#,1
&,1
competent,1
require,2
1,1
2,1
left,2
reserved,2
6,1
7,1
8,1
resumption,1
rounded,1
rejoice,1
malden,1
object,2
britannic,1
1000,1
perseverance,1
unparalleled,1
example,1
result,2
characters,1
same,3
pations,1
commission,1
after,1
policy,1
hand,2
rescind,1
a,36
ordered,1
address,1
c,2
d,1
posture,1
laden,1
i,2
blood,2
violating,1
slaves:considering,1
the,193
consisting,1
entering,1
destroyed,1
s,1
unfunded,1
obvious,1
fifth,1
information,1
naturalizes,1
accumulated,1
illegitimate,1
reimburse,1
november,3
violent,2
unreasonably,1
zealously,1
infuriated,1
good,2
rensselaer,1
faithful,1
amounted,1
suffered,1
federate,1
til,1
unrivaled,1
besides,1
serious,1
offensively,1
others,1
$9m),1
signally,1
making,1
owes,1
savages,1
check,1
8th,1
allured,1
disguised,1
encircles,1
frustrate,1
immortalized,1
anticipating,1
enjoined,1
applied,1
provided,1
clinging,1
aboriginal,1
indispensable,1
seminaries,1
society,2
unsupported,1
arranged,1
denmark,1
motive,1
anticipation,1
averting,1
conducive,1
quarters,1
swords,1
realized,1
room,1
better,1
tween,1
discomfiture,1
permit,1
well,4
ambitions,1
taking,1
extinguished,1
observance,1
experiment,1
discharged,1
gained,2
oppressors,1
struck,1
endangering,1
cordial,1
flow,1
unconnected,1
order,2
cooperation,1
protecting,1
enlisting,1
pressed,1
considering,2
gaines,1
distant,1
felicity,1
exertion,1
privateers,1
cooperating,1
illustrated,1
bringing,1
schools,1
renewable,1
ensue,1
orders,3
homage,1
successor,1
confides,1
protection,1
respectively,1
matter,1
frigates,1
too,2
acquiring,1
belligerents,1
have,14
neutrality,1
redundancy,1
kentucky,1
avail,1
product,1
question,1
scepter,1
spirit,4
reclaim,1
produce,1
reminded,1
confided,1
detachments,1
regard,1
thanksgiving,1
captives,2
communities,1
capital,1
con,1
minor,1
hostile,3
pleas,1
smuggling,1
upon,1
expeditions,1
pray,1
employed,2
bulwark,1
west,1
raise,1
representative,1
precluded,1
traffic,1
frontiers,1
circumstances,1
law,2
including,2
comparison,1
lay,1
unvaried,1
conveniently,1
introducing,1
devising,1
pardon,1
less,1
institutions,1
successive,1
condition,1
markets,2
thirsty,1
were,4
gratification,2
ghent,1
improve,1
obligation,1
violation,1
shining,1
desirous,1
constituted,1
patriotic,1
became,1
emanate,1
university,1
regency,1
effective,1
times,1
teaches,1
expedients,1
defraying,1
constitutionally,1
generous,1
repressed,1
direction,1
wounded,1
interdicted,1
distinguished,2
declarations,1
remission,1
directing,1
productions,1
impelled,1
equilibrium,1
maintenance,1
incident,1
barbarous,1
exceeds,1
misapplication,1
expedition,2
led,1
supply,1
circulate,1
unfailing,1
concern,1
eventual,1
refrain,1
injunctions,1
liable,1
let,1
state,3
press,1
defined,1
element,1
regretted,1
probable,1
swells,1
courtesy,1
polity,1
each,1
restraint,1
clouded,1
rendered,1
offering,1
creating,1
restrained,1
unrepaired,1
sweeping,1
thirty,1
cut,1
probably,1
jurisdiction,1
concurrent,1
constitutional,1
manly,1
dread,1
proving,1
harass,1
two,5
moment,2
promote,1
does,1
attack,2
attach,1
situation,1
legislation,1
clause,2
vexations,1
presages,1
think,1
ingredient,1
thirst,1
occurred,1
refused,1
anxiously,1
forbidden,1
services,3
emphatically,1
torture,1
filling,1
prayer,1
speech,1
laboring,1
enslaved,1
detained,1
economical,1
cabinet,2
demanded,1
privileges,1
principle,1
medical,1
source,1
acquires,1
domestic,1
punishing,1
paying,1
separation,1
bias,1
homes,1
acquired,1
stability,1
actual,1
reflection,1
erie,1
prosecute,1
doubt,1
merit,1
enlisted,1
pecuniary,1
exposing,1
suited,1
involved,1
district,1
fixed,1
page,1
whereof,1
philanthropy,1
full,1
destiny,1
away,1
aspects,1
house,1
disaster,1
construed,1
painful,1
offerings,1
convention,1
unjust,1
opposing,1
hours,1
center,1
refusal,1
purchase,2
enlarged,1
titles,1
earliest,1
equal,1
fallen,1
fund,1
moderation,1
paid,1
spared,1
short,1
reducing,1
recoil,1
regulate,1
contemplating,1
revoked,1
consistency,1
three,1
required,2
measures,1
payable,1
sweden,1
suppression,1
season,1
unlawfully,1
payment,1
specifically,1
enter,1
allotted,1
restoration,1
sessions,1
suppressing,1
roads,4
guished,1
dates,1
deemed,1
dependencies,1
pennsylvania,1
judicial,2
coast,1
provide,1
requires,1
primary,1
exertions,1
interdiction,1
competency,1
enterprise,1
formation,1
planned,1
benefactor,1
lot,1
aided,1
premium,1
onstrates,1
low,1
assure,1
pretext,1
consult,1
indulging,1
$32m,1
manners,1
merely,1
wealth,1
meant,1
means,3
interdicting,1
impracticable,1
fury,1
adversary,1
precarious,1
redress,1
fellow,1
abandoning,1
advancing,1
disclosures,1
interests,1
commanded,3
invaluable,1
speedy,1
friendly,2
possession,1
omniscient,1
distinguishing,1
improper,1
experience,1
blasting,1
unessential,1
enlightening,1
representatives:notwithstanding,1
commander,1
shows,2
shown,1
wasteful,1
controversies,2
perjuries,1
forcibly,1
exhort,1
checked,1
$34m,1
majesty,1
day,3
accustomed,1
combination,1
obtain,1
raising,1
fixing,1
coasts,1
contradicting,1
island,1
sacrifice,1
particular,1
water,1
done,1
illegal,1
corps,1
formal,1
congratulate,1
seasonableness,1
ample,1
concentrating,1
critical,1
relied,1
overruled,1
part,4
insulted,1
jealousy,1
elsewhere,1
banished,1
judiciary,2
expediency,1
principal,1
guarded,1
inducement,1
equitable,1
surest,1
sixteen,1
regulars,2
possessing,1
relief,1
amply,1
affirmed,1
introduction,1
thither,1
annals,1
villages,1
built,1
(no,1
seeking,1
colleague,1
third,1
gratitude,1
commissary,1
further,2
demands,1
fitting,1
dearest,1
contracted,3
numver,1
gallantry,1
smiles,1
mutually,1
exemption,1
compassion,1
dem,1
conducting,1
avidity,1
path,1
bind,1
depending,1
finds,1
$38m,1
principally,1
dey,1
reimbursement,1
abusing,1
prejudices,1
banks,1
going,1
past,1
bill,5
whose,1
easy,1
omitted,1
assigned,1
relative,1
attitude,1
quartermaster,1
touched,1
cooperations,1
obstructions,1
bodies,1
infirmities,1
accelerating,1
existed,1
meigs,1
adoption,1
weighty,1
term,1
mind,1
grateful,1
thankfulness,1
business,1
reverence,1
forbear,1
revisal,1
adjoining,1
withdrawing,1
staff,1
right,1
possible,1
involve,1
requisite,1
constrained,1
testimonials,1
degrading,1
depositories,1
stage,1
taught,1
regulates,1
inflexible,1
returning,1
complicated,1
repeals,1
under,2
did,1
quarter,1
london,1
added,2
repealed,1
emergency,1
believing,2
recommendations,1
down,1
$1,3
$2,1
exemplary,1
$3,2
fears,1
$5,1
$6,1
wretched,1
$7,1
affaires,1
later,1
habit,1
champlain,1
$8,1
elucidation,1
$9,1
adding,1
legal,2
midst,1
evils,1
highway,2
signal,1
compellable,1
seasons,1
augmentations,1
test,1
reviving,1
finally,1
enforcement,1
remained,1
alterations,1
varied,1
conviction,1
louisiana,1
publicly,1
brown,1
acceded,1
armor,1
acceptance,2
month,1
embraced,1
precautionary,1
final,2
occasions,1
gratefully,1
occasion,2
dispensed,1
loan,1
embraces,1
rather,1
importance,1
worthy,1
back,1
expectation,1
title,2
resisting,1
papers,1
states,4
duration,1
conveying,1
unrescinded,1
engagements,3
hemisphere,1
human,1
continuation,1
madison,1
relax,1
length,1
blessed,1
advert,1
considerations,1
inconveniences,1
universe,1
arduous,1
recommends,1
grant,1
burdening,1
articles,1
armies,1
deplorable,1
exhausted,1
convert,1
construct,2
attempt,1
navigation,1
impaired,1
balance,1
supplies,1
diffusing,1
inexpressibly,1
resorted,2
whereas,1
calamities,1
presaging,1
proudly,1
exceeded,1
adversity,1
unwarrantable,1
made,4
conciliation,1
signed,1
sense,1
being,1
classification,1
yielded,1
field,2
aggravated,2
served,2
virtuous,1
invalid,1
messages,1
legitimate,1
whereby,1
states:having,1
imperious,1
diffusion,1
familiarity,1
operates,2
embarrassed,1
cultivating,1
stamped,1
bands,1
government,3
known,2
legally,1
recur,1
man,2
twenty,1
characterized,1
contemplated,1
may,5
supplied,1
reconsidering,1
bless,1
zealous,1
cultivation,1
murders,1
300,2
authorizing,1
inexpedient,1
statutes,1
warlike,1
meritoriously,1
correspondences,1
sprung,1
subject,1
use,1
bonus,2
recognition,1
feel,1
effusions,1
arrangement,4
circulating,3
revenue,1
sufficiency,1
unavoidably,1
monopoly,1
negotiation,1
credit,1
residence,1
impressment,1
combine,1
waste,1
cheerfully,1
congregations,1
bearing,1
equipment,1
establishment,1
unavoidable,1
includes,1
pressure,1
apprehensions,1
interrupted,1
weights,1
becomes,2
shawanese,1
attains,1
martial,1
dition,1
thriving,1
constitution,2
presage,1
fidelity,1
incursion,1
men,3
hither,1
threats,1
physical,1
make,1
included,2
met,1
repeal,1
hostilities,1
opposed,1
diversified,1
questioned,1
40th,1
constituting,1
dismember,1
structure,1
rapidly,1
stake,1
due,1
circulation,1
contingency,1
unessentially,1
deceased,1
inform,1
depend,1
avowed,1
about,1
commit,1
danger,1
observed,1
character,2
bank,24
aggrandizing,1
appurtenances,1
eluded,1
drawing,2
blockades,1
above,1
expended,1
beneficent,1
salutary,1
vexation,1
height,1
august,1
myself,3
received,2
allied,1
substantial,1
execute,1
benefit,1
celerity,1
labor,1
quality,1
deduced,1
avoided,1
highest,1
consistently,1
sincere,1
promptitude,1
invested,1
transporting,1
seizure,1
expel,1
postponement,1
experiments,1
latitude,2
industry,1
freighted,1
believe,1
long,1
augment,1
into,6
1st,1
partition,1
voyages,1
resuming,1
garrisons,1
effectuating,1
benign,1
invites,1
examined,1
30,1
destruction,2
liquidation,1
though,1
associates,1
renewal,1
reprisals,1
appeal,1
receivable,1
many,2
transportation,1
controlled,1
dedicate,1
appear,1
extensive,1
inspire,1
impart,1
exacts,1
increasing,1
associated,1
progress,2
holds,1
respected,1
open,1
aliment,1
seeks,1
coequal,1
confederated,1
agent,1
militia,5
wholly,1
odious,1
forced,1
suffering,1
rapid,1
expressing,1
exemplified,1
spect,1
tread,1
plowshares,1
stationary,1
funded,1
algiers,1
displaying,1
admitted,1
formidable,1
repels,1
invited,1
felt,1
modification,1
look,2
sections,1
effected,1
assurance,1
unanimity,1
grounds,1
fabrics,1
forces,2
proposals,4
secured,1
allow,1
invoking,1
mast,1
mass,2
proper,1
18th,1
peculiarly,1
stocks,1
andwhereas,3
admit,1
common,1
interest,4
urgency,1
themselves,3
(exclusively,1
5m,1
lakes,1
75,1
apply,1
recently,1
staked,1
overlook,1
disclosing,1
gratifying,1
scabbard,1
exempted,1
renewed,1
money,1
step,3
undefended,1
forever,1
tribute,1
comrades,2
mark,1
endanger,1
ireland,1
subordinate,1
claimed,1
itinerary,1
whole,1
revolution,1
relation,1
loss,3
incentive,1
relate,1
lost,1
richly,1
perseveres,1
controlling,1
blends,1
attempts,1
profits,2
still,3
van,1
relating,2
work,1
enriched,1
lose,1
toward,1
knowing,1
providence,1
among,1
delays,1
terminate,1
word,1
theory,2
stated,1
love,1
confederacy,1
indulged,1
extension,1
internal,1
signature,1
republican,1
hovering,1
enjoy,1
defended,2
foundation,2
secret,1
ourselves,1
specified,1
slave,1
appearances,1
unwise,1
identity,2
federal,1
believed,1
europe,2
academy,1
mitigated,2
combats,1
vicissitudes,1
prevailed,1
reward,1
include,1
aged,1
persevered,1
destructive,1
degenerate,1
altogether,1
devout,1
alexander,1
soldier,1
regulations,1
devotion,1
hasty,1
exists,1
provident,1
dispersion,1
indian,1
insult,1
voice,1
hospitals,1
seduced,1
injuries,1
prepared,1
fertility,1
existence,1
threshold,1
unsusceptible,1
powering,1
subdued,1
apprised,1
uncertainties,1
adapting,1
unsettled,1
capture,2
excite,1
exigencies,1
revision,1
appointed,1
preparing,2
provision,1
reasonableness,1
seems,1
commence,1
unseasonable,1
cannons,1
scientific,1
congratulations,1
insure,1
clouds,1
prescribed,1
jackson,1
destinies,1
degrade,1
inculcated,1
fairness,1
arsenals,1
undaunted,1
advantage,1
notified,1
instead,1
ultimately,1
command,3
inculcates,1
anticipate,1
constituents,1
exception,1
temporary,1
hands,2
year,2
sufficiently,1
allowed,1
awful,1
contravening,1
branch,3
cruises,1
emergencies,2
awaiting,1
empire,1
understanding,1
near,3
because,1
victims,1
marched,1
sanctuary,1
remedial,1
inviting,1
economy,1
bainbridge,1
inspired,1
community,1
impetuous,1
intermitted,1
tendered,1
prohibiting,1
selection,1
stop,1
science,1
protracted,1
prudence,1
appropriate,1
usefulness,1
rodgers,2
least,1
utility,1
resignation,1
immediately,1
occupations,1
repressing,1
elevated,1
prohibition,1
hereunto,1
indignities,1
discriminations,1
estimating,1
flimsy,1
unfriendly,1
failures,1
learn,1
excepting,1
representing,1
onset,1
cruising,1
invalids,1
legality,1
plundered,1
severe,1
specie,10
instructions,3
addressing,1
notes,2
evidence,1
eager,1
trespasses,1
occupancy,1
republic,1
amity,1
entangle,1
official,1
signified,1
historical,1
ohio,2
spring,1
incorporated,1
leave,1
excluding,1
discrimination,1
kindle,1
surrender,1
minister,7
deputed,1
need,1
cruel,1
vexed,1
forbidding,1
originally,1
often,1
intentions,1
obtaining,1
energies,1
representatives:at,1
canada,1
materials,1
buildings,1
loose,1
decimal,1
(and,1
protestant,1
sailing,1
useful,1
lasting,1
sanctions,1
rises,1
liberally,1
private,3
respecting,1
10th,1
landmarks,1
inconsistencies,1
calamity,1
proportioned,1
responsible,2
forts,1
end,1
selecting,1
abridging,1
rich,1
chiefly,1
residue,2
praise,2
special,1
contempt,1
molded,1
visited,1
forgeries,1
progressive,1
achieved,1
attacked,1
family,1
deliberate,1
gift,1
discretionary,1
wanting,1
career,1
education,1
occupation,1
called,1
springs,1
charter,2
liberate,1
moral,1
turns,1
fullest,1
diminution,2
gradually,1
tried,1
brethren,1
brave,2
officering,1
proceedings,1
judge,1
impressments,1
credit),1
similar,1
aliens,1
nay,1
momentous,1
foundations,1
thousands,1
africans,1
compose,1
circumscribe,1
expulsion,1
authors,1
indicated,1
against,8
tions,1
manufactures,1
isles,1
remind,1
encourage,2
412,1
morality,1
rights,2
surreptitious,1
share,1
inveigled,1
umpire,1
2nd,1
cession,1
comprehending,1
hatchet,1
concessions,1
species,1
preceding,1
strongest,1
ignominious,1
displeasure,1
cent,1
honor,1
indemnity,1
metals,1
degradation,1
losses,1
trial,2
declares,1
new,1
took,1
canals,4
subjected,1
substitutes,1
intimately,1
shall,2
seasonably,1
rigorous,2
substituted,2
tribe,1
continuance,1
bestowed,1
individually,1
inconvenience,1
graciously,1
boundary,1
torn,1
precipitate,1
financial,1
ferocity,1
respective,1
enormity,1
promulgated,1
tore,1
commensurate,1
seasonable,1
render,1
republics,1
declared,1
frontier,3
manifest,1
relieve,1
employment,1
complying,1
engage,1
adroit,1
wrongfully,1
borrowing,1
emigrated,1
remainder,2
forms,1
territory,11
amendment,1
developments,1
achievements,1
victories,1
capitulation,1
maintain,1
establishing,1
communica,1
implore,1
johnson,1
commodore,1
professional,1
elective,1
represented,1
supplications,1
beneficence,1
fully,1
dissuade,1
models,1
ensuing,2
intrigues,1
remain,1
expected,1
anticipations,1
forgiveness,1
voices,1
exchanges,1
uninterrupted,1
countries,1
degraded,1
rily,1
himself,1
wanted,1
slow,1
supplying,1
exchanged,1
skillful,1
dishonoring,1
meliorate,1
undisputed,1
another,3
guarantee,1
recommend,2
enemy,14
permitted,1
envoy,2
disabled,1
expectations,1
superintending,1
trophy,1
triumph,1
defray,1
ratification,3
inculcate,1
fortunate,1
such,3
oppressions,1
perry,1
understood,1
countenance,1
supported,1
antecedent,1
chargeable,1
penalties,1
florida,1
navigable,1
documents,1
widening,1
relinquishments,1
administration,1
sweetening,1
developing,1
abridged,1
remains,2
objections,1
incorporate,1
19th,1
features,1
forgetting,1
houses,1
menacing,1
sovereign,1
termination,1
attractive,1
town,1
might,3
boats,1
expressions,1
whatever,1
decrease,1
destroying,1
improving,1
afflicting,1
solemnity,1
patriotism,1
invader:now,1
involving,1
next,1
submit,1
import,1
occupy,1
hidden,1
affluent,1
classes,1
nearly,1
non,1
vested,1
nor,1
conclusion,1
durable,1
not,8
doubtless,1
central,1
impose,1
now,3
statement,3
supporting,1
derived,1
incorporating,1
severity,1
delivery,1
election,1
race,1
was,10
war,10
way,1
necessaries,1
what,3
refer,2
battles,1
risk,1
rise,1
protracts,1
fought,1
criteria,1
meriting,1
quickly,1
taxes,1
decide,1
withheld,1
when,1
issues,1
contested,1
excluded,1
exiled,1
crush,1
instruments,1
conflagration,1
far,3
proudest,1
struggling,1
issued,1
plan,1
reimbursing,1
treason,1
give,2
practicable,1
lives,1
depends,1
double,1
probability,1
instituted,1
rendering,1
stations,1
tribunals,1
explicit,1
tripoli,1
propriety,1
ships,4
adorations,1
determined,1
prizes,2
burdens,2
suit,1
completely,1
study,1
explicitly,1
entangled,1
purity,1
portion,1
differences,1
districts,2
flags,1
direct,2
enabled,1
gain,1
conquering,1
receiving,1
uninfluenced,1
occasionally,1
unadvisedly,1
acknowledging,1
berlin,1
relieved,1
seminary,1
wel,1
barbarities,1
episcopal,1
great,9
wrong,2
wanton,2
proceeded,1
organization,1
pleased,2
peaceable,1
rage,1
behold,1
sides,1
terminating,1
indebted,1
organizing,1
hull,2
certain,1
preside,1
board,1
pursuing,2
distinction,1
arrest,1
heretofore,1
section,1
used,1
originated,1
notification,1
provoke,1
presented,2
threaten,1
omitting,1
few,1
otherwise,2
marked,1
visible,1
borne,3
recurring,1
tranquil,1
opened,1
plea,1
exceptions,1
produced,2
market,2
effects,1
invigorate,1
effect,2
keep,1
elementary,1
unfavorable,1
solemn,1
unworthy,2
perceive,1
sums,1
who,1
option,1
almighty,1
unexpected,1
contribute,2
deserves,1
faith,1
remark,1
founders,1
necessarily,1
alone,1
along,1
parallel,1
dismemberment,1
munitions,1
adhering,1
diminish,1
recommended,1
professorships,1
000),2
contained,1
matters,1
various,1
posterity,1
attention,2
uses,1
fulfillment,1
visit,1
reduction,1
denied,1
disproportionate,1
extent,1
inhabitants,1
parent,1
civilizing,1
conciliatory,1
bring,1
disorganizing,1
promoted,1
equity,1
losing,1
uncorrupted,1
colonial,1
warfare,4
manufacturing,2
honest,1
rank,1
preparatory,1
investigated,1
addition,2
doubts,1
bestows,1
departing,1
embellished,1
promoting,1
24th,1
ac,1
ad,1
sure,1
grow,1
aggressions,1
shrink,1
veil,1
licentious,1
engineers,1
proceeding,1
am,1
an,7
former,1
extend,1
as,12
at,8
interpretation,2
turning,1
peace,4
intermediate,1
consideration,1
formed,1
disavowing,1
be,15
prove,1
cherished,1
disclaimed,1
consequently,1
permanency,1
reluctance,1
revocation,2
fatigues,1
communications,4
search,2
extinction,1
furnished,1
systems,1
sudden,1
cherishes,1
by,28
whom,1
relinquish,1
scarcely,1
attainable,1
abandonment,1
exhorting,1
foot,1
humanity,1
innovation,1
enabling,1
charge,1
acknowledgments,1
alternate,1
attainment,1
corroborating,1
co,2
mounted,1
lasted,1
maturing,1
fly,1
withdrew,1
incompetency,1
essential,1
expenditure,1
de,1
equalized,1
admits,1
commanders,2
presumed,1
congenial,1
language,1
do,1
recompense,2
observe,1
commissioned,1
furnish,1
generosity,1
du,1
accomplished,1
attacks,1
warning,1
covets,1
exclude,1
preceded,1
utmost,1
which,28
seduction,1
favored,1
restlessness,1
countervailing,1
profound,1
never,1
knife,1
cherishing,1
vexing,1
carry,1
advantageously,1
necessity,1
forborne,1
exchangeable,1
compelling,1
origin,1
for,26
pursuits,1
augmentation,1
mistaken,1
content,1
burden,1
precaution,1
hover,1
relinquished,1
perhaps,1
sanction,1
rate,1
alert,1
skill,1
prosperity,2
representatives:i,1
contrary,1
class,1
contend,1
covers,1
attended,1
spanish,2
governors,1
go,1
accumulations,1
kept,2
perpetuity,1
justly,1
form,1
adjournment,1
management,1
500,1
wrt,1
correspondent,1
renew,1
providently,1
fort,1
he,7
assign,1
presents,1
withdraw,1
very,1
practice,1
placed,3
congress,3
languish,1
canadian,1
delayed,1
welfare,1
superadding,1
divine,1
capricious,1
legislative,1
appeared,1
william,1
embarrassments,1
vessel,1
contemplate,1
unaware,1
if,1
french,4
encouraging,1
dispatched,1
issue,1
in,44
maturity,1
subsistence,1
lower,1
is,12
impartiality,1
it,15
dictated,1
aimed,1
banners,1
resulting,1
decree,1
dictates,1
territories:now,1
contrast,1
gave,2
continuing,1
become,1
lawful,1
promptness,1
$10,1
barbary,1
solicitude,1
turned,1
$12,1
$13,1
$14,1
$15,3
$16,1
$17,1
occurrence,1
subscription,1
dependence,1
irreparable,1
ability,2
belief,2
modifications,1
knew,1
$29,1
off,1
generally,1
disposition,1
places,1
equals,1
attaining,1
complete,1
erations,1
conscious,1
accomplishment,1
triumphantly,1
$33,1
$37,1
political,1
while,1
enterprises,2
laudable,1
second,1
that,20
than,4
sufficient,1
me,1
limit,1
claim,1
mg,1
colonies,2
communication,1
mi,1
porter,1
$2m,1
months,1
contest,2
precedents,1
$47,1
possessed,1
unconquerable,1
formality,1
my,2
stipulated,1
flowing,1
expansion,1
chosen,1
fiscal,1
possesses,1
orleans,1
noble,1
magistrate,1
rushing,1
$3m,1
no,3
code,2
legacy,1
seal,1
careful,1
inestimable,1
preparations,1
elapsed,1
head,1
devastation,1
involuntarily,1
considerable,3
of,125
imported,1
proposition,1
capacities,1
sympathy,1
rescue,1
fight,1
on,36
or,2
batteries,1
guardians,1
purview,1
families,1
whilst,3
confer,1
intelligent,1
propitiate,1
nations:i,1
equip,1
memorials,1
conveniency,1
lands,1
communicating,1
$5m,1
indications,1
exercised,1
subversive,1
nation,2
readily,1
wholesome,1
amounting,1
splendid,1
wrest,1
convenience,1
determination,1
discipline,1
expedient,1
promised,1
postulations,1
proclamation,1
province,1
disbursements,1
estimate,1
accruing,1
unexperienced,1
recent,4
they,2
suspension,1
breaking,1
proposal,1
consciousness,1
old,1
them,9
then,1
seat,1
taxes),1
seas,2
re,2
attorney,1
adopt,1
guardianship,1
twelve,1
oppose,1
$7m,1
obtained,1
precluding,1
archives,1
activity,1
executed,1
seek,1
vindicates,1
seen,1
compelled,2
variety,2
incurring,1
george,1
aiding,1
insuperable,1
persist,1
so,1
caution,1
apart,2
maintains,1
st,1
necessary,2
decision,1
righteous,1
squadrons,1
one,4
incurred,1
manful,1
adorn,1
connected,2
single,1
cement,1
$9m,1
threatens,1
closed,1
tn,1
consequent,1
materially,1
to,48
attained,1
acquiescence,1
country,7
commercial,2
joint,1
separate,1
remarkably,1
reasonable,1
blessings,1
willing,1
generations,1
endangered,1
rules,1
sincerity,1
abolishes,1
embracing,1
capturing,1
un,1
military,1
satisfactory,1
details,1
aids,1
up,1
us,1
waters,1
usual,1
invading,1
purchases,2
endeavoring,1
this,6
alacrity,1
reasonably,1
carnage,1
remarkable,2
multiplying,1
extract,1
failure,1
towns,1
know,1
region,1
support,1
deceive,1
euro,1
consoling,1
destination,1
changes,1
learning,1
reciprocal,1
disposer,1
we,4
life,1
establishments,1
summoned,1
lies,1
disposed,1
lieu,1
cases,3
slight,1
previous,1
securing,1
remodification,1
enactments,1
superior,1
succeed,1
compensation,1
proportions,1
talents,2
procrastinated,1
held,1
southwestern,1
competition,1
courts,1
brigadier,2
none,1
beyond,1
april,1
troops,2
propagated,1
closing,1
hazard,1
terms,1
ontario,1
depressed,1
connection,1
deeply,1
proof,1
abandoned,1
presence,1
seized,1
researches,1
atrocities,1
petersburg,1
ominous,1
streams,1
contract,1
profitable,1
conclude,2
come,1
misfortune,1
fortifications,1
elections,1
churches,1
susceptible,1
harassing,1
exist,1
dereliction,1
provisions,2
confessedly,1
combinations,1
examples,1
columbia,1
instrumental,1
fabric,1
revolutionary,1
force,6
ascertaining,1
emanating,1
precautions,1
south,1
north,1
distribution,1
our,29
out,1
capacity,1
continues,1
course,1
power,2
copy,1
mediation,1
precise,1
sensible,1
danish,1
ulterior,1
precious,1
yielding,1
cool,1
illegality,1
continued,1
imperiously,1
abide,1
infuse,1
puts,1
warrington,1
mingle,1
polluted,1
firmness,1
ended,1
self,1
exposition,1
owe,2
connecting,1
insecurity,1
insulting,1
date,1
vindication,1
rightful,1
own,3
sound,1
harbor,1
sales,1
indignation,1
successes,1
inadmissible,1
distributing,1
consequences,1
create,1
criminal,1
blow,1
avoiding,1
comforts,1
development,1
proud,1
like,1
resource,1
unexampled,1
branches,1
judged,1
sent,1
ending,1
efforts,2
addressed,1
proposed,1
purposes,1
council,1
fraud,1
ground,2
expostulations,1
interposition,1
judges,1
send,1
inconsiderable,1
expenses,2
sagacity,1
necessities,1
here,1
purpose,1
regret,1
rejected,1
abridge,1
scale,1
recovery,1
conveyed,1
undertakings,2
predetermination,1
security,1
pretexts,1
station,1
hearts,1
feeble,1
affairs,1
diverting,1
costs,1
stating,1
cost,1
will,11
sufficed,1
confidence,1
arbitrary,1
firmest,1
follow,1
bordering,1
ascendancy,1
subversion,1
oath,1
compliance,1
sepa,1
treaty,2
york,1
wretchedness,1
assured,1
vindicating,1
illustrating,1
sufferers,1
exceeding,1
functions,1
numerous,1
govern,1
spacious,1
recognized,1
your,1
wabash,1
explanation,2
remote,1
without,2
youth,1
involuntary,1
rupture,1
these,3
introduced,1
contributions,1
protected,1
framed,1
victor,1
recruiting,1
sovereignty,1
partialities,1
authorize,2
whatsoever,1
thus,1
destinations,1
possess,2
neutral,1
volunteers,1
niagara,1
reimbursed,1
edicts,1
remarking,1
exposure,1
extinguishment,1
seizing,1
enlightened,1
recognizes,1
much,2
presumption,1
humble,1
entitled,1
independent,2
defence,1
obedient,1
concluded,1
alleged,2
tribunal,1
arrived,1
huron,1
fortuitous,1
fervent,1
earnests,1
merciful,1
committed,3
hardships,1
sets,1
intrusted,1
union,2
faculties,2
licenses,2
impartial,1
humbly,1
days,1
governs,1
combined,2
god,1
imperial,1
adopted,1
novel,1
liberal,2
standard,1
harmony,1
acceptable,1
deadly,1
institution,5
belonging,1
possessions,1
invigorating,1
$110m,1
wise,1
amounts,1
ambition,1
exceed,1
enlarge,1
satisfacto,1
patronage,1
avert,1
enumeration,1
revered,1
monarchy,1
manifestation,1
invitation,1
pay,1
revival,1
brilliantly,1
external,1
treasury,3
success,3
ingenuity,1
authority,2
claims,3
cognizance,1
scenes,1
vanquished,1
instituting,1
preserving,1
permitting,1
shocking,1
legislature,1
evinced,1
withholding,1
manning,1
relieving,1
divided,1
avenge,1
instrument,1
medium,8
invigoration,1
same:now,1
lenient,1
remove,1
wisdom,1
confinement,1
pean,1
depredations,1
treasure,1
fairest,1
espoused,1
sustaining,1
harbors,2
victory,2
perform,1
retrospective,2
insults,1
negotiations,1
armistice,4
with,29
complaint,1
service,3
there,1
coffee,1
remonstrances,1
ments,1
named,1
injustice,1
offense,1
cheerfulness,1
monuments,2
considered,1
channel,1
american,10
delivered,1
favorable,4
entire,1
flashes,1
affords,1
decisive,1
heroes,1
russia,1
revive,1
per,1
ceased,1
period,1
africa,1
envoys,2
proceed,1
offenses,1
understand,1
birth,1
heaven,1
suspended,1
intelligence,1
vigorously,1
ever,2
uniting,1
unhappy,1
million,1
even,1
strongly,1
manifested,1
restriction,1
americaa,1
assumed,1
favorably,1
engaged,1
larger,1
gun,1
dispensation,1
doubted,2
magnificent,1
kinds,1
injured,1
native,1
costly,1
imperative,1
hitherto,1
violence,1
accordingly,2
laid,2
consequence,1
availing,1
particularly,1
contending,1
competitions,1
apprehended,1
impressions,1
inconsistent,1
opportunities,2
pacific,1
plenipotentiary,2
names,1
propositions,1
requiring,2
attributes,1
practicability,1
armaments,1
prohibit,1
imposed,1
frugal,1
almost,1
equally,1
30th,1
infirm,1
manner,1
sustained,1
defenseless,1
scrupulous,1
judgment,1
charity,1
whether,1
members,1
stock,1
guarantees,1
heroic,1
strengthened,1
sway,1
indiscriminate,1
basis,1
affected,2
army,1
entitles,1
arms,3
october,1
evil,1
governor,1
virginia,1
lake,6
rising,1
assimilating,1
unite,1
cause,1
extorted,1
restoring,1
indulge,1
sacrificed,1
pursue,1
ties,1
intended,1
design,1
attending,1
laurels,1
kindred,1
land,3
explanations,2
victim,1
conformity,1
importation,1
department,1
sacrifices,1
elevation,1
imposing,1
perdido,1
chief,1
liberties,1
performing,1
accord,1
foremost,1
contributing,1
followed,2
merchandise,1
craney,1
conduct,1
plunder,1
reunion,1
wrested,1
interested,1
defeating,1
vessels,3
extending,1
accumulating,1
ardently,1
decay,1
discussion,1
incidental,1
retreats,1
armories,1
liberty,1
clashing,1
lesser,1
lawrence,1
arrangements,1
meeting,1
events,1
portions,1
displayed,1
discussing,1
mankind,1
violations,1
want,1
disgraceful,1
forecast,1
repentance,1
classing,1
compounded,1
induce,1
reality,1
difference,1
macdonough,1
must,1
demonstration,1
circle,1
actions,1
safeguard,1
dispersed,1
giving,1
objectionable,1
prize,1
colors,1
incompatible,1
ulations,1
found,1
defense,2
sanctioned,1
currency,2
tariff,1
reorganization,1
arts,2
demonstrating,1
limits,1
latest,1
receive,1
cruelty,1
states:i,1
surplus,1
guaranteeing,1
correspondence,2
dispositions,1
declaration,1
entirely,1
disclose,1
religion,1
standing,2
extensively,1
prosperous,1
implies,1
representatives,2
feelings,1
friendship,1
waged,1
had,10
infractions,1
secure,1
guided,1
placing,1
intoxication,1
digested,1
disappointed,1
late,1
continue,1
preserved,1
impolitic,1
subsisting,1
things,1
has,13
abounds,1
inherent,1
advantageous,1
given,2
ciency,1
last,2
definite,1
adapt,1
weight,1
insufficient,1
freed,1
intrepidity,1
pro,1
intrinsic,1
measure,2
guilty,1
harrison,1
statutory,1
maritime,1
wars,1
derogatory,1
injurious,1
pursuance,2
exports,1
impossible,1
trespass,1
exercising,1
anything,1
agriculture,2
stronger,1
ends,1
assembled,1
steady,1
early,1
commissioners,1
notwithstanding,1
attentions,1
yet,1
reserving,1
disposable,1
genius,1
wages,1
faring,1
inasmuch,1
observing,1
time,4
bravery,1
flourishing,1
dominions,1
notorious,1
dominion,1
happy,1
signalized,1
aggravation,1
governments,1
infant,1
continually,1
put,1
sloop,2
seafaring,1
her,4
authorized,1
struggle,1
slaves,2
collusive,1
tion,1
laws,1
having,3
russian,1
subscribers,1
lesson,1
nugatory,1
supreme,1
infancy,1
heritage,1
lapse,1
discharging,1
light,1
resheathed,1
valuable,1
enormities,1
consecrated,1
merits,1
ways,1
appropriation,1
deficient,1
predatory,1
vows,1
organs,1
chain,1
desire,1
efficient,1
unfortunately,1
consistent,1
lately,1
reverse,1
encountered,1
sword,1
january,3
permanent,1
foster,1
organized,1
choice,1
facility,1
governed,1
small,1
gallant,2
enemy!they,1
civilization,1
defeated,1
before,1
replace,1
desolated,1
appointment,1
him,1
his,29
major,2
companions,2
beat,1
bear,1
funds,2
consider,1
trampling,1
repeatedly,1
imports,1
gross,1
vigilant,1
reciprocity,1
repairs,1
conjuncture,1
distrust,1
animosity,1
interference,1
induces,1
request,1
substitution,1
colony,1
devolves,2
their,10
general,3
naturalizing,1
september,1
attachment,1
discontinuance,1
induced,1
depository,1
applying,1
deserve,1
reestablished,1
restore,1
alternative,1
eighth,1
confining,1
encounter,1
debts,1
mean,2
neither,3
fulfilling,1
account,1
settlements,1
unforeseen,1
been,11
innocent,1
cordiality,1
executing,1
rectitude,1
advance,2
appreciate,1
transmitting,1
murderous,1
strict,1
rally,1
you,1
safely,1
knowledge,2
limitations,1
happen,1
devised,1
preference,1
active,1
opportunity,1
july,1
court,2
warren,1
population,1
atlantic,1
propensity,1
enthusiasm,1
flexible,1
trying,1
councils,1
millions,1
natives,1
bulky,1
wisely,1
negotiated,1
unwilling,1
cited,1
soil,1
abuses,1
unsafe,1
interior,1
thereto,1
how,2
5m),1
assembly,1
neutrals,1
emigrants,1
spare,1
freewill,1
endeavors,1
subjects,2
redistributed,1
thursday,1
assemble,1
dragged,1
transition,1
march,1
appeals,1
repel,1
advantages,1
june,1
answer,1
regarded,1
meet,3
calls,1
series,1
restored,1
cultivate,1
outrages,2
unfading,1
encroachments,1
passions,1
compete,1
celebrity,1
antici,1
putting,1
sometimes,1
questions,1
promise,1
hold,1
designated,1
prior,1
blockade,1
reply,1
train,1
perpetrated,1
appertains,1
insincerity,1
prerequisite,1
transgressions,1
take,1
accompany,1
thereof,2
immediate,1
beneficial,1
boasting,1
carrying,1
some,2
affording,1
nonexistence,1
representatives:the,1
session,1
additional,1
denominations,1
silencing,1
passes,1
tennessee,1
exposed,1
passed,1
annexed,2
just,1
respects,1
bloody,1
notice,2
sole,2
jury,1
holy,1
restraining,1
remembering,1
augmenting,1
monitor,1
colonists,1
killed,1
strictly,1
home,1
pious,1
existing,1
proclamationwhereas,1
material,2
although,1
encouragement,1
owned,1
proclaiming,1
peculiar,1
president,1
fortunes,1
relinquishment,1
repulsed,1
therein,1
effi,1
hope,1
algerine,1
soon,1
america,1
executive,1
sons,1
action,1
surpassed,1
manifold,1
anticipated,1
assertions,1
misconduct,1
31st,1
distinctly,1
vacant,1
procuring,1
detached,1
accompanied,1
afford,2
reached,2
impression,1
comprehended,1
britain,3
ably,1
enforcing,1
reconciling,1
products,1
75m,1
exploits,1
sensibility,2
creek,1
incidents,1
member,1
intrepid,1
periods,1
effectuate,1
affirmative,1
together,1
supplication,1
within,2
could,3
health,1
marks,1
positive,1
ment,1
agents,1
mediterranean,1
prospect,1
withhold,1
affixed,1
able,1
return,1
instance,1
concerned,1
conscience,1
edifices,1
accommodating,1
inheritance,1
british,4
insensibility,1
smile,1
inviolate,1
fine,1
find,1
usurpations,1
spoliations,1
calculated,1
citizen,1
sooner,1
accepts,1
occur,1
difficult,1
definitive,2
sort,1
seriously,1
fill,1
steps,1
friends,1
heart,1
undergone,1
forget,1
convenient,1
infer,1
transit,1
true,2
principles,1
present,3
petty,1
importations,1
since,1
sentiment,1
arrested,1
strife,1
belong,1
chauncey,1
borders,1
abundance,1
soundest,1
best,4
appears,1
movements,4
effectually,1
persevering,1
hour,1
regulating,2
magazines,1
magnitude,1
insuring,1
experienced,1
execution,3
falling,1
pretended,1
sought,1
compacts,1
extraordinary,1
concerning,1
regulation,1
conventional,1
hypocrisy,1
accommodation,1
evident,1
opinions,1
annoy,1
competitors,1
reflect,2
conveyance,1
massacre,2
jurisdic,1
fire,1
chastisement,1
distinguish,1
dissatisfied,1
intention,1
pointed,1
traitors,1
undertaken,1
thereby,1
disastrous,1
impulse,1
inflicted,1
concur,1
religious,3
nevertheless,1
fact,1
prominent,1
superiority,2
respectable,1
fundamental,1
deliberation,1
entitle,1
nominal,1
unless,1
excess,2
christian,1
encouragements,1
retaliate,1
purporting,1
free,1
equality,1
ought,2
invade,1
intervening,1
representatives:on,1
valor,1
bespeak,1
people,2
chesapeake,1
actually,3
face,1
glut,1
congratulation,1
household,1
invite,1
interpositions,1
operation,1
adverse,1
alterable,1
legation,1
cannon,1
obligations,1
reputation,1
independence,1
melancholy,1
afforded,1
whenever,1
leaves,2
adjusting,1
crews,1
commands,1
prolonging,1
retaliatory,1
sufferings,1
collection,1
flavored,1
enlarging,1
announced,1
extends,1
systematically,1
campaign,2
vital,1
spilt,1
rewards,1
conflict,1
loudly,1
reasons,1
traders,1
rule,1
commerce,3
assistance,1
decrees,3
multiplied,1
declaring,1
gulf,2
wants,1
fallacious,1
definition,2
wonder,1
every,5
characteristics,1
answered,1
inferior,1
again,1
professes,1
certainty,1
indians,1
indeed,1
chastise,1
deficiency,1
professed,1
removal,1
decatur,1
indiana,1
employ,1
discussions,1
residing,1
binding,1
desirable,1
professing,1
during,3
fair,1
preparation,1
disadvantages,1
safety,4
enable,1
price,1
draining,1
slavery,2
defensive,1
dependent,1
stipulations,1
staples,1
provisional,1
arise,1
reduced,1
cherish,1
agree,1
facilitating,1
eminent,1
resistance,1
fail,1
itself,1
enjoyment,1
unexceptionable,1
repaid,1
nursery,1
pride,2
emperor,1
betrayed,1
chastised,1
ascertained,2
embodied,1
remnant,1
spain,1
civilized,3
hoped,1
church,5
triumphs,1
alexandria,1
substitute,1
foreign,2
uniform,2
fall,1
blaze,1
moreover,1
causes,2
violate,1
hopes,2
event,1
demonstrated,1
wherever,1
establishes,1
established,1
witnessed,1
agency,1
unprepared,1
inhabit,1
caused,1
siege,1
27th,1
reenforcements,1
appearance,1
culture,1
cannot,1
hereby,1
octo,1
first,1
quotas,1
prefer,1
relinquishing,1
space,1
reference,1
spite,1
theater,1
inferred,1
struggles,1
from,8
unerring,1
depart,1
nonimportation,1
privations,1
squadron,3
circuitous,1
likeness,1
misled,1
invariable,1
published,1
representatives:in,1
manufacture,1
assailable,1
bosom,1
invariably,1
aforesaid,1
repair,1
accorded,1
death,1
arrival,1
according,1
frequent,1
statements,1
factories,1
bestow,1
aggregate,2
despotism,1
holding,1
operations,4
public,6
liberality,1
protec,1
value,1
procure,1
enforced,1
maine,1
quantity,1
repay,1
fortune,1
connecticut,1
resources,1
subserviency,1
fense,1
nowise,1
expensive,1
inducements,1
trade,1
performance,1
stages,1
fleeing,1
growth,1
moneys,1
aiming,1
authenticated,1
juridical,1
objects,1
nailed,1
imperishable,1
resolution,2
building,1
setting,1
properly,1
interruptions,1
poor,2
gratified,1
reconcilement,1
needful,1
brigadiers,1
fairly,1
adapted,1
authorities,2
perplexities,1
persons,3
recalling,1
charger,1
advancement,2
800,1
invaders,1
municipal,1
charged,1
shortly,1
firmly,1
southern,1
providing,2
fate,1
hasten,1
milan,1
prowess,1
founding,1
omnipotent,1
aspect,2
departments,1
scott,1
close,2
baneful,1
maxims,1
mitigate,2
michigan,1
signify,1
evincing,1
reconciliation,1
oblige,1
practised,1
movable,1
trials,1
invasion,2
calling,2
collateral,1
citizens,3
register,1
nine,1
fleet,1
communicate,1
concurrence,1
asserting,1
annoyance,1
ist,6
concord,1
act,4
transmission,1
agricultural,1
post,3
reg,1
repeating,1
finish,1
requisites,1
gifts,1
add,1
unredeemed,1
discouragement,1
predetermined,1
its,14
constructive,1
remedy,1
propitious,1
benevolent,1
consent,1
respect,1
article,1
retreat,2
barbarism,1
mutual,1
port,1
therefore,1
exchange,1
adjustment,2
washington,1
contiguous,2
heaped,1
trust,1
incendiary,1
united,2
directors,1
searching,1
requisitions,1
universally,1
soldiers,2
fleets,1
peaceful,1
soldiery,1
prevent,1
previously,1
disturbing,1
happiness,2
strikes,1
857,1
usages,1
humiliation,1
colonel,1
enacts,1
judicious,1
corrupts,1
improvement,1
misconstruction,1
truth,1
pledge,1
enterprising,1
exempt,1
enjoyed,1
age,2
smaller,1
shewn,1
tendency,1
shews,1
years,1
85m,1
number,1
contemplations,1
defect,1
obedience,1
disappointment,1
punish,1
casual,1
property,2
decline,1
shorter,1
luster,1
nothing,1
distributed,1
animation,1
urged,1
disciplining,1
patronizing,1
happily,1
system,1
defects,1
catholic,1
animated,1
shrunk,1
presenting,1
aid,1
partial,2
sundry,1
blessing,2
repugnance,1
other,7
tributed,1
fathers,1
aim,1
city,1
confident,1
retain,1
exclusion,1
epoch,1
arrearages,1
local,1
courage,1
crew,1
solemnities,1
extravagant,1
accommodate,1
imaginable,1
yield,2
promptly,1
assertion,1
speak,1
sacred,1
recollected,1
horrors,1
inhabiting,1
rests,1
filled,1
satisfaction,1
meantime,1
tunis,1
preceptors,1
powerful,2
future,1
mississippi,2
shed,1
spun,1
body,1
commenced,1
correspond,1
points,1
mode,1
latterly,1
ratifications,1
copies,1
reap,1
presume,1
maintained,1
exultation,1
qualify,1
all,6
always,1
border,1
unmounted,1
read,1
constructing,1
already,2
avoids,2
applicable,1
conducted,1
real,1
admission,1
adhere,1
expense,1
maintaining,2
territorial,2
mock,1
prayers,1
facilitate,2
interfering,2
lamented,1
prerequisites,1
diminished,1
confiscated,1
and,86
construction,2
universal,1
abroad,1
fifteen,2
undermine,1
guilt,1
honorably,1
looked,1
cruisers,1
distin,1
unnecessary,1
benedictions,1
any,4
wrongs,1
duly,1
intercommunication,1
shew,2
suggested,1
transcendent,1
application,1
productive,1
overbalanced,1
animating,1
disavowed,2
emanated,1
communicated,3
until,2
formally,1
honorable,1
expanding,1
reason,1
mitigating,1
thought,2
prostitution,1
prosecution,1
taste,1
treaties,1
ship,1
intimation,1
acts,1
massachussets,1
imputations,1
exalted,1
demonstrations,1
altar,1
annual,1
exclusive,1
resort,1
occasioned,1
goodness,1
devoted,1
completed,1
recognitions,1
demand,1
000,17
acquiesce,1
territories,1
proofs,1
letter,1
alternatives,1
calculations,1
succeeded,1
annually,1
increased,1
predecessor,1
inspiring,1
worth,1
fertile,1
fruits,1
are,2
taken,1
patience,1
came,1
dividend,1
where,2
takes,1
avowedly,1
animadversions,1
art,1
vice,1
outweigh,1
vaults,1
favors,1
fitted,1
call,2
ownership,1
ordnance,1
armed,1
relations,1
climates,1
solace,1
through,3
becoming,1
engagement,1
strength,1
officer,4
disregard,1
offices,1
occasional,1
justified,1
inflexibility,1
evasions,1
individuals,1
repeated,1
treacherous,1
view,1
either,1
neighbors,1
recollection,2
defiance,1
those,1
estimates,1
watches,1
courses,4
accomplishing,1
motives,1
dwellings,1
sanguine,1
bold,2
admiral,1
plattsburg,1
prosecuted,1
difficulty,1
longer,2
volunteer,1
senate,1
everywhere,2
consul,2
parties,1
name,1
worst,1
hornet,2
neighborhood,1
leaving,1
forbearance,1
benefits,1
distance,1
reflections,1
abolish,1
absence,1
invigorated,1
abstain,1
prospects,1
attract,1
show,1
description,1
augmented,1
renounce,1
emigrating,1
vigilance,1
crying,1
hence,1
seamen,1
sympathies,1
infringed,1
vanished,1
resting,1
introduce,1
estimated,2
approbation,1
suddenly,1
receipts,2
obstruct,1
scrupled,1
guidance,1
duty,1
ardor,1
doomed,1
hastening,1
dangers,1
usage,1
refines,1
pledged,2
collected,1
poured,1
transmitted,2
negotiable,1
subscribed,2
cast,1
anxious,1
pledges,1
participating,1
pressures,1
severely,1
greater,1
cash,1
case,1
patrimony,1
generation,1
subscriber,1
affections,1
perpetuating,1
fetters,1
saving,1
consid,1
rely,1
inconsiderate,1
merited,1
care,1
participation,1
purely,1
guard,1
fulfilled,1
exercise,1
annulled,1
pressing,1
freedom,1
transfers,2
criminals,1
seldom,1
glorious,1
dared,1
protect,1
recollecting,1
mischief,1
reliance,2
consolation,1
contingencies,1
more,10
display,1
superfluous,1
tribes,2
consulted,1
distressing,1
bore,1
mexico,1
reluctantly,1
superseded,1
persevere,1
shut,1
habits,2
navy,1
amicable,1
bonds,1
floridas,1
alleviate,1
vests,1
influence,1
confusions,1
1776,1
georgia,1
labors,1
responsibilities,1
$120,1
connections,1
england,1
interrupting,1
crisis,1
kind,2
supposition,1
obstructed,1
consultations,1
both,3
most,4
important,2
persuasion,1
auguries,1
transfer,1
veteran,1
daily,1
$11m,1
menaces,1
exigency,1
omit,1
erroneous,1
inseparable,1
sacketts,1
ascertain,1
severest,1
awaken,1
affecting,1
blakely,1
captain,4
forbid,1
footing,2
understands,1
adjudged,1
1794,1
naturalization,1
mentioned,1
prosecuting,1
maimed,1
adds,1
rest,1
safeguards,1
amount,2
original,1
disclosed,1
adherence,1
convertible,1
earnestly,1
also,6
discontinued,1
increase,1
kingdom,1
spread,1
emoluments,1
claiborne,1
favor,1
arming,1
investigation,1
latter,2
depression,1
equivalent,1
emulating,1
regaining,1
projects,1
enlistment,1
alienate,1
perfidious,1
completing,1
perpetual,1
denved,1
offer,2
bar,1
diplomatic,1
violated,2
gaining,2
adequately,1
metropolis,2
disasters,1
inadequacy,1
personal,1
seconded,1
delay,2
violates,1
globe,1
transient,1
plans,1
920,1
subverted,1
applause,1
greatly,1
ascribed,1
victorious,2
miscellaneous,1
readiness,1
affect,1
scarcity,1
dead,1
ministers,1
eyes,1
sea,2
sixth,1
proved,2
tenor,1
see,2
discouraging,1
offered,1
responsibility,1
civil,1
national,3
effectual,1
subsequent,2
indicate,1
dear,1
gratuitously,1
conquerors,1
compared,2
completion,1
ser,1
contain,1
set,1
joined,1
sex,1
founded,1
confirmations,1
reiterated,1
instructed,1
($39,1
battle,1
admiration,1
difficulties,1
insufficiency,2
auspices,1
vicinity,1
river,2
validity,1
courting,1
jealousies,1
corresponds,1
practiced,1
performs,1
transferred,1
developed,1
nearest,1
ber,1
denomination,1
monopolized,1
shipping,1
discharge,1
disorganize,1
france,1
detachment,1
champions,1
instructive,1
($64,1
requirable,1
complain,1
zeal,1
she,2
parts,1
western,1
vigorous,1
finances,1
debt,2
party,2
duties,1
little,1
however,1
deep,1
humane,1
confined,4
sources,1
trained,1
compel,1
capable,1
explained,1
repress,1
unhappily,1
related,1
candid,1
vicissitude,1
captured,1
await,1
regencies,1
pardoned,1
views,1
pretensions,3
conversion,1
mouths,1
over,1
assurances,2
brilliant,1
directed,1
practical,1
sanguinary,1
captures,1
assuring,1
bound,1
false,1
reviewing,1
obviously,1
transgressors,1
retained,1
prerogative,1
avoid,1
fresh,1
prompt,1
comprehensive,1
unrighteous,1
manifestations,1
modes,1
frustrated,1
select,1
untutored,1
fulfill,1
advanced,1
repose,1
recommendation,1
provoking,1
nations,1
counsels,1
candor,1
slaughter,1
improved,1
thanks,1
striking,1
punishable,1
advances,1
model,1
join,1
sequel,1
mariners,1
large,2
vain,1
assembling,1
ordinary,1
transactions,1
operate,1
intercept,1
attracted,1
exclusively,1
forfeitures,1
instigations,1
testimonies,1
betraying,1
recommending,1
judgement,1
preferring,1
brought,1
works,2
proportion,2
alive,1
payments,1
pursuit,1
professions,1
ruthless,1
vassals,1
world,3
composed,1
inquiry,1
viewed,1
prejudice,1
december,1
soils,1
everything,1
guardian,1
urgent,1
penal,1
fanatic,1
amidst,1
resisted,1
side,2
creditors,1
change,2
expressly,2
willingness,1
systematic,1
comfort,1
suspicions,1
corporate,1
instruction,1
report,2
piously,1
transitory,1
powers,1
facilities,1
improvements,1
severities,1
waiving,1
theirs,1
constant,1
several,2
outrage,1
office,1
diffuse,1
precepts,1
alleviation,1
high,1
proceeds,1
falls,1
butcheries,1
coercive,1
lust,1
sow,1
different,1
usurper,1
officially,1
level,1
restrictions,2
thrown,1
preserve,1
permanently,1
establish,1
collectors,1
inconsiderately,1
rewarded,1
proclaim,1
insurrectional,1
attached,1
enacted,1
errors,2
sandusky,1
sentiments,1
hostility,3
preservation,1
enjoys,1
pursued,1
1/2,1
auxiliary,1
loses,1
savage,1
highly,1
declines,1
console,1
unfortunate,1
auspicious,1
nature,1
social,1
deserters,1
interesting,1
emulation,1
relying,1
control,1
100,1
declined,1
unauthorized,1
earth,1
descriptive,1
essentially,1
inland,1
occurrences,1
baltimore,1
threatening,1
upper,1
intercourse,2
stood,1
precept,1
paint,1
commanding,1
fighting,1
behalf,1
animate,1
scene,1
improperly,1
exert,1
encouraged,1
eastward,1
heroism,1
providential,1
halifax,1
strengthen,1
friend,1
exhibit,1
drawn,1
societies,1
lighted,1
inadequate,1
appreciates,1
precident,1
closely,1
pleasure,1
defrayed,1
inviolably,1
remaining,1
glory,1
accept,1
mission,1
requested,1
northwestern,1
stopping,1
mackinaw,1
mercantile,1
conditions,1
surrendered,1
redeemed,1
overcome,1
cooperate,1
sum,2
undisturbed,1
ports,1
neighboring,2
extended,2
resorting,1
current,1
secretary,3
managed,1
unlawfulness,1
tual,1
detroit,3
preferred,1
situations,1
offensive,1
laying,1
1809,1
threatened,1
disavowal,2
enemies,1
beloved,1
condemned,1
uppermost,1
1808,3
1807,1
1806,1
fourth,1
1803,1
conspicuously,1
but,7
declare,1
wantonly,1
unequal,1
express,1
confine,1
frequency,1
1810,1
instantly,1
wishes,1
1816,1
unusual,1
passion,1
1814,1
1812,1
hastened,1
sink,1
degree,1
deficiencies,1
cogent,1
functionaries,1
enhanced,1
especially,1
ocean,2
naval,3
once,1
dismay,1
demonstrate,1
doing,1
unadjusted,1
records,1
prisoners,2
monument,1
fraternal,1
throughout,1
assent,1
virtue,1
successful,2
encourages,1
gradual,1
preclude,1
corrupt,1
mingled,1
deliberations,1
transmit,1
consumption,1
passports,1
provisionally,1
speedily,1
subjecting,1
ones,1
specially,1
plenipotentiaries,1
reach,1
tested,1
comparative,1
commencement,1
meritorious,2
retiring,1
children,1
justify,2
review,1
weather,1
sight,1
between,1
guide,1
exhibited,1
spectacle,1
efficiency,1
natural,1
arising,1
answerable,1
forwarded,1
deprived,1
merciless,1
tranquillity,1
expenditures,1
following,1
recoiled,1
acquainted,1
flag,1
promulgation,1
james,1
range,1
derive,2
undiminished,1
seeing,1
frigate,1
feature,1
assert,1
recall,1
$20m,1
place,1
lawless,2
regular,1
objection,1
interdict,1
suggest,1
aggression,1
intrusions,1
lead,1
distresses,1
expect,1
cease,1
fanaticism,1
elements,1
pacification,1
kindling,1
passage,1
adequate,1
undivided,1
uniformity,1
growing,1
retaliating,1
enlargement,1
should,2
only,2
justice,1
conspicuous,1
appertaining,1
officers,2
enumerated,2
clothed,1
incursions,1
effusion,1
individual,1
indirect,1
appropriations,1
loans,1
filed,1
inquiring,1
climes,1
accepted,2
vanous,2
reparation,1
suffrage,1
ranks,1
person,1
testimony,1
retaliation,1
safe,1
destined,1
departure,1
herself,3
prohibitions,1
consciences,1
acknowledged,2
sail,1
instances,1
distinct,1
enjoin,1
tune,1
terminates,1
guarding,1
aware,1
can,4
paris,1
gunboats,1
ready,1
floating,2
eligible,1
$24m,1
said,8
terminated,1
greatest,3
carried,1
illustrious,1
immunities,1
manufacturers,1
limited,1
studied,1
february,1
fault,1
passive,1
efficacy,1
carries,1
corresponding,2
accrued,1
arguments,1
