abrahamLincoln,Occurences
undermining,2
tranquilized,2
half,8
belligerent,1
supplant,1
hall,2
naturalized,3
pretend,1
dishonor,1
installments,1
causelessly,2
gloomy,2
ten,14
daring,2
sake,2
energy,1
deference,2
&,1
),2
competent,2
require,10
*,1
1,4
2,1
3,2
4,1
triple,2
5,1
6,1
7,2
8,1
9,1
rounded,1
newspaper,2
telling,4
hang,6
britannic,1
concede,1
turn,14
result,4
gold,2
opposition,4
rejects,1
same,44
selfish,1
commission,1
after,18
],2
connect,1
hand,6
rescind,1
resume,1
a,510
ordered,1
b,3
c,2
collisions,1
d,1
h,2
i,352
blood,4
m,1
violating,2
neighbor,2
the,2484
p,1
straight,2
q,2
entering,1
sale,2
r,2
s,30
t,1
u,2
tropics,1
exciting,2
obvious,1
information,1
reeled,2
november,2
reopened,2
resolve,2
kickings,2
uprising,1
good,24
faithful,1
amounted,1
tie,1
suffered,1
besides,4
serious,4
disperse,1
tip,2
rome,1
delivering,1
gone,2
sand,1
owed,2
aside,2
sank,2
harm,2
disturbed,2
provided,8
effecting,1
aboriginal,1
embody,1
representation,2
motive,1
postmaster,1
provides,1
webster,8
hard,2
multiply,1
assaults,2
reenforce,1
quarters,2
antagonisms,2
lands:the,1
room,2
better,6
permit,4
suitable,1
cancer,2
taking,18
voters,1
immortal,2
prohibits,2
conjecture,1
orsini,1
discharged,1
gained,4
struck,2
hate,8
hath,2
491840,1
flow,1
order,4
reminds,2
protecting,1
pressed,4
exempts,1
propose,4
reform,1
presses,1
derangement,2
ensue,1
women,1
save,1
protection,1
combatants,2
scrap,2
top,2
belligerents,1
too,28
have,144
kentucky,4
energetic,1
avail,1
towit:arkansas,1
question,60
additions,1
spirit,26
hallowed,2
reimbursements,1
regard,4
rose,2
thousand,10
preconcert,1
pinckney,3
say:,2
representative,1
disapproved,2
circumstances,4
including,4
introducing,2
patriot,1
devising,2
pardon,3
constitutes,2
alluding,2
repossession,1
cleaver,2
anew,2
markets,2
203,1
hewing,2
obligation,2
mounting,1
violation,2
206,1
208,2
try,6
constituted,4
patriotic,4
became,10
ceded,4
effective,2
times,14
211,2
debtor,1
216,1
exhorted,1
217,1
says,14
direction,2
ammunition,1
whence,1
cry,2
221,1
222,1
reservations,1
stable,2
productions,1
respond,1
sketch,4
incident,2
671850,1
exceeds,1
japan,2
hypercritical,1
fullness,1
concert,1
pity,1
uncertain,1
unimportant,1
concern,4
unoccupied,1
defines,1
beautiful,2
worked,2
234,2
239,1
state,84
defined,1
element,2
undue,1
appointments,1
22d,1
states:in,1
probable,4
opposite,2
restraint,2
watchful,2
247,1
248,1
offering,1
creating,1
restrained,2
outnumbering,1
cut,2
probably,2
jurisdiction,2
constitutional,10
penniless,1
manly,1
weighed,2
dread,2
two,26
250,1
251,1
moment,2
253,1
instinctive,1
257,1
tear,2
desired,4
calmly,1
attack,1
reported,2
distribute,1
kitchen,1
prevented,2
creation,2
immigrants,3
inclination,1
think,50
participate,1
occurred,1
desires,1
anxiously,1
cadets,1
services,1
forfeited,1
262,1
ordinay,1
chilean,1
267,1
mistress,1
speech,1
thing,38
cabinet,1
margins,2
privileges,1
271,1
274,2
domestic,6
276,2
paying,1
deception,1
blows,2
“fools,2
stability,2
actual,2
eastern,1
reflection,2
ultimate,1
widely,2
misunderstand,2
easiest,1
shops,1
assume,1
halls,1
johns,1
memory,2
warranted,1
292,1
house,20
indefinite,6
296,1
298,1
299,1
construed,1
unjust,2
opposing,2
hours,4
knoxville,1
shore,4
start,2
discordant,1
affirmations,1
earliest,4
unobjectionable,1
fallen,2
short,4
persisting,2
regulate,4
truths,2
unholy,2
extant,2
trains,1
consistency,4
required,2
measures,20
specifically,2
attain,2
enter,1
restoration,8
destroy,6
dates,1
deemed,2
respectfully,2
railways,1
statesmen,2
coast,4
requires,6
submitting,1
competency,1
bright,2
anti,1
unknown,2
billows,2
hazards,1
“finality,2
assure,1
pretext,2
gracious,1
consuls,5
survive,1
performed,1
territorially,1
evince,1
evading,1
cling,2
hanging,2
“provided,2
endorsement,8
speedy,1
friendly,2
possession,2
outlay,1
tell,6
colonizing,1
shores,1
runaway,2
daughters,1
shows,6
shown,2
pointing,2
majesty,3
day,16
keeps,2
accustomed,1
housesconcurring),1
raising,1
contraband,1
statesman,2
claimants,2
island,1
created,8
water,1
corps,1
entertain,1
tens,1
antagonists,2
deceptive,2
pettit,2
reptiles,1
sakes,2
elsewhere,2
judiciary,1
this:,1
tend,1
guarded,2
exceedingly,1
perspicuity,1
equitable,1
sixteen,6
restraints,2
endowed,2
introduction,10
revenge,2
built,1
poisonings,1
illiberal,1
noticing,2
entertained,1
successively,2
third,2
build,2
further,18
demands,1
tolerate,1
dec,4
contracted,1
resent,2
outlets,2
exemption,1
viewing,1
flushed,2
finds,6
preacher,2
reimbursement,1
railway,1
adjudicate,1
cuba,2
announcement,1
prejudices,1
encircling,1
banks,2
going,10
carefully,4
shock,2
ashes,2
committees,1
stade,1
average,2
obstructions,1
influential,2
bodies,1
equivalents,4
choosing,1
assailants,2
negations,1
unlike,2
term,4
acquisition,12
fallen!,2
accords,2
business,2
withdrawing,1
possible,5
right,86
partly,6
enough!,1
constrained,1
returning,2
repelled,1
under,20
desert,2
did,74
quarter,4
proposing,2
die,4
rigor,1
repealed,6
quantities,1
believing,1
$1,1
$2,1
divisions,1
$3,1
fears,1
$4,1
$5,3
later,6
$7,1
$8,1
$9,2
considerate,1
forgotten,2
midst,2
evils,1
possibly,2
impair,1
emancipation,14
parcel,2
directness,1
test,2
finally,16
remained,4
enforcement,1
thereafter,2
louisiana,6
conviction,2
brown,4
publicly,2
inventive,2
acceptance,1
embraced,1
final,6
expiration,1
occasion,2
bred,2
virtual,2
loan,1
embraces,1
unorganized,4
overwhelmed,1
back,20
favorers,1
training,2
expectation,2
resisting,2
states,98
duration,1
declamation,1
ferry,1
president!,1
company,4
loaf,2
thomas,2
applaud,1
madison,1
length,6
concerns,4
grand,2
schedule,2
insurgent,1
emancipating,2
grant,3
showing,8
&c,4
qualified,2
armies,2
helping,2
bureaus,1
underlings,2
attempt,6
balance,2
text,2
fools,2
renounced,1
dearly,1
kindness,1
lying,2
exceeded,1
framing,2
made,44
being,26
audited,1
yielded,6
menace,2
aggravated,2
invalid,1
macy,1
dog,1
status,2
brig,1
silenced,1
trading,2
us!,2
don,1
operates,2
portugal,1
operated,2
baldwin,4
partizan,4
scattered,1
government,72
known,10
stream,1
condemnation,3
crime,2
stand,18
surround,1
knows,1
acquaintances,2
characterized,2
forward,4
lacks,1
specimens,2
cultivation,2
300,1
pendency,1
deriving,2
304,1
inexpedient,1
pampered,1
warlike,2
selfishly,1
repealing,4
mail,1
use,10
subject,24
main,6
sadness,1
arrangement,2
revenue,2
esteemed,1
314,1
negotiation,1
continuous,1
316,1
pretense,2
credit,1
alter,2
waste,1
cheerfully,2
recanted,1
bearing,1
dry,1
includes,2
establishment,4
embroil,1
weights,1
homesteads,1
creditable,1
originate,1
323,1
null,2
324,1
compass,2
montgomery,1
deputies,1
329,2
salvador,1
fidelity,1
commended,1
331,1
uncommon,2
333,1
reckless,2
339,1
threats,2
transformed,2
suppressed,2
make,44
included,2
hostilities,2
attempting,2
opposed,4
questioned,1
combated,1
rapidly,8
stake,2
342,1
avowal,1
witness,2
wilmot,14
freeing,2
due,4
adaptations,1
conform,1
349,1
threat,2
taunt,6
invention,2
bowie,2
inform,2
avowed,4
06,1
07,2
commit,1
08,1
09,1
cure,1
observed,1
presidency,4
bank,3
oppressed,4
meaning,4
brow,2
divulge,1
expended,1
beneficent,2
10,2
11,1
12,2
13,1
august,2
16,1
17,1
18,1
19,2
execute,1
benefit,1
361,1
labor,2
364,1
368,1
highest,2
sober,2
volumes),1
male,2
20,1
21,2
22,2
23,1
25,2
seizure,1
26,1
examine,1
27,1
participated,1
29,1
latitude,4
industry,1
long,28
remember,4
1st,2
379,1
misrepresentations,1
examined,2
relationship,1
30,2
31,1
32,2
33,1
34,1
35,2
36,2
wolf,2
many,16
sectionalism,2
383,1
stay,2
384,2
controlled,1
dedicate,2
extensive,2
increasing,2
beginners,1
progress,2
40,1
respected,4
42,2
seeks,2
devote,1
45,1
46,1
treat,4
47,1
starving,2
militia,2
wholly,4
49,1
odious,1
refunding,1
rapid,2
numbers,4
seven,4
expressing,1
394,1
396,2
3d,1
397,1
tread,2
stationary,1
sever,2
dynasty,3
bark,2
50,16
51,2
bare,1
52,2
55,2
admitted,16
56,1
surprise,2
57,1
58,1
59,1
seeds,1
complaints,1
invited,1
bridges,2
look,1
modification,2
dense,1
grounds,1
bevalid,1
60,1
61,1
62,1
63,1
64,1
65,2
farewell,1
69,1
needed,8
invoking,1
mass,4
lord,1
recording,1
jurisprudence,1
muzzle,2
speed,2
admit,6
common,6
interest,4
themselves,20
71,2
73,1
75,1
76,1
77,1
78,1
79,2
apply,4
steamer,1
politician,2
mary,1
gratifying,1
separated,2
foreseen,1
landing,1
disloyal,1
disagree,2
80,1
81,1
formula,1
step,2
revolt,2
83,1
84,1
mark,2
86,2
87,22
base,2
89,1
subordinate,1
loss,1
lost,2
repudiate,1
premises,2
90,1
92,1
trifling,2
mouth!let,2
capitalists,1
95,1
preliminary,1
controlling,2
96,1
97,2
98,1
99,1
van,2
worn,2
work,6
lose,1
brown!!,1
cattle,6
providence,1
convince,2
irritating,1
terminate,2
word,6
stated,6
theory,1
love,4
extension,32
021810,1
secret,1
foundation,4
unwise,1
across,2
identity,1
ear,1
eat,2
inaugurate,1
europe,4
solitude,2
prevailed,4
hertofore,1
disagreement,2
disagreeable,2
degenerate,1
opinion,2
insisting,2
soldier,2
devotion,2
regulations,1
exists,10
majorities,1
stir,1
indian,2
hospitals,2
existence,4
cuttings,1
expressive,2
representatives:another,1
exaggerate,1
spell,4
exploration,1
vet,1
paymaster,1
treasonable,2
disappearance,1
revision,1
preparing,1
provision,30
assaulted,1
thrust,6
seems,4
honored,1
scientific,1
winter,1
insure,1
platform,1
jackson,4
extinct,4
entrapped,2
unrepealed,1
grave,4
arsenals,1
advantage,12
stephen,2
instead,2
embolden,2
anticipate,2
slightest,2
exception,2
temporary,2
hands,12
year,12
sufficiently,2
allowed,2
yeas,4
branch,1
themes,2
emergencies,2
foreshadowings,1
awaiting,1
absent,2
empire,2
surveying,1
understanding,8
near,6
silence,2
agrees,2
inviting,2
instruct,1
viz,1
economy,1
inspired,2
community,1
3411880,1
minnesota,10
stop,2
inspires,2
prudence,2
consented,2
appropriate,1
usefulness,1
least,8
browns,1
resignation,1
immediately,2
subsequently,1
cede,2
representatives:having,1
antietam,2
orphans,2
proffered,1
fulfilment,2
agreed,1
fostering,2
unfriendly,1
learn,1
were:,1
excepting,3
cruising,1
logical,2
characterize,1
nebr,1
severe,1
specie,2
notes,6
evidence,2
remodeled,1
official,2
ohio,12
spring,2
leave,10
excluding,4
eulogy,6
shred,1
imperfectly,2
deported,1
minister,2
need,2
vexed,2
often,2
newspapers,2
obtaining,1
yedo,1
kindly,2
tests,1
[not,2
canada,2
loose,2
hardly,2
useful,1
lasting,1
liberally,1
private,1
these:first,2
precisely,18
calamity,1
intentionally,1
forts,4
end,8
bullet,2
lines,2
fails,1
vow,1
forty,6
special,1
noted,1
taunted,2
contempt,2
achieved,2
calmness,1
pronounce,2
happens,4
occupation,1
education,8
called,8
springs,1
charter,2
occurs,2
liberate,2
turns,2
fullest,1
newly,4
gradually,4
tried,2
deepest,1
siamese,2
outbreak,1
succeeding,4
narrow,2
brave,1
proceedings,1
splitting,2
shape,4
seventy,6
momentous,1
specify,1
allegiance,1
forth,2
nicaragua,1
unintended,1
africans,1
400,1
compose,1
seventh,1
405,1
graves,1
407,1
weapons,2
authors,2
prussia,2
ravages,1
accusations,1
isles,1
valid,8
asked,10
era,4
rights,12
415,1
administer,1
ere,1
share,6
417,1
elegant,2
thoroughly,2
belabored,1
plighted,1
sharp,1
421,1
species,2
427,1
strongest,1
flies,2
cent,2
metals,1
mexican,2
naked,8
trial,1
430,1
finest,2
undertake,2
declares,2
433,2
unexecuted,1
controllers,2
438,1
doctrines,2
ancestors,2
says:“we,2
turks,2
canals,1
subjected,1
below,2
towit:``that,1
voltaire,2
intimately,1
surviving,1
shall,86
revolts,1
driving,1
impending,1
443,1
rigorous,1
tribe,1
races,2
remedied,1
446,1
448,1
therefor,1
financial,1
ferocity,1
scheldt,1
cinnabar,1
promulgated,1
running,6
453,1
456,2
overflowed,1
america:a,1
harder,1
unprofitable,1
render,2
republics,1
declared,8
rates,1
armored,2
relieve,4
progressing,2
adjacent,2
rolls,3
460,1
462,1
martin,1
borrowing,2
emigrated,2
forms,2
maintain,1
undeveloped,1
farther,10
establishing,4
470,2
companies,1
476,1
differently,2
represented,1
conclusive,4
remain,2
expected,2
anticipations,1
countries,12
severing,1
481,1
eye,2
argues,2
485,1
himself,20
489,1
liberating,1
springfield,2
continent,2
disturbance,1
argued,4
another,34
simultaneous,1
guarantee,1
enemy,2
disinfected,1
namesthat,2
nobly,1
behemoth,2
triumph,2
ratification,4
black,8
liberation,2
disregarding,1
nest,1
plighting,1
fortunate,2
such,56
retract,1
livery,2
sarcasm,2
countenance,4
penalties,2
florida,2
navigable,1
administration,6
remains,2
arriving,2
recapture,1
clemency,1
features,2
provost,1
incomplete,2
white,44
openly,2
sounded,2
apostrophised,2
huge,1
menacing,1
hugh,1
recurs,1
seeming,1
termination,1
might,8
aptest,1
improving,1
servants,4
8721900,1
eradicate,2
leads,1
embarrassing,1
patriotism,4
fields,2
next,12
furnishing,1
submit,2
occupy,1
wringing,1
classes,4
conclusion,1
durable,2
doubtless,2
habeas,2
central,1
impose,1
memorial,1
derived,2
news,2
canonized,2
race,8
effectively,1
was,250
war,12
derives,1
grew,2
way,20
realization,2
wax,2
bolivia,1
african,14
attempted,4
play,2
disciplined,1
pardons,2
fought,2
foes,2
taxes,1
decide,10
unchangeable,1
pleases,8
insurrection,1
issues,1
unkept,1
instruments,2
unaccountable,2
far,28
stuck,4
taxed,4
issued,1
entrapping,2
plan,1
unchangeably,1
petting,1
double,6
comprising,2
instituted,2
rendering,1
lowest,1
prizes,1
indorsements,1
tranquility,2
suit,2
rested,1
dividing,8
denial,2
study,1
portion,6
differences,1
gain,1
burned,2
receiving,2
relieves,1
web,2
memories,2
older,1
relieved,1
pirates,1
wen,2
climate,6
peaceably,1
great,60
northward,1
proceeded,1
discoveries,2
pleased,1
rage,2
sides,4
bounties,3
indebted,1
organizing,2
statistics,2
distinction,2
arrest,2
section,4
retirement,2
malignant,2
originated,6
discounts,1
provoke,2
presented,2
omitting,1
few,28
framers,1
sunk,1
paraphrases,2
opened,2
plea,1
exceptions,1
“necessity,2
produced,2
baptized,2
personally,2
outside,1
effect,12
hung,6
produces,1
provisions:no,1
sugar,1
perceive,4
sums,1
embarrass,1
who,86
option,2
politics,1
unexpected,1
contribute,1
why,52
faith,16
remark,6
died,1
microscope,2
candidate,2
intelligible,2
david,2
win,1
lawyer,1
wit,1
bolivar,2
diminish,1
availed,1
recommended,2
conventions),1
oyster,2
matters,4
variance,1
various,2
administrative,1
posterity,1
traitorous,1
attention,4
visit,2
denied,4
reduction,1
extent,10
parent,2
voted,16
appointing,1
indorse,1
losing,1
fit,6
fix,1
honest,4
pension,2
rank,1
assumption,2
trembled,2
whigs,6
negroes,26
preparatory,1
nullification,6
addition,2
doubts,1
sure,4
grow,1
aggressions,2
excited,1
shrink,1
supremacy,2
ah,2
locality,1
proceeding,2
am,30
an,80
dreaded,1
former,12
extend,16
punctually,1
eventful,2
as,386
at,100
unanimously,2
intermediate,1
depopulated,1
looking,2
simultaneously,2
formed,10
hurt,2
be,260
prove,6
cherished,2
stares,2
systems,6
sudden,2
paraguay,1
by,186
abandonment,1
tumbled,1
foot,2
wills,2
enabling,2
charge,2
keeping,2
familiar,2
unsecured,1
co,2
fly,4
votes,6
voter,4
freely,4
acquisitions,6
perceiving,2
expenditure,1
congress:,1
11th,1
admits,2
commanders,2
sympathised,2
(perhaps,2
language,10
congenial,1
do,104
woe,3
painfully,1
dr,1
furnish,1
accomplished,1
corroboration,2
woo,1
rare,2
won,2
strictness,1
preceded,2
criticism,2
slaveholding,1
which,138
needs,2
expelled,4
favored,1
profound,2
affirm,1
never,50
piece,5
blockading,1
amending,1
tears,4
unmistakable,2
for,246
watching,2
content,2
jefferson,6
perhaps,18
rate,4
plot,3
depots,1
prosperity,8
divide,1
contrary,12
contend,4
covert,4
mistresses,1
governors,2
thence,2
go,64
benighted,2
accumulations,1
justly,2
form,8
500,1
504,1
505,1
fort,24
renew,4
he,148
509,1
withdraw,1
placed,6
welfare,1
divine,1
capricious,1
foul,1
appeared,1
510,1
511,1
else,2
four,6
lecompton,2
contemplate,1
514,2
easily,6
insomuch,1
decease,1
517,1
if,160
likely,6
disputed,1
unbroken,1
in,756
maturity,2
audacity,1
is,514
impartiality,1
it,676
petitions,1
somebody,1
announce,1
520,1
halting,2
contrast,2
gave,10
alteration,2
528,1
place),1
affinity,2
become,16
lawful,1
$11,2
$12,2
$13,1
$14,1
eagerness,1
majestic,2
occurrence,1
grades,1
$18,2
disposal,2
settlement,14
recede,1
532,1
bosses,1
sending,2
customary,2
538,1
ability,2
belief,1
delight,1
immigration,1
reclaimed,2
$23,1
$24,1
suggestion,2
knew,2
$27,1
sullen,2
places,6
disposition,2
troublesome,2
546,1
undistinguished,2
equals,6
549,1
misunderstood,1
conscious,2
accomplishment,1
impeded,1
obliterated,2
pursuant,1
$37,1
political,12
while,30
second,8
laudable,1
that,548
suggests,2
551,1
faster,1
than,86
sufficient,2
557,1
me,62
558,2
limit,2
communication,1
gouverneur,1
abstaining,1
$42,1
contest,2
mr,8
alabama,4
author,8
$47,1
possessed,4
adjudications,1
$49,1
feeling,8
my,42
stipulated,1
flowing,1
expansion,1
license,1
fiscal,3
567,2
orleans,2
noble,6
569,1
prediction,1
$50,1
no,152
immortality,2
$53,1
chambers,2
careful,2
seal,1
mixed,2
elapsed,1
head,6
misunderstanding,1
578,1
of,1500
imported,1
oh,2
capacities,1
somehow,1
occupied,2
hear,2
on,88
$63,1
or,156
batteries,1
$69,1
tendencies,2
families,1
intelligent,2
581,2
584,1
588,1
easier,1
nation,24
readily,2
adaptation,4
registered,1
wrest,2
determination,2
discipline,1
falsehood,1
stretching,1
receivability,1
extremely,1
proclamation,1
tongues,2
599,1
adversaries,3
insensibly,1
recent,2
chopping,4
they,270
suspension,1
$84,1
inevitable,1
$85,1
$86,1
consciousness,2
bagatelle,2
them,146
then,72
seat,8
seas,1
re,6
adopt,6
attorney,1
oppose,8
obtained,2
$96,1
discovered,2
$98,1
crawls,2
scrip,1
executed,1
seek,2
seen,6
seem,6
fourths,3
compelled,1
bassett,1
estoppel,1
mclean,1
compensation:,1
so,120
pierce,1
apart,2
st,2
necessary,2
squadrons,1
decision,1
righteous,1
souls,2
started,1
closes,1
single,2
scourge,1
closed,2
consequent,1
to,1016
vindicated,1
commercial,2
joint,1
separate,2
reasonable,2
phillips,2
generations,2
endangered,2
sighted,2
nebraska,136
rules,4
ruler,1
insignificance,1
compensating,2
embracing,1
military,2
up,36
hides,2
us,116
waters,4
usual,1
purchaser,1
lie”,2
this,346
enrolling,1
reasonably,1
anarchy,3
union:,2
thin,1
remarkable,2
“slave”,2
recess,2
mifflin,1
purchased,8
know,32
suggesting,1
frightened,1
changed,2
ingenious,2
changes,1
perpetuate,2
gag,2
we,212
willingly,1
union!,2
wm,1
gap,1
destitute,1
examination,1
disposed,2
watery,2
previous,2
securing,2
reading,2
argue,10
insubordination,1
vacancies,1
enactments,1
planting,2
compensation,2
deeper,4
acknowledgment,1
localities,2
held,18
population1870,1
fruitful,2
courts,2
troops,6
beyond,8
april,2
terms,10
deeply,2
proof,4
intricacy,1
phase,1
surrounding,1
passeth,1
atrocities,2
contract,3
oaths,1
veracity,1
conclude,2
elections,4
susceptible,1
provisions,10
assail,2
revolutionary,4
fabric,2
exact,2
force,4
ascertaining,2
surrounded,1
confounded,2
south,72
north,78
tools,1
“great,2
eminence,2
gen,2
get,10
continues,4
resembling,2
course,14
power,14
rivers,1
pleasantly,1
precious,1
yielding,2
sell,6
continued,8
quelled,2
suspect,2
abide,4
thos,1
indiscriminately,1
help,8
forcing,1
mingle,2
ended,1
self,48
located,2
dress,2
addresses,1
depot,1
hemmed,2
sound,4
obliged,2
harbor,2
sales,1
costa,2
barrier,1
inadmissible,1
create,1
criminal,2
kaskaskia,2
proud,2
depended,2
judged,1
sent,2
addressed,1
carolinian,2
purposes,1
interposition,2
quasi,2
send,4
judges,1
inconsiderable,1
expenses,1
here,20
necessities,2
rejected,2
purpose,8
regret,2
scale,2
engaging,2
security,3
observations,1
station,4
feeble,2
snaky,2
continual,1
25th,1
stating,2
firmess,1
confidently,1
follow,6
revenues,2
parishes,1
intent,1
magical,1
obliges,1
treaty,10
intend,4
satisfactorily,2
exceeding,1
introduces,2
numerous,4
teeming,2
recognized,2
without,52
involuntary,1
youth,2
superceded,2
berkley,1
twins,2
introduced,4
sovereignty,3
authorize,6
whatsoever,1
captors,2
thus,40
possess,1
volunteers,1
devise,1
reimbursed,1
replies,1
recognizes,1
much,24
entitled,2
only:,1
chapter,2
12th,2
contemporaneous,2
rejecting,1
defence,1
anybody,2
masters,4
colonization,6
problematical,2
deceitful,2
lights,2
resolved,2
committed,1
intrusted,1
union,78
omissions,1
subtle,1
strangled,2
illustration,1
pitchfork,2
returned,2
god,12
yours,1
adopted,8
novel,1
prominence,1
standard,2
reports,1
correct,1
reader,2
sworn,1
got,28
institution,24
possessions,1
equaled,1
ambition,1
avert,1
contributed,2
area,2
insinuations,2
european,1
remunerative,1
campbell,1
lack,2
governmental,2
neglected,1
success,1
600,1
ingenuity,2
authority,12
remarked,2
extinguishing,1
instituting,1
606,1
cleared,1
young,2
eloquence,10
inexhaustible,1
610,1
marginal,2
614,1
615,1
reputed,1
616,1
617,1
sustaining,2
departed,4
negotiations,1
armistice,1
laborers,1
taint,1
redemption,2
complaint,1
purposely,1
named,1
injustice,2
hooted,2
foreigners,4
disabling,1
offense,2
indifference,4
considered,4
averaging,1
channel,3
inception,2
delivered,1
favorable,1
entire,2
changing,1
approach,1
630,2
decisive,1
635,2
638,1
write,2
portsmouth,1
suffocation,2
loyalty,2
understand,6
disrespect,1
groping,1
suspended,3
heaven,1
intelligence,1
vigorously,1
640,1
unhappy,2
injuriously,1
reclaiming,2
642,1
million,4
captivating,2
643,2
strongly,2
644,1
645,1
manifested,1
646,1
647,1
648,1
appearing,1
despair,2
bull,2
champion,4
favorably,1
parcels,1
larger,4
gun,1
hundred,14
circuit,1
gur,1
vitally,4
magnificent,1
chords,1
restrict,1
instant,1
mason,1
652,1
native,4
legislate,1
656,1
hitherto,1
tempted,2
handkerchief,2
accordingly,2
laid,1
consequence,2
particularly,6
contending,2
discussed,3
lain,2
jostle,1
bayonet,2
pacific,2
inconsistent,2
writ,3
names,2
framework,1
fortyeight,1
almost,2
equally,12
elevating,2
equipping,1
sustained,1
671,1
“moral,2
stricken,1
674,2
detract,1
ferry!,1
earlier,2
charity,1
whether,46
677,1
679,2
counting,1
void,2
dispense,1
liability,1
4th,2
chiefest,1
basis,2
affected,2
680,1
resolute,2
army,6
682,1
reconcile,1
683,1
annum,2
685,1
contentions,1
“wilmot,4
arms,1
october,1
virginia,10
governor,1
savannah),1
replied,6
bearded,2
manifestly,4
restoring,2
690,1
692,1
adjudication,1
sacrificed,1
pursue,1
tier,1
land,2
importation,2
murfreesboro,2
sacrifices,2
elevation,2
imposing,1
burn,2
“sacred,6
performing,1
doubtful,1
conduct,4
wrested,1
wall,1
walk,1
extending,6
refusing,2
ardently,2
discussion,2
bibles,2
lessen,1
hinted,1
lesser,1
alleghanies,1
arrangements,1
thinks,2
welcome,1
events,2
criticising,2
mankind,2
separately,2
abundant,1
sympathisers,2
want,4
herewith,2
unnecessarily,1
gunpowder,1
rifles,1
`one,2
deserts,1
induce,2
difference,10
must,28
circle,4
discarded,2
reside,1
crops,1
chase,2
colors,1
sabine,1
found,12
overreach,1
defense,2
currency,2
canal,1
clenched,2
arts,1
limits,12
cruelty,1
intimate,2
politicians,2
realized!,2
entirely,12
entrust,4
religion,2
extensively,1
till,2
buys,2
attend,1
antagonism,2
unexhausted,1
voting,22
had,118
forsaken,1
secure,2
guided,1
guides,1
late,2
school,2
preserved,2
proclaimed,1
things,6
immense,1
has,100
sameness,1
advantageous,1
tendering,2
last,14
definite,2
adapt,1
wash,6
weight,2
measure,26
checks,1
harrison,2
lash,1
wars,1
mathematically,1
injurious,1
unmade,1
impossible,2
effort,6
settling,2
yesterday,1
squabble,2
weapon,1
forbade,9
stronger,1
ends,1
denying,1
steady,2
vote,26
early,2
commissioners,1
disease,1
free”,4
temerity,2
yet,18
reserving,1
engineer,1
insurgents,1
wages,1
alike,4
inasmuch,4
time,30
applications,1
dominions,1
aroused,2
happy,6
aggravation,2
governments,6
her,34
abrogating,1
authorized,2
sumter,12
deprive,2
slaves,84
having,16
laws,26
russian,1
authorizes,1
slaver,1
plowing,2
lesson,2
supreme,2
kansas,12
philosophy,2
thing!,2
forestall,2
passenger,2
corporal,2
niche,3
fearlessly,1
adams,2
consecrated,1
merits,2
confirmed,1
concurring,1
accomac,1
ways,6
impropriety,1
grasping,2
efficient,2
chair,2
consistent,2
reverse,2
sword,1
earnings,1
waging,2
governed,6
small,10
omnipotence,1
gallant,2
hid,2
shamed,2
before,36
again:,1
figuratively,1
him,80
his,86
emphasis,1
beat,2
sobriquet,2
bear,2
twentysecond,1
repeatedly,2
logically,1
resist,6
pleaded,2
history,18
instinctively,2
grossly,2
stimulate,1
square,5
twice,4
camps,1
conjuncture,1
interference,1
belonged,4
colony,1
nicholasville,1
allusion,2
point,14
diverted,1
sounds,2
evanescent,2
devolved,1
banned,2
reestablished,1
deserve,2
restore,8
hereafter,2
solicited,1
reproached,2
fugitive,12
alternative,1
morally,1
debts,2
mean,6
nominated,1
suggestions,1
throbbings,2
attendance,1
drafted,1
settlements,4
monstrous,2
been,58
cordiality,2
advance,2
mothers,2
appreciate,2
foregoing,2
strict,2
you,120
safely,6
limitations,1
opportunity,1
active,1
court,2
subsidiary,2
disregarded,2
deals,2
dealt,1
councils,4
hog,4
inauguration),1
hon,2
shiver,2
unsafe,1
hot,2
secede,4
interior,1
“the,6
thereto,1
how,28
parental,1
subjects,10
inaugural,1
march,4
cargoes,1
blast,1
repel,2
advantages,1
meet,8
regarded,2
answer,20
calls,1
timidity,2
700,1
restored,4
bolder,2
705,1
passions,2
709,1
putting,2
domingo,1
sometimes,2
questions,6
corpus,2
promise,2
blockade,2
710,1
reckoning,1
712,1
reply,10
simplifying,1
richard,2
enactment,2
pickens,4
prerequisite,1
count,6
orleans),1
thereof,2
722,1
blame,4
confusion,2
729,1
carrying,4
affording,1
blank,2
beginning,6
astounded,2
thereon,1
swallowed,2
deceived,2
733,1
exposed,1
unfinished,1
annexed,2
739,1
notice,2
superintendency,2
bloody,2
grants,1
hallow,1
asia,1
augmenting,1
colonists,1
killed,1
harbored,1
740,1
generality,1
although,4
741,1
encouragement,1
744,1
president,6
relinquishment,1
therein,6
dropped,2
america,2
750,1
pertains,1
”for,2
bend,1
action,12
surpassed,2
759,1
oration,2
accompanies,2
bounty,1
sensitive,1
reenforced,1
bell,2
procuring,1
accompanied,1
762,1
afford,2
hypocrites,2
reached,1
767,1
impression,2
trade!another,2
acting,2
ably,1
enforcing,3
inference,1
diligently,1
trailed,2
deliver,1
headed,1
whereupon,1
notify,2
products,2
eight,4
invocations,1
770,1
outlaws,1
771,1
773,1
sensibility,2
776,1
778,1
periods,4
guaranty,2
hatteras,1
abstracts,1
could,66
topics,1
bent,4
5th,1
torch,2
defining,2
disunionist,2
withhold,1
presumptuous,1
trusted,2
786,1
787,1
affixed,1
able,2
788,1
789,1
cheaper,1
undeniable,2
concerned,2
hereinbefore,1
british,2
embitter,2
dead!,4
790,1
791,1
793,1
795,1
796,2
solution,1
mourns,2
inducing,2
accelerate,1
international,5
designating,1
calculated,2
flagrant,1
citizen,2
confiscate,2
cities,1
sooner,6
accepts,1
difficult,4
canonical,2
steps,1
existence),1
friends,16
undergone,1
forget,4
northampton,1
principles,14
hanover,2
designation,1
present,16
softly,1
strife,2
wavered,2
belong,2
borders,2
best,16
movements,1
transform,2
magnitude,1
provisioning,1
regulating,2
genuine,2
certainly,1
pacificator”,2
impressive,1
pretended,2
shocked,2
master,2
negro,20
concerning,2
dockyards,1
conventional,1
regulation,1
mere,10
accommodation,1
opinions,10
electors,4
james[,1
purported,2
profess,1
originality,2
frauds,1
cover,1
quoted,2
reflect,1
massacre,2
extort,1
dissolved,2
based,2
maintainance,4
something,8
intention,8
pointed,1
thereby,12
impulse,2
3351930,1
“it,2
concur,2
“if,8
nevertheless,4
fact,38
respectable,2
fundamental,2
undenied,2
unmindful,1
deliberation,1
pieces,1
upheld,1
christian,1
particulars,1
free,102
respectably,2
equality,6
rebellion,8
intervening,1
weary,1
thorough,2
actually,6
face,2
congratulation,1
oldest,2
cessation,1
showed,2
convened,1
household,2
invite,3
“go,2
58this,1
ratio,6
tenons,1
habitual,1
legation,1
refugees,2
instinct,1
independence,20
honors,4
melancholy,1
presentation,1
afforded,1
whenever,4
seceding,2
molding,1
ruin,1
commands,1
“no,2
keeper,2
please,2
finding,4
thrice,2
enlarging,2
elected,1
laboratory,1
judging,1
vital,4
convulsion,1
rule,10
condemn,2
canvass,1
decrees,1
resentment,1
expired,1
impressing,1
committals,1
gulf,1
poet,2
inferior,2
inciding,2
refuge,1
certainty,2
groundless,1
commend,2
indeed,12
deficiency,3
imaginary,1
professed,1
removal,2
railroads,1
rinciple,1
guns,1
diffused,1
comparatively,2
discussions,1
binding,1
fair,4
tolerating,1
preparation,1
compatible,1
politic,2
safety,4
enable,1
untried,1
slavery,238
stipulations,1
naturalizations,1
arise,2
besieged,1
toleration,2
facilitating,1
eminent,1
fail,2
emperor,2
indorsing,1
ascertained,1
refund,1
isolated,1
affectionate,1
privilege,2
foreign,4
fall,2
mysterious,1
decisively,2
boldly,1
carroll,1
exhaustion,2
abstract,1
nice,1
appearance,2
culture,1
insurrectionist,1
hereby,1
forgot,4
mortices,1
first,50
embellishment,2
perfect,4
combating,4
ascribe,1
polk,2
clearly,4
graceful,2
seacoast,1
exhausting,1
descending,1
preferable,1
spite,4
theater,1
from,132
theconstitution,1
resolves,1
bench,2
ill,2
rejection,2
speaker,10
fame,4
coerced,1
aforesaid,2
repair,2
death,10
advice,2
according,2
denounced,1
error,1
stead,1
despotism,2
results:year,1
operations,2
paper,1
soiled,2
winds,2
liberality,1
colored,1
steam,1
idaho,1
value,2
enforced,4
quantity,2
connecticut,2
dynasties,2
rush,4
inducements,1
“to,4
stages,2
aptly,2
growth,2
objects,4
texas,18
impunity,1
resolution,1
properly,1
interruptions,1
poor,6
unanimous,2
unsatisfactory,1
gratified,1
farm,2
department:the,1
invented,2
grief,4
unlikely,1
insurrections,5
enduring,2
excellent,2
fairly,10
unalterably,2
adapted,3
perplexities,1
persons,2
charges,2
advancement,1
800,2
shocks,2
charged,1
is),2
shortly,1
firmly,2
providing,4
fate,2
successors,1
humoredly,2
it!,4
813,2
814,2
close,2
supporters,1
michigan,2
embarrassment,1
oblige,1
proclamations,2
movable,1
fast,2
invasion,2
trials,2
precedent,3
820,1
827,1
citizens,10
nine,2
arrayed,2
concurrence,1
communicate,1
asserting,1
unvexed,2
post,2
agricultural,3
norfolk,1
834,1
835,1
its,94
remedy,1
article,4
respect,4
port,1
841,1
842,3
crooked,1
adjustment,4
846,1
hesitate,2
income,1
united,12
production,1
smallest,2
choose,10
peaceful,2
miles,2
overwhelmingly,1
undo,1
previously,4
strikes,2
democratic,1
bills,4
passu,1
colonel,1
perjury,1
pour,2
improvement,1
unwisely,1
866,1
enterprising,2
pledge,1
867,2
pushed,1
enjoyed,1
avocations,1
``in,2
excepted,2
number,18
870,1
obedience,2
shorten,2
interoceanic,1
876,1
property,4
intermingled,1
delicacy,1
shorter,1
antithesis,2
nothing,34
testing,1
volumes,1
distributed,1
6th,2
repaired,1
urged,4
masses,2
happily,1
885,1
silver,1
partial,2
artisans,1
sundry,1
blessing,2
fathers,10
city,1
confident,2
exclusion,2
local,2
yield,6
promptly,3
assertion,2
decisions,3
ordinance,30
”at,2
filled,1
satisfaction,2
(1864),1
removed,4
powerful,1
cite,1
objected,2
unsoundness,1
movers,1
shed,2
copied,2
precision,1
construing,2
hamilton,1
points,10
absorbed,1
rear,1
reat,1
plausibility,2
modified,2
presume,1
maintained,6
border,2
constructing,1
read,6
touch,1
prompted,2
admission,8
real,8
expatriation,2
differed,2
sacramento,1
slandered,1
resigning,1
coupled,2
collect,1
facilitate,1
adherents,2
telegraph,3
retracted,4
diminished,2
today,2
construction,2
saying,4
universal,10
fifteen,1
radical,1
deliberately,1
looked,4
wrongs,1
“divine,2
application,10
derogation,1
rebels,2
formally,1
reason,10
proviso”,2
intimation,1
ship,4
acts,8
demonstrations,1
annual,1
exclusive,4
occasioned,1
reorganizing,1
using,1
deeds,2
containing,2
mortals,4
completed,1
demand,8
fugitives,4
acquiesce,2
turkey,1
letter,1
hereinafter,1
thunderstruck,2
accuse,1
frequently,4
predecessor,1
aristocracy,1
espouse,2
doubting,2
acquire,6
worth,8
fertile,1
``to,1
taken,6
reenslave,1
takes,4
popular,8
avowedly,1
broken,2
detection,2
millions),1
lacking,1
fitted,2
”it,2
ordnance,1
paterson,1
knell,2
armed,1
foundry,1
assailed,4
bloodshed,2
occasional,1
individuals,6
repeated,2
treacherous,1
challenging,2
either,4
recollection,2
those,38
estimates,1
“all,4
courses,2
watches,2
motives,4
sanguine,1
knives,2
lifted,2
horned,2
worse,1
bounded,1
arbitration,2
bleed,2
difficulty,4
longer,1
gripe,2
senate,18
everywhere,2
gladly,2
parties,20
selling,2
leaving,2
forbearance,1
distance,1
planted,4
unavailing,1
abstain,1
prospects,2
show,10
description,1
cautious,1
disappear,2
augmented,1
situated,2
malicious,1
vigilance,1
arrive,2
street,2
mantle,2
hence,1
pugets,1
seamen,3
elizabeth,1
debauching,1
unto,4
learned,2
substance,6
estimated,2
approbation,4
suddenly,1
[)],1
receipts,8
compensated,2
earnestness,1
perpetuation,2
doomed,2
fancy,1
rebel,1
enslaving,2
largely,2
awakened,2
lexington,2
rend,1
circuits,3
designate,2
crises,2
perpetuating,2
overland,1
28th,1
unrequited,1
rely,1
evaded,1
bounds,2
eradicated,2
purely,1
pasha,1
unthought,2
$109,1
guard,1
settle,4
pressing,1
freedom,10
$100,1
$102,1
mischief,1
tribes,1
contrivances,2
mexico,48
disquiet,1
persevere,1
venerated,2
amicable,1
bonds,2
menaced,1
15th,1
influence,4
1778,1
1777,2
amicably,1
georgia,2
1776,1
responsibilities,1
1774,1
sanctifying,1
wrapped,2
totally,2
$137,1
england,2
$136,1
adam,2
crisis,1
temporarily,2
exceptionally,1
1790,2
obstructed,1
important,2
1789,3
persuasion,2
buffaloes,2
glimpse,2
1787,2
bayonets,1
parting,1
phrase,2
1784,2
menaces,1
exigency,1
job,4
omit,2
erroneous,1
destitution,1
largest,1
captain,1
footing,2
1798,2
1794,2
naturalization,1
miracle,2
sheet,2
destructiveness,1
rest,4
original,8
adherence,2
gets,1
differ,2
emoluments,1
arming,1
investigation,2
900,1
interruption,1
$150,1
$152,1
front,2
905,1
equivalent,6
projects,1
perpetual,3
indorsement,5
offer,2
diplomatic,1
campaigns,1
complex,1
loath,1
911,1
$167,1
918,1
gaining,1
afterwards,10
mates,1
inadequacy,1
astonishing,2
plans,2
plant,2
922,1
drive,2
929,1
readiness,1
admiralty,1
sailor,2
servant,2
offered,1
930,1
civil,2
$181,2
national,18
subsequent,4
indicate,2
937,1
939,1
sixty,4
contain,4
words,2
founded,4
entered,2
instructed,4
tending,2
dissatisfaction,2
difficulties,2
gifted,4
somewhat,6
validity,1
corresponds,1
”this,2
broils,2
developed,1
nearest,2
detention,3
beginner,2
contact,2
excuses,2
prospective,8
disadvantage,2
champions,4
dishonest,2
cereals,1
defenses,1
anxiety,1
adjust,4
963,1
parts,4
reaccept,2
966,1
967,1
helps,2
western,18
party,10
duties,1
however,18
sources,3
relates,1
sierra,1
signs,2
related,1
candid,1
captured,2
pardoned,1
undoubting,2
demerit,2
views,2
lump,2
harper,5
tenderness,1
directed,1
assurances,1
captures,1
false,1
coercion,2
wreath,2
sayings,2
compromise”,2
982,2
984,2
985,1
prompt,1
elaborate,1
crowd,2
counsels,1
candor,2
blacks,8
warrants,3
inactive,1
enjoins,1
995,1
majority,10
join,8
sentence,2
maturely,1
faithfully,2
accents,1
vain,1
assembling,1
ordinary,4
disenthralled,1
attracted,2
forfeitures,1
john,4
narrowed,2
breeding,1
reporters,2
brought,16
works,2
alive,4
proportion,4
pretenses,2
payments,1
pursuit,2
thinking,4
ruthless,2
world,20
composed,2
dissolve,1
prejudice,2
december,4
urgent,1
everything,1
telegraphs,1
italy,1
side,16
bread,1
creditors,2
break,2
expressly,8
willingness,1
indirectly,1
comfort,2
limits),2
respectful,2
pensions,2
century,4
report,4
thunders,2
powers,4
perthshire,1
sigh,2
lament,2
cotton,2
outrage,1
precepts,1
high,6
falls,1
publication,1
expressed,4
directly,6
different,6
administered,1
disruption,1
level,2
adjusted,1
restrictions,1
preserve,4
lever,1
establish,10
inconsiderately,1
proclaim,2
belongs,1
attached,1
morocco,1
oregon,4
overthrown,1
parents,2
predominant,2
afloat,1
preservation,2
total,4
pursued,2
astounding,1
countrymen,2
disrupting,1
ills,2
informs,1
auspicious,1
social,4
interesting,1
cross,1
relying,1
raised,1
control,12
demanding,1
drill,2
acknowledge,4
declined,2
earth,4
reconstruction,3
hereditary,1
overthrow,1
truthful,2
steamships,1
preamble,2
intercourse,2
precept,2
commanding,3
facilitated,1
behalf,1
supposing,2
injure,1
scene,2
lighten,1
hinder,2
hemispheres,2
strengthen,1
injury,1
exhibit,1
inadequate,1
him!,2
ablest,2
subtract,1
teems,1
remaining,14
accept,1
compeers,1
northwestern,5
mystic,1
surrendered,5
access,1
redeemed,1
apprehension,2
:$2,1
referring,2
fancies,1
key,2
surprised,1
silent,1
laying,2
1809,2
1800,2
1808,4
1807,2
1806,2
vast,4
fourth,2
1804,2
1803,4
conspicuously,2
declare,2
dislike,2
available,1
confine,2
1811,2
claiming,4
1810,2
fervently,1
1819,4
debtors,1
1818,2
1816,2
ironclad,1
1815,2
unusual,3
1814,2
extreme,4
1813,2
1812,2
clergyman,2
sink,1
degree,3
1821,2
1820,12
discord,2
especially,2
brazilian,1
once,4
1829,2
counties,2
demonstrate,1
1827,2
1825,2
1824,4
insists,2
rallying,2
surpassingly,2
hire,3
figures,2
pending,1
vivid,2
1832,2
1831,2
1830,1
throughout,2
conflicts,1
unanswerable,1
virtue,1
criticised,1
types,2
mingled,2
transmit,1
commemorate,2
consulate,1
1844,2
1842,2
litigation,1
speedily,1
ones,4
specially,1
famed,4
1849,6
1848,6
1847,2
gentleman,2
compromise,114
1846,2
1845,4
expedite,1
ballots,3
$206,1
reach,2
arbitrament,1
1854,4
1853,6
travelled,2
1852,4
1851,4
1850,16
justify,1
rulers,1
sight,1
teeth,1
timber,1
1859,1
between,22
$200,2
exhibited,2
deprived,2
jeopardy,1
1864,5
1863,2
1862,1
1861,1
expenditures,1
1860,2
seventeen,1
following,2
deprives,2
provoked,1
intestine,2
wear,1
weak,2
impress,1
seeing,1
abolishment,3
assert,4
place,8
lawless,1
regular,2
objection,6
informed,2
dispute,2
$238,1
aggression,1
designedly,1
lead,4
fraction,2
expect,2
gentlemen,1
passage,2
adequate,1
basing,1
york:the,1
aves,1
aver,2
knocking,2
divert,4
plain,6
should,68
only,62
justice,12
unintentional,1
officers,4
individual,4
loans,3
netherlands,1
accepted,2
excitement,1
disloyalty,1
person,1
testimony,1
enforce,1
grudgingly,2
week,1
acknowledged,1
emphatic,1
enjoin,1
paris,1
ready,1
interposed,1
greatest,4
immunities,1
limited,1
fearful,1
played,2
corresponding,2
divest,2
mistaking,2
explosive,1
spoke,6
fifty,4
surgeon,1
intrinsically,4
discourage,1
owners,8
approved,2
would,94
brooklyn,2
customs,1
reproach,4
”,44
incomes,1
successfully,2
impugning,1
meanwhile,2
yourselves,4
endorsed,2
applies,4
size,2
stringency,2
left,14
temper,2
reserved,2
resumption,2
eleven,2
statute,2
object,14
forever!,2
accessible,1
statistical,1
hazzard,2
notable,1
southerners,2
elect,4
example,4
minds,2
quiet,4
policy,10
hushed,6
resigned,1
napoleon,2
address,4
lumped,1
quibbling,2
impassioned,2
emissaries,1
accumulates,1
obeying,1
vocation,1
consisting,1
destroyed,1
throw,4
thank,2
fifth,1
violent,1
confront,1
justifiably,1
bondage,2
reconsideration,1
others,18
making,12
sagacious,2
defection,1
check,2
beset,1
8th,1
deducted,1
mines,2
supposed,2
prodded,1
representatives:again,1
virginian,2
applied,6
indispensable,1
theretofore,2
lent,2
society,14
expanded,1
denmark,1
arranged,1
nowhere,1
anticipation,1
kindest,1
averting,1
patiently,1
enhancing,1
ticket,1
approval,1
well,30
ambitions,1
affirmatively,1
reargument,1
of____for,1
severally,1
experiment,1
loved,4
implication,8
reservation,1
endangering,2
cordial,3
cooperation,1
went,4
considering,1
distant,6
custody,1
cooperating,1
bringing,6
prohibited,10
legislatures,2
deferred,1
conversions,1
successor,1
coated,1
respectively,2
matter,16
irony,2
acquiring,4
neutrality,2
succession,4
product,1
cheap,2
produce,2
justices,1
secession,2
confided,1
undoubtedly,2
constraint,1
communities,2
extravagance,1
capital,2
minor,1
exhibiting,1
hostile,1
fuel,1
straits,1
upon,46
expeditions,1
pray,2
employed,2
platforms,1
identical,1
consular,1
defective,1
west,28
raise,1
quite,16
revere,2
traffic,1
frontiers,1
law,78
comparison,4
lay,4
lest,6
differs,4
less,26
adjoins,4
institutions,4
conflicting,2
successive,4
condition,10
were,78
improve,2
ceremony,2
shining,2
desirous,1
negroes!!”well,2
taxation,1
arizona,1
hastily,2
teaches,2
“necessity”,2
constitutionally,1
generous,1
repressed,1
floor,1
possibility,2
exhibition,1
lengthy,1
distinguished,8
opening,4
chaplains,3
declarations,1
industrial,2
lengths,1
spoken,14
maintenance,1
barbarous,2
gotten,1
legislating,2
lieutenant,1
expedition,3
led,4
lee,6
supply,2
sitana,1
wherein,2
integrity,1
liable,1
let,44
press,2
cargo,1
cares,2
meade,2
regretted,2
night,2
reclamations,1
each,36
complied,1
rendered,2
abhors,1
cordially,1
1900,2
thirty,16
perfectly,2
ardent,4
dominates,2
document,1
killing,1
dollars,8
steamers,1
proving,1
descendants,4
clay,14
promote,1
does,26
rewritten,1
“slave,4
(as,2
situation,2
uninhabited,4
legislation,10
modifying,3
confederation,2
allayed,2
clause,2
tordenskiold,1
refused,2
withdrawal,1
refuses,1
haughty,2
producers,1
1920,1
admitting,2
misrepresent,2
economical,1
coincident,1
1925,1
demanded,10
surely,4
principle,100
lie,4
source,2
unable,3
1930,1
separation,3
homes,2
weakened,2
exorcised,2
acquired,8
involves,1
judgments,1
doubt,10
merit,2
develop,1
employing,1
hearthstone,1
pecuniary,4
involved,1
dominated,1
district,20
imploring,1
fixed,4
whereof,2
philanthropy,2
full,2
away,10
cared,2
scorned,2
[do],1
enhance,1
convention,4
pain,4
appropriately,2
center,2
purchase,10
refusal,2
spares,1
enlarged,1
inaugurated,1
giddings,2
flaunt,1
manage,4
equal,20
wiser,1
buren,2
fund,1
gravity,1
paid,4
lo!,2
surveyors,1
contemplating,1
“person,2
three,8
17th,1
remembered,1
payable,1
sweden,1
whoever,2
suppression,2
season,1
payment,2
bier,2
pale,2
unnoticed,2
threw,2
suppressing,1
piled,1
roads,1
pennsylvania,4
judicial,2
provide,2
primary,2
(if,2
enterprise,1
cometh,1
teaching,2
(in,1
accidental,1
lot,1
aided,1
low,1
angels,2
merely,8
phases,2
contradiction,2
wealth,1
meant,12
means,4
sentinel,1
initial,1
impracticable,1
squatter,3
orphan,1
contemplation,2
eternal,4
redress,1
aught,1
squatted,1
absurdity,2
fellow,2
advancing,2
interests,1
droves,4
door,4
commanded,6
indemnification,1
alliance,1
repudiated,14
improper,1
husband,1
experience,2
muskets,1
commander,1
execration,2
betters,2
controversies,2
checked,1
affair,1
combination,1
obtain,1
minutes,2
sacrifice,2
particular,10
representatives:since,1
done,8
illegal,1
pause,1
perceived,2
ample,1
overrun,1
relied,1
overruled,1
“a,2
part,60
workmen,1
expediency,1
penetrate,2
principal,4
east,6
surest,1
hearers,2
relief,1
amply,2
affirmed,2
(thirty,1
pari,1
seeking,2
”i,4
capitol,2
ears,2
gratitude,1
commissary,1
$394,1
interfere,2
fitting,1
regulated,1
fiery,1
(or,2
asylum,1
bind,1
record,2
conceivable,1
principally,2
chicago,1
accepting,1
preventing,1
pass,4
past,10
mile,2
mourning,1
bill,74
tributary,1
peninsular,1
whose,2
easy,2
mill,1
replenishing,1
lawgiver,1
census,4
domain,1
omitted,4
adopting,2
assigned,1
`the,2
willful,1
relative,1
quartermaster,1
touched,1
wherewith,1
annuity,1
existed,2
adoption,14
harmonize,2
remissions,1
mine,2
mind,6
grateful,2
reverence,1
adjoining,2
involve,2
requisite,1
touches,2
degrading,4
sedition,1
palliation,2
retrograde,2
inflexible,1
inch,4
richest,1
london,1
added,2
emergency,1
displaced,2
down,10
recommendations,3
incumbent,1
affaires,1
brings,4
adding,2
legal,14
boundaries,1
disintegration,1
signal,2
seated,2
reviving,2
varied,1
irritations,2
month,2
precautionary,1
occasions,8
acres,4
vehemently,1
hampshire,1
rather,18
importance,2
worthy,2
title,2
papers,1
aqueduct,1
human,8
custom,1
blessed,2
permission,4
transplanted,2
considerations,1
inconveniences,1
decidedly,1
henry,2
unconditionally,1
arduous,1
faction,1
universe,2
recommends,2
articles,2
exhausted,2
deplorable,2
relish,2
division,4
navigation,2
supplies,1
deems,1
usually,1
whereas,2
seceders,3
letters,1
fear,2
inspection,1
lafayette,1
reintroducing,1
inferences,1
oriental,1
appreciation,1
signed,1
sense,12
removing,2
printed,1
physically,1
field,2
served,1
readopt,1
wilderness,2
opens,1
messages,2
legitimate,1
senators,18
renown,1
tybee,1
liberian,1
skin,2
grievances,1
mention,6
inserted,2
advocated,1
legally,2
propagandism,1
man,88
map,4
leisure,1
twenty,4
contemplated,1
may,58
advocates,2
supplied,1
discarding,2
consolations,1
bless,1
authorizing,1
statutes,2
contemplates,1
feet,2
fees,1
sprung,1
recognition,2
defending,1
feel,4
circulating,2
residence,2
terrible,1
carolina,18
syllable,2
unavoidable,1
apprehensions,1
pressure,1
interrupted,2
becomes,1
feed,1
lists,1
constitution,50
harvests,1
trumbull,1
beneficially,1
breath,6
cheapest,2
men,72
repeat,4
louis,2
are:first,1
physical,2
met,2
“sufficient,2
repeal,78
thenceforward,2
lullaby,4
absorbs,1
speeches,2
exactly,6
constituting,1
dismember,1
structure,2
surveyed,2
constituency,2
circulation,2
contingency,1
deceased,2
depend,1
enters,1
about,30
danger,8
granted,1
character,10
engrosses,1
above,1
stick,1
moderate,1
resident,1
myself,10
beaten,2
received,6
wonderful,2
substantial,4
quality,6
illicit,1
conveys,2
consistently,1
sincere,1
promptitude,1
maternal,2
drugging,1
vigor,2
association,2
believe,16
fell,2
augment,2
into,88
greece,2
glance,4
supports,1
harmonized,2
impudently,1
destruction,8
liquidation,1
dirty,2
middle,2
though,6
plaquemines,1
associates,1
appeal,2
transportation,1
appear,2
definitely,1
holds,2
open,8
$400,1
salvation,2
suffering,1
forced,1
project,4
funded,2
greedy,2
california,12
tobacco,4
formidable,1
reciprocated,1
commending,1
gettysburg,2
uneasiness,1
felt,4
owing,1
bears,2
conquest,2
secures,2
sections,2
effected,2
assurance,2
unanimity,2
surpassing,1
paths,1
forces,2
secured,4
rebuked,4
allow,4
ranges,1
befall,2
proper,4
polls,1
peculiarly,1
bitter,2
palliated,1
jotted,2
ranged,1
formidably,1
lakes,1
performances,1
organic,2
evacuation,1
states:resolved,1
recently,4
overlook,1
exempted,1
renewed,4
sherman,3
money,4
richer,1
transcending,1
forever,6
resided,1
achievement,2
claimed,4
whole,48
revolution,10
relation,6
altercations,1
reliable,1
5261920,1
richly,1
gosport,1
451820,1
obstacle,1
unconstitutional,1
attempts,2
profits,1
still,48
relating,1
resemblance,2
constitute,2
toward,2
constituencies,2
books,1
knowing,2
among,14
indulged,1
confederacy,4
internal,2
deprecate,1
tongue,4
republican,4
enjoy,1
defended,2
greeks,2
negroe,2
ourselves,6
specified,1
slave,134
estimable,1
throwing,2
naturally,2
believes,2
writing,1
federal,3
believed,2
playful,2
academy,1
hitchcock,1
include,1
haste,2
departures,1
destructive,1
altogether,4
bombarded,1
alexander,1
451830,1
hasty,1
cutting,2
ages,1
$474,1
$475,1
voice,2
allen,2
injuries,2
prepared,1
amendments,3
butcher,2
$487,1
divorced,1
discover,2
feud,2
excite,1
capture,1
mysteries,2
failed,4
exigencies,2
appointed,1
estimation,2
revolutionized,4
abolition,6
sinners,1
prescribed,2
prescribes,2
disunionists,1
notified,1
selfishness,2
ultimately,1
controversy,20
inhabit:,1
command,4
swarm,1
detach,1
revised,1
prevailing,1
desperate,2
saved,8
leading,6
(which,2
politically,6
urge,2
saves,1
because,50
educate,1
moving,1
agreement,4
dealing,1
agreeable,2
tendered,1
contains,1
prohibiting,8
selection,3
permits,2
science,1
detain,1
returns,4
detail,1
endowment,2
beware,2
debated,1
occupations,1
eloquent,6
hungry,1
grasses,1
refuse,1
elevated,1
prohibition,10
certified,1
reversing,1
hereunto,1
sweep,2
failures,2
unlimited,1
decreased,2
hand”,2
mechanics,1
onset,2
descent,3
assiduous,1
legality,1
deliverance,2
republic,4
unhesitatingly,1
historical,1
viz:art,1
fitness,2
incorporated,1
mammon,2
discrimination,2
female,2
surrender,6
poised,2
obligatory,2
cruel,2
forbidding,2
wrote,1
originally,2
insist,12
volume,1
energies,1
read:resolved,1
materials,1
perverse,1
outsiders,1
sailing,1
(and,2
defied,2
respecting,1
stretch,1
``all,2
spirited,1
responsible,10
vagrant,1
pieces”,2
rica,2
mistake,4
dakota,1
toil,1
rich,4
chiefly,1
residue,1
loosened,2
significance,2
arises,1
visited,1
sweat,1
detected,1
arisen,4
attacked,1
inconsistency,2
family,2
deliberate,1
swear,1
referred,2
midshipmen,1
called),2
atmosphere,1
right”,2
career,8
told,4
release,2
toll,1
moral,16
brethren,2
judge,60
darkness,2
usefully,1
similar,6
partnership,2
aliens,2
nay,2
foundations,1
ungenerous,1
wives,1
thousands,1
“bloody,2
crossing,1
driven,2
crossed,1
carved,2
tone,2
indicated,1
against,40
industriously,1
manufactures,2
pouring,2
swell,2
remind,2
encourage,1
holders,2
morality,1
honestly,2
tomb,2
cession,2
concessions,2
anchor,2
urgently,1
preceding,4
logic,2
francisco,2
deferring,2
remodeling,1
honor,2
losses,2
whites,10
pages,1
bureau,2
net,1
new,90
took,4
catching,2
positions,2
intervals,1
unimpaired,2
continuance,1
tons,2
heated,1
franklin,2
boundary,22
torn,2
precipitate,1
influenced,1
respective,1
reaching,1
impassable,1
around,4
joyous,2
influences,1
define,1
douglas,32
impliedly,1
egypt,1
manifest,2
it:“the,2
nominations,1
specific,6
engage,1
recantation,1
whisper,1
telegraphic,1
remainder,2
territory,58
amendment,2
developments,2
ring,2
johnson,1
securities,2
professional,2
cheese,2
decided,10
butler,1
fully,6
exchanges,3
liberated,1
mystery,2
slow,1
fantastically,1
supplying,1
liberates,2
mcclellan,2
associations,2
$500,2
iowa,10
meliorate,2
disunion,1
recommend,1
literal,2
permitted,8
supplemental,1
obeyed,2
disabled,1
expectations,1
affliction,1
protested,1
silly,2
palpable,1
lincoln,1
stayed,1
absolute,4
cherokees,1
understood,4
supported,1
resulted,1
no!,1
gentiles,2
documents,1
$529,1
abridged,1
was:first,1
objections,1
sciences,1
reiterate,1
houses,1
sovereign,1
imagine,1
wounds,1
whatever,10
decrease,1
yards,1
destroying,2
flutter,2
ignorance,2
rallies,1
designs,2
hackneyed,1
migrate,1
involving,1
blind,1
bernard,1
color,2
string,1
nearly,14
patting,1
house!,2
non,2
vested,1
nor,10
not,370
now,116
statement,1
lived,1
``there,1
wisconsin,4
delivery,2
thoughts,1
mischievous,1
election,2
breaks,2
asiatic,1
sophistry,2
what,100
refer,2
detailed,2
possessory,2
timely,1
battles,2
risk,1
4151910,1
rise,2
discard,1
charles,2
broods,1
when,90
contested,2
withheld,1
excluded,1
denouncing,1
crush,1
struggling,1
catch,6
stilled,2
treason,1
give,24
practicable,2
lives,2
endures,1
depends,4
dissolution,2
stations,1
contention,6
tribunals,1
explicit,1
propriety,2
invasions,3
ships,1
determined,6
farms,1
pulpits,1
inhabited,1
prevail,1
burdens,1
$570,1
$588,1
sentences,2
direct,6
districts,1
modern,1
regenerated,1
occasionally,2
$583,1
enables,4
$599,1
adjourned,4
914these,1
noteworthy,1
shirk,1
wrong,28
enchanted,2
organization,6
heads,2
certain,10
board,2
widows,2
augments,2
outgrown,1
widow,1
springing,1
heretofore,6
used,4
constantly,4
ruinous,1
earned,1
threaten,2
whig,6
letting,6
otherwise,6
marked,2
visible,2
borne,1
recurring,1
pertaining,1
rutledge,1
pleasing,1
solely,1
market,3
effects,1
keep,20
conventions,2
solemn,1
andre,4
almighty,1
imprisonment,1
deserves,1
endurance,1
necessarily,1
rocky,1
invests,2
farcical,1
alone,6
strive,1
along,4
parallel,1
stipulation,1
designed,1
breach,2
munitions,1
affirms,3
regiment,1
approaches,1
adhering,1
contained,10
uses,2
disproportionate,1
inhabitants,2
diminishing,2
conciliatory,1
bring,10
northeastern,1
871860,1
forbore,2
colonial,1
warfare,1
giant,1
neglect,1
seceded,4
furnishes,2
engineers,2
thirds,1
terms),2
seceder,1
turning,2
peace,18
consideration,2
brother,4
truckee,1
lawfully,4
consequently,6
permanency,1
backers,2
communications,1
search,2
wrote:``i,1
extinction,1
furnished,1
whom,2
relinquish,2
scarcely,6
attainable,1
humanity,6
innovation,1
alternate,1
attainment,1
lasted,2
actor,2
essential,1
parchment,1
presumed,1
thunder,1
stealthy,1
commissioned,1
ceaselessly,2
accounted,1
mistake),2
warning,2
exclude,8
commissioner,2
deduct,1
countervailing,1
manhood,2
carry,12
arose,2
forborne,2
necessity,14
frame,2
mountains,2
recreant,2
origin,8
mistakes,1
pursuits,1
mistaken,3
burden,1
precaution,1
sanction,2
deduce,2
patents,1
trouble,2
class,4
attended,1
spanish,1
disbursed,1
armory,1
kept,8
perpetuity,4
adjournment,2
management,2
counted,4
presents,2
very,48
practice,8
congress,52
canadian,1
delayed,1
perpetuated,1
legislative,2
william,5
vessel,1
embarrassments,1
french,4
armature,1
encouraging,1
dispatched,1
issue,1
literally,2
lower,4
verb,2
dictated,1
resulting,1
odd,4
promotive,1
imperilled,2
dictates,1
acted,2
continuing,1
escaping,1
brooding,2
solicitude,1
barbary,1
vaunted,2
indefinitely,1
rhode,2
settlers,2
delegate,2
peril,4
dependence,2
modifications,2
seemed,6
draw,1
obnoxious,1
misapprehensions,1
off,6
generally,1
disabilities,1
felicitation,1
contended,4
seriousness,2
terminus,1
complete,1
oft,1
compensate,1
dred,10
domination,2
ruling,2
brotherhood,2
marshal,1
claim,4
colonies,2
months,4
dominating,1
follows,2
shuffled,2
chosen,1
daniel,1
expand,1
perchance,2
annexing,2
conservatism,2
magistrate,1
survey,1
coal,1
malice,1
columbus,1
code,1
displace,2
contrabands,1
brightly,2
abundantly,2
concurred,2
preparations,2
considerable,4
oil,2
proposition,4
sympathy,2
cumberland,1
fight,6
brief,1
allows,1
determine,1
anderson,3
considerably,1
voluntarily,1
regiments,2
confer,1
drew,2
disbursement,1
wrought,1
lands,9
amendatory,2
vermont,1
remarks,2
exercised,2
$600,1
dogmatically,2
amounting,1
periodically,1
promised,1
expedient,2
bayou,2
speaking,2
disbursements,7
estimate,6
grabbed,2
promises,2
breaking,4
repurify,2
old,36
settled,8
opponents,6
ancient,6
twelve,2
vocations,2
austria,1
starting,1
scythe,2
$623,1
conservative,2
conference,2
fatally,4
activity,1
inflicting,1
seniors,1
entranced,2
repudiation,2
unsubstantial,1
axioms,2
fresher,2
variety,2
abolitionists,4
disturb,2
george,5
lafourche,1
aiding,2
caution,1
strained,1
mints,1
williamson,1
stormy,1
one,100
shudder,1
connected,4
pull,1
elastic,1
dealer,4
assist,1
attained,1
partially,1
acquiescence,1
storms,2
country,74
taney,1
willing,2
blessings,2
sincerity,2
elicit,1
regularly,1
lick,1
patronized,1
sprang,2
satisfactory,2
details,1
aids,1
treated,2
abolished,6
authoritative,1
nelson,1
suppose,2
extract,2
obscure,2
towns,1
sneaking,2
region,3
support,12
deceive,2
coin,2
universality,1
drop,4
inoperative,2
resolutions,10
cold,1
eccentricities,2
pure,2
life,8
damp,2
expects,1
establishments,1
thronging,1
settler,1
lies,8
lieu,2
$678,1
cases,8
wide,4
fiercely,2
superior,1
premature,1
restitution,1
succeed,2
location,2
proportions,1
forego,1
profitably,1
aptitudes,1
none,1
plagues,2
seizes,2
closing,2
hazard,1
voluntary,1
connection,16
presence,2
seized,5
years),1
wife,1
streams,1
profitable,2
come,32
fortifications,1
push,2
exist,4
utah,30
confessedly,1
ascension,1
examples,2
columbia,14
$690,1
constitutions,6
lift,1
peculiarity,2
irruption,1
conceived,4
slander,2
distribution,1
tanto,2
our,82
out,54
capacity,1
confess,1
dark,1
(the,2
copy,2
precise,4
evidences,2
senatorial,2
dare,1
sensible,2
cool,1
obstinacy,2
puts,2
firmness,1
matured,2
chorus,1
lastly,2
connecting,1
owe,1
insecurity,1
inscrutable,2
throttled,2
date,1
magic,2
blot,2
perverted,1
rightful,4
corn,2
own,52
successes,4
argentine,1
consequences,2
blow,4
sunny,2
development,1
like,14
resource,1
asserted,2
proposes,1
populated,2
branches,4
ending,2
efforts,20
proposed,4
council,4
fraud,2
ground,14
note,1
everybody,2
line,70
penalty,2
hearty,1
recovery,2
beheve,1
hearts,4
affairs,2
cost,4
lima,1
will,126
decennial,2
confidence,2
heresies,2
allowing,8
oath,1
compliance,1
york,1
assured,1
wild,8
functions,1
wastes,1
govern,10
your,14
slower,1
rider,1
these,76
begins,2
protected,1
framed,2
investing,1
behrings,1
neutral,2
lion,2
apparent,2
omaha,1
enlightened,1
southampton,2
beseeching,1
wing,1
revived,2
folly,1
commodity,1
independent,4
concluded,2
ahead,1
achieve,1
alleged,1
tribunal,2
afflicted,2
plausible,2
arrived,1
economically,1
insidious,1
alleges,1
(except,2
borrowed,1
follows:,2
americans,6
speaks,1
unprecedented,2
days,6
echoed,1
governs,10
combined,2
faces,1
disguise,1
imperial,1
recruits,1
liberal,2
discuss,1
undone,2
harmony,1
acceptable,1
specifications,1
wish,22
belonging,1
wise,4
homestead,1
amounts,1
exceed,1
patronage,1
pan,1
monarchy,1
pat,2
vicious,1
pay,4
especial,1
revival,4
brilliantly,1
ventures,1
strange,1
external,1
circumstance,1
treasury,1
vanquished,2
claims,4
preserving,1
permitting,2
chile,2
legislature,10
child,4
withholding,1
outgoing,2
divided,4
instrument,2
medium,1
remove,8
wisdom,1
fatal,1
starvation,1
producing,2
treasure,1
depredations,1
live,6
espoused,1
ventured,1
harbors,1
victory,1
perform,2
colorado,1
occurring,1
with,182
amended,2
china,1
service,4
there,128
``that,1
hopeless,1
clerkship,1
american,10
unpaid,1
affords,1
habitually,2
plied,1
russia,1
repeat:one,1
revive,1
per,2
ceased,4
period,2
africa,16
proceed,2
offenses,3
birth,2
unwelcome,1
ever,46
even,30
penned,1
(two,1
restriction,20
meetings,2
indication,1
assumed,2
memoranda,1
vacancy,4
engaged,1
assumes,2
doubted,2
piracy,4
insurrectionary,1
kinds,1
injured,2
peep,2
modelled,2
imperative,1
violence,2
bought,2
apprehended,1
denounce,2
verge,1
propositions,1
requiring,2
ineffectual,2
attributes,1
dissevered,1
prohibit,6
imposed,1
30th,3
manner,1
descendant,1
servile,1
earthly,2
perils,2
aphorism,2
imposes,1
judgment,6
members,8
(whose,2
mineral,2
stock,2
guarantees,2
sloping,1
suspend,1
terror,2
heroic,1
kings,2
guaranteed,1
senator,16
appropriates,2
evil,8
rarely,2
forthcoming,1
brigades,1
$700,2
rising,2
initiated,1
fruit,2
retaliates,2
cause,6
extorted,1
despise,6
maddening,2
agitated,2
intended,22
design,1
working,2
kindred,2
conformity,1
department,3
transpiring,1
allude,2
machiney,1
chief,8
liberties,2
$714,1
accord,1
kicked,1
satisfying,1
followed,2
despite,1
burning,2
merchandise,2
obey,2
reunion,1
interested,4
formerly,1
vessels,7
$720,1
retraction,6
liberty,14
rufus,3
meeting,2
portions,1
landed,2
displayed,1
bible,1
wickedness,1
began,10
thickly,1
recognize,2
repentance,1
compounded,1
bravely,2
foresaw,2
reality,1
offend,2
actions,1
safeguard,1
diligent,1
objectionable,2
giving,4
facts,12
prize,1
pens,2
inalienable,2
fondly,1
excuse,2
sanctioned,1
sectional,4
escape,1
demonstrating,1
gives,8
colombia,1
latest,2
receive,2
implied,6
surplus,4
correspondence,1
consulting,1
marion,2
dispositions,1
declaration,16
shaping,1
standing,4
mutters,1
prosperous,2
representatives,16
implies,1
feelings,6
withal,2
friendship,1
rightfully,2
juan,2
placing,1
disappointed,1
continue,10
inexcusable,2
abolishing,1
inherent,1
realize,8
offers,1
given,16
pre,2
terrebonne,1
perish,2
$776,1
crimes,1
freed,1
pro,2
casualties,1
exaggerated,2
guilty,1
proximity,1
honduras,1
maritime,3
receipt,1
pursuance,1
asking,2
retires,2
peru,2
yates,2
anything,1
agriculture,2
heavens,2
prudent,1
retired,2
assembled,2
notwithstanding,2
windows,2
inquiry:,1
potomac,2
genius,4
dalliance,2
quotation,2
unquestionably,1
forming,2
shadow,2
striving,2
assassination,1
pur,1
infant,4
continually,2
them:,1
put,2
redressed,1
clayon,2
fluctuations,2
struggle,3
grows,2
meets,1
baptist,2
awhile,1
light,2
apparently,1
attention),1
indomitable,2
valuable,1
conditionally,1
questioning,1
emigrate,1
deportation,1
anomalous,1
grown,1
appropriation,4
henceforth,2
desire,4
touching,2
muddy,2
liberia,2
barren,1
impressively,1
republicanism,2
january,2
permanent,1
organized,2
choice,4
civilization,2
defeated,4
assumptions,1
listen,2
unselfishly,2
major,3
companions,2
abolitionist,4
abolitionism,2
consider,6
eighty,2
gravest,1
ordaining,1
whither,2
gross,2
tact,1
tree,2
reciprocity,1
sailors,1
distrust,1
hurts,2
southward,2
absolutely,6
deserted,2
sustain,2
arbitrarily,1
induces,1
request,2
substitution,1
fitzsimmons,2
their,136
percent,1
thirteen,1
banking,1
general,18
september,1
induced,1
eternity,1
process,2
clear,10
eighth,1
substituting,2
encounter,1
contests,1
governing,2
neither,8
glad,4
domicile,1
hurry,1
account,1
unforeseen,1
mostly,4
undoubted,1
hogs,2
[counsel],1
innocent,2
safer,1
endorsing,2
rally,2
knowledge,2
happen,1
commotions,2
devised,1
loyal,4
july,4
enthusiast,1
venture,4
population,8
atlantic,2
route,1
discern,1
valuation,1
enthusiasm,2
trying,1
millions,12
wisely,2
negotiated,1
comes,4
unwilling,2
trusting,1
soil,1
procured,1
originating,2
dictum,1
hearing,2
emigrants,2
spare,1
committing,1
democrats,2
pistol,1
affirmation,3
appeals,1
june,2
glee,1
series,2
arkansas,10
inclined,6
hold,16
shipwreck,1
correctly,2
designated,1
absurd,4
prior,2
fernandina,1
designates,1
train,2
dedicated,4
commonly,1
rapidity,2
fide,1
granting,2
take,28
obviate,1
comity,1
accompany,2
immediate,1
beneficial,1
relatively,1
adjourning,2
some,64
trifled,2
forbids,2
session,4
additional,6
factious,1
primarily,1
tennessee,2
passed,34
steamship,1
thraldom,4
just,38
sole,4
owner,1
sold,2
restraining,1
remembering,2
eternally,2
tracks,2
strictly,4
home,4
existing,20
postage,1
material,2
owned,22
peculiar,8
iron,2
arguing,2
answers,2
ordinances,1
hope,6
soon,6
norwegian,1
executive,2
sons,1
anticipated,1
unfrequently,1
ridicule,2
protest,1
distinctly,2
heavy,2
machinery,4
“slavery”,2
britain,4
unpleasant,1
conquered,2
robert,1
buchanan,1
incidents,2
member,6
affirmative,1
together,12
actuated,1
kindreds,2
nerved,2
within,42
socially,2
health,1
gathered,1
positive,4
agents,1
corrected,1
prospect,1
clamored,4
evening,1
mustered,1
return,6
instance,6
practically,1
serve,1
accredited,1
acquiesced,1
seats,2
inviolate,1
surrendering,1
fine,2
find,16
delaware,2
therefrom,1
selected,1
sophism,3
progressed,2
illustrate,2
occur,2
drove,2
definitive,1
sort,10
seriously,2
fill,1
heart,4
convenient,2
task,1
infer,2
transit,1
progresses,1
true,20
befell,1
position,4
populous,3
petty,2
since,18
sentiment,4
patent,2
soul,2
abundance,4
dangerous,8
appears,4
troubles,1
effectually,2
hour,2
troubled,2
heard,6
experienced,2
execution,4
discontented,1
processes,1
sought,8
extraordinary,2
evident,2
tracts,1
writer,1
otis,2
merchants,1
coming,6
armament,1
disturbances,1
briefer,2
credible,2
believers,1
firm,6
adventitious,1
ignorant,1
fire,2
richmond,1
dissatisfied,3
dissatisfies,1
enthusiastic,2
undertaken,1
(near,1
except,10
tardiness,2
inflicted,2
foreigner,1
$865,2
prominent,2
aggressors,1
favoring,2
jewel,2
illinois,38
knocked,2
dogmas,2
nominal,2
unless,2
plants,1
excess,1
narrowest,2
operating,2
ought,10
bullets,2
accordance,1
people,100
chesapeake,1
democracy,1
2161890,1
abandon,2
yankees,4
operation,2
$884,1
life!,2
“cancel,2
cannon,2
obligations,2
afterward,2
mainly,2
preponderating,1
secretaries,1
endangers,4
leaves,1
restrain,2
adjusting,1
assassinations,1
five,16
hesitated,2
leaven,1
$895,2
durability,1
collection,1
announced,1
scouted,2
channels,1
owning,1
misapprehension,1
conflict,2
insurrectionists,2
reasons,2
traders,1
father,2
swept,1
commerce,2
assistance,1
ceding,2
denunciation,1
charleston,1
multiplied,2
declaring,6
mastering,2
wants,1
definition,2
every,30
mansion,2
summary,2
akin,2
answered,4
indifferently,1
again,26
evident:,2
indians,2
ratified,2
artificial,1
eschewed,2
cranberry,2
indiana,6
employ,2
swimmingly,2
”now,2
residing,4
desirable,2
during,10
wisest,2
degrees,2
reestablish,1
consist,2
venezuela,1
disadvantages,1
price,4
dependent,2
briefly,1
reduced,2
cherish,1
agree,2
swelling,2
resistance,1
itself,12
discrepancy,1
anyone,1
pride,2
betrayed,2
inhuman,1
embodied,1
favorite,1
hirers,1
spain,4
civilized,1
regions,2
hoped,4
damages,2
negociating,2
requests,1
substitute,2
uniform,2
bountiful,1
moreover,2
causes,4
scatter,1
violate,2
hopes,2
event,4
demonstrated,1
wherever,6
outlying,1
establishes,2
witnesses,2
established,8
witnessed,2
finger,2
railroad,2
inhabit,1
caused,1
reenforcements,1
spake,4
rigidly,1
damaged,1
cannot,12
lawyers,2
fondest,1
abridgement,2
struggled,6
appealed,2
minority,6
shooters,2
space,1
reference,8
dealers”,2
chamber,2
inferred,4
struggles,2
depart,1
arresting,1
squadron,1
demonstrates,2
published,1
representatives:in,1
solicit,1
fostered,1
factions,1
profoundest,1
mails,1
collision,4
covered,2
macedonian,1
intervention,2
tract,4
arrival,2
accommodated,1
frequent,1
statements,1
aggregate,4
jealous,2
holding,2
trace,2
public,14
array,2
track,2
proportionately,1
enslave,2
maine,14
imposts,1
nevada,1
constructed,1
traded,2
unchanged,1
charging,1
trader,2
resources,2
heaviest,1
trade,30
westward,4
performance,2
garrison,5
insisted,1
conferred,1
moneys,2
horses,6
vague,1
disenthrall,1
dayton,1
accuracy,1
building,1
setting,2
score,1
quote,2
quota,1
sorts,1
scaffolding,2
withered,2
ray,1
authorities,1
improbably,1
diversities,2
nationality,1
bondsman,1
endure,1
southern,22
desiring,1
conscientiously,1
essence,1
dollar,2
omnipotent,1
aspect,4
departments,1
scott,10
morris,2
breathed,2
indulgence,1
pathos,2
saint,2
mitigate,3
awarded,2
wit:the,1
langdon,3
oppression,1
desperation,2
calling,2
robber,1
qualities,2
frankness,1
dwindled,1
collateral,4
scout,1
spit,1
ace,2
astonishment,2
misnamed,2
harpers,1
moved,4
betrayal,1
agreeing,2
red,4
act,22
helper,1
helped,1
finish,1
add,1
dreaming,1
ratify,1
silliman,1
amend,1
consent,18
benevolent,2
mutual,4
misery!,2
peacefully,1
therefore,8
exchange,1
washington,22
contiguous,1
trust,4
incendiary,1
universally,2
soldiers,1
follows:year,1
dues,1
prevent,14
appended,1
disturbing,2
sorry,2
happiness,2
scope,1
enumerate,1
expectancy,1
judicious,2
message,1
recorded,2
irritation,2
misconstruction,1
modify,1
truth,6
exempt,1
age,2
shoulders,2
smaller,2
tendency,1
ago,14
overlooked,2
rumors,1
rid,4
years,38
strangely,2
conceded,1
journals,2
guise,1
system,10
spot,2
mighty,2
presenting,1
aid,4
other,76
aim,1
confederate,2
minorities,2
uncle,2
$901,2
retain,2
skilled,2
defeat,2
imaginable,2
steadily,8
speak,2
intermission,2
sacred,30
tender,1
gratulation,1
detaching,1
inhabiting,2
spoiled,1
inauguration,1
grains,1
tended,2
future,12
altercation,1
mississippi,10
royal,1
movement,1
workings,4
impressed,1
implicitly,2
body,2
missouri,140
commenced,2
mode,1
amongst,16
commissions,1
respectability,1
all,170
always,6
$931,1
already,38
conducted,1
applicable,1
expense,1
strangers,1
maintaining,2
clymer,1
alas,2
contemporary,1
territorial,24
postal,5
prayers,1
curtis,1
accession,1
contracts,2
weakness,1
and,898
negatively,1
ann,1
abroad,1
louder,2
guilt,2
honorably,1
wheedling,2
any,122
reverses,1
duly,2
suggested,1
disavowed,1
communicated,1
consists,2
until,4
honorable,1
thought,26
concession,4
accurate,2
taste,2
treaties,2
anywhere,1
chiefs,1
hires,1
construe,1
english,1
demur,2
hired,7
poverty,1
resort,2
devoted,4
nicholas,1
broke,2
apt,2
hosts,2
000,7
territories,32
pathetic,2
grade,1
007,2
tyrants,4
009,1
melioration,1
increased,2
northwest,1
inspiring,1
increases,2
011,2
diversity,1
015,1
varying,1
fruits,2
are,172
018,1
came,32
019,1
captive,4
where,28
arm,2
retard,1
art,2
vice,1
noticed,1
favors,1
administering,1
holder,2
suppress,4
delegates,2
020,1
holden,1
abraham,1
call,6
calm,1
ownership,2
partners,2
ask,18
relations,2
subjugation,1
through,20
uninhabitable,1
becoming,2
strength,2
officer,1
disregard,8
offices,3
run,4
justified,2
pharaoh,2
extinguish,2
view,18
ours,4
neighbors,1
039,2
delegated,1
results,2
dust,2
bold,4
admiral,1
consecrate,1
dares,2
043,1
agitation,14
044,2
046,1
redemptions,1
049,1
name,4
justifies,1
benefits,1
congressional,4
novelty,1
reflections,1
abolish,2
absence,1
approaching,1
book,2
056,1
negative,2
059,1
defend,2
scruples,1
rollick,2
sympathies,4
resting,1
violator,1
introduce,6
bone,6
bond,2
bona,1
radically,1
065,1
discourse,2
thirdly,1
069,1
mouth,4
assuming,2
restricted,2
duty,2
reorganize,1
leader,1
yard,1
dangers,1
republicans,3
deprecated,1
pledged,2
collected,2
jonathan,1
transmitted,1
076,1
amnesty,1
axe,2
077,1
cast,4
anxious,1
broad,2
pledges,1
princess,1
truly,2
greater,2
cash,1
elevate,1
case,18
generation,4
enduringly,2
emigration,4
affections,1
086,2
087,2
saving,12
sticks,4
moon,2
failing,1
care,1
assault,1
tolerated,2
abridgment,1
fulfilled,1
localized,1
exercise,2
094,2
096,2
097,1
seldom,1
glorious,2
lebanon,1
protect,2
officce,1
demon,2
severance,1
reliance,1
more,54
born,2
display,1
kill,1
bore,2
reprieve,2
abideth,1
“that,4
cured,1
reluctantly,1
parted,2
accounts,1
speculating,2
habits,1
navy,7
highwayman,1
caged,1
simple,1
philanthropic,1
labors,2
talent,1
percentage,4
connections,1
negotiate,2
king,4
kind,4
both,36
meanly,1
most,10
(for,2
transfer,1
affection,2
diversion,1
partizans,2
ascertain,2
affecting,1
forbid,6
inspiration,2
wards,1
understands,2
causing,2
consummation,1
reject,2
patient,1
henceforward,1
sad,2
traced,2
delaying,1
mentioned,8
accompanying,2
depressing,1
profit,4
sam,2
san,4
safeguards,1
amount,4
move,4
sat,2
freemen,4
convertible,1
saw,2
earnestly,1
say,66
also,34
enough,22
belgians,1
increase,6
consummating,1
spread,4
timbers,2
educated,1
said:,1
favor,16
organizations,2
latter,14
adhered,2
simply,4
dixon,1
regaining,1
bad,2
gunboat,1
assemblage,1
completing,1
awake,2
extracted,2
ban,2
suffer,1
projector,2
unsay,1
draft,1
blount,1
bay,1
drowned,2
violated,2
disasters,2
personal,2
angry,4
licenced,2
indorsed,2
submitted,2
delay,2
violates,2
globe,2
chemical,1
greatly,4
nays,4
strong,8
deal,2
geographical,6
miscellaneous,1
abuse,2
scheme,2
affect,4
dead,2
onerous,1
ministers,1
sea,2
proves,2
proved,1
see,14
responsibility,1
be:,1
effectual,1
montana,1
dear,2
reiterates,1
omission,4
compared,1
completion,3
set,8
lugged,1
joined,2
biography,2
practices,2
battle,2
vicinity,1
auspices,1
river,8
earnest,2
jealousies,2
hudsons,1
practiced,2
transferred,2
beg,4
deposited,1
labored,1
shipping,2
discharge,1
useless,2
france,12
laborer,3
wavering,1
complain,4
zeal,2
she,12
lessened,1
finances,1
resumed,2
debt,4
little,20
deep,4
humane,1
maryland,2
deem,2
exhibits,2
deed,2
repress,4
unhappily,1
getting,6
jersey,2
supervision,1
await,2
unfair,2
sir,2
over,22
ballot,2
brilliant,1
living,4
six,12
practical,6
bound,4
inimical,1
tatters,2
falter,1
obviously,1
gilman,1
stroke,1
retained,2
hayti,1
implicate,1
avoid,4
uttered,1
fresh,4
comprehensive,1
modes,1
frustrated,2
advanced,1
recommendation,1
invoke,1
nations,1
inclosures,1
thanks,6
improved,2
striking,1
convinced,2
advances,1
model,6
reduce,1
inquire,1
apprized,2
large,8
surface,2
satisfied,2
compromises,20
transactions,1
foresight,1
operate,2
toothless,1
exclusively,2
defy,6
doctrine,4
reconsider,1
begin,4
secondly,1
alluded,2
paragraph,1
professions,1
strove,2
convicted,2
table,1
resisted,4
creator,2
change,10
irrevocably,1
extremes,2
deplored,2
likewise,1
suspicions,1
punishment,2
whereabouts,1
irrevocable,1
discovery,1
facilities,1
improvements,1
waiving,1
theirs,1
constant,1
cursed,2
several,16
mislead,1
office,1
northern,14
posts,1
roger,2
stands,2
proceeds,1
pensioners,6
keepers,2
emperors,1
incoming,1
discretion,1
thrown,2
permanently,1
unfettered,1
clerks,1
deduction,2
enacted,1
behind,2
shades,2
tenth,1
sentiments,2
box,2
mental,1
hostility,2
bow,2
eminently,2
says:,2
1/3,3
auxiliary,1
prices,1
highly,2
unfortunate,6
chance,1
nature,8
proviso,22
hedged,2
100,1
101,1
103,1
awards,1
105,1
convulsions,2
quarrel,1
essentially,1
inland,2
mould,2
murderers,1
reinstate,2
buried,1
county,4
indentured,4
stood,2
pains,1
fighting,2
112,1
eastward,2
encouraged,1
guile,1
117,2
friend,4
drawn,2
calhoun,2
deny,24
closely,1
horribly,2
insinuated,2
pleasure,1
miserable,2
invokes,2
glory,6
horse,1
mission,1
125,2
remorseless,1
noblest,2
129,1
invoked,2
autumn,2
conditions,1
advisable,1
dungeons,1
jogging,2
cooperate,1
overcome,1
sum,2
undisturbed,2
ports,1
neighboring,1
extended,10
131,1
133,1
murderer!,1
134,1
current,1
resorting,1
secretary,2
democrat,2
138,1
gloom,2
plainly,2
preferred,2
offensive,1
storm,2
inconstant,1
orator,2
makes,1
enemies,6
threatened,2
amid,1
sanitary,1
convertibility,2
condemned,1
145,1
unconditional,1
but,208
sincerely,2
buy,10
wished,2
express,22
advocate,1
151,1
152,1
stunned,2
instantly,4
157,1
excesses,2
distinctions,2
fragments,2
wishes,1
written,4
passion,1
exhortation,1
rights!,2
deficiencies,1
161,1
163,1
enhanced,1
167,1
ocean,2
naval,2
alienage,1
horns,2
higher,1
doing,4
brazil,2
idea,4
prisoners,1
fraternal,2
successful,2
gradual,8
figure,2
deliberations,1
weaken,2
stone,2
186,2
migration,2
passing,6
pensacola,1
tested,1
christianity,1
190,1
freedmen,1
191,1
commencement,3
198,1
retiring,1
shrinking,2
children,6
road,2
review,2
massachusetts,2
devolving,1
roar,1
nobody,1
efficiency,1
natural,6
arising,2
consummated,1
conkling,2
inclining,2
substantially,6
laborious,2
bosoms,2
flag,1
sophistical,1
insignificant,2
james,2
range,2
derive,2
disprove,1
feature,1
flat,2
recall,1
occupying,1
sparingly,1
intimated,1
suggest,1
averted,1
cease,2
robe,2
elements,1
argument,54
incipient,2
utter,6
uniformity,1
hopeful,1
dozen,2
privateering,1
growing,2
utterly,2
deciding,2
enlargement,1
tycoon,1
sage,2
conspicuous,2
incursions,1
taylor,2
alarmed,2
goes,4
climes,1
tax,3
towards,2
alas!,4
lovers,4
suffrage,1
consulates,1
ranks,1
chances,4
safe,2
sioux,1
departure,2
presidential,8
herself,1
prohibitions,1
instances,1
stout,2
flee,1
distinct,2
fled,1
countrymen:at,1
aware,6
can,74
numerical,1
award,1
said,46
carried,10
illustrious,2
motion,4
satisfy,3
february,1
fault,1
distracted,2
hail,1
seaboard,3
technically,2
really,8
granada,1
response,1
“perfectly,4
arguments,6
missourians,2
throes,2
tends,2
