donaldTrump,Occurences
,1
cancel,1
mistreat,1
undermining,1
half,1
shooting,1
hall,4
clinton,1
guards,2
ted,1
pick,1
ten,1
sake,1
daring,1
energy,2
“last,1
antonin,1
switzerland,1
spreading,1
),1
investment,1
require,1
here’s,2
compassionate,1
0,1
standards,1
1,1
2,1
3,1
magnified,1
4,1
triple,1
5,1
6,1
7,1
8,2
9,1
protective,1
telling,1
role,1
vengeance,1
fearless,1
roll,2
turn,1
perseverance,1
ceo,1
result,1
opposition,1
same,2
procedures,1
commission,1
after,4
hand,1
resume,1
a,139
ordered,2
c,1
d,1
f,1
i,130
blood,1
neighbor,1
violating,1
n,3
reconfirmed,1
the,226
straight,1
halt,1
r,2
sale,1
s,2
t,2
u,2
exciting,1
w,1
obvious,1
information,4
regain,1
straining,1
november,1
resolve,1
powered,1
pruitt,1
good,15
empty,1
somalia,1
tie,2
suffered,2
serious,2
tim,2
preston:,1
sustains,1
laugh,3
savages,1
grandchildren,2
gone,7
“it’s,1
walked,1
cj:,1
aside,2
cia,1
harm,4
freddy,2
disturbed,1
provided,1
embody,1
provider,1
provides,1
motivate,1
patrick,1
hard,6
marvels,1
assaults,1
pioneers,1
roof,1
mistreats,1
campaigning,2
quarters,1
multiple,1
congressmen,1
room,1
better,6
terminally,1
21st,1
permit,1
cancer,3
taking,8
bloodthirsty,1
illustrates,1
voters,1
impeach,2
hats,2
pill,1
god’s,1
gained,1
struck,1
block,1
hate,1
rebecca:,1
dinners,1
corey,1
flow,2
order,1
reminds,1
protecting,1
faiths,1
goonan,1
reformed,1
reform,4
tombstones,1
podium,1
transparency,6
cancers,1
job‑crushing,1
women,6
woman,1
unwavering,1
save,1
protection,1
combatants,1
shutting,1
cameras,1
frankly,1
tom,1
top,2
too,3
orderly,1
have,73
kentucky,1
avail,1
cnn,1
famous,1
question,6
authoritarian,2
drugs,1
stephenson,1
spirit,2
asian,1
ross,2
intellectual,1
reclaim,1
picture,1
tpp,1
tps,2
regard,1
warmed,1
rose,1
creeds,1
thousand,1
con,1
kudos,1
tortured,2
spoke”,1
everyone’s,1
madman,1
imploding,1
academic,1
menendez,1
representative,1
“okay,1
circumstances,1
including,2
cpr,1
baltic,1
patriot,1
plenty,1
christmas,1
”the,1
200,1
markets,1
peddle,1
“vote,1
obligation,1
try,1
korea’s,1
criminalizing,1
hawk,1
patriotic,1
became,1
cemeteries,1
laura,2
effective,1
times,1
says,1
timeless,1
direction,1
resurgence,1
empowers,1
capito,1
220,1
223,1
stable,1
activities,1
harness,1
directing,1
respond,1
incident,1
caught,1
japan,4
fullness,1
)over,1
“critical,1
230,1
concern,1
beautiful,3
worked,1
eventual,1
stats,4
sponsors,1
239,1
etched,1
state,1
worker,1
defined,1
[exercise],1
environmental,2
staub,3
synagogue,2
opposite,1
revitalizing,1
footprints,1
aftermath,1
curing,1
creating,1
shots,1
sweeping,1
wasting,1
cut,1
probably,3
warrior,1
jurisdiction,2
constitutional,1
two,14
250,1
moment,2
trump…”,1
tear,1
attack,1
reported,1
kitchen,2
prevented,1
creation,1
immigrants,1
)you’ll,1
think,27
participate,1
donating,1
replaced,1
lottery,2
team,1
services,2
peacemaking,1
filling,1
266,1
torture,1
speech,1
watch,1
269,1
extrajudicial,1
cabinet,2
thing,8
registering,1
tedious,1
270,1
someplace,1
domestic,1
kevin,2
punishing,1
paying,2
dying,2
wilkie’s,1
shoot,1
starts,1
stability,2
budget,2
eastern,1
ultimate,1
enlisted,1
surprising,1
technologies,1
easiest,2
assume,1
socialists,1
bashar,2
memory,1
concept,1
farmers,3
house,2
disaster,2
chilling,1
“right,4
stark,1
before:,1
lifting,1
opposing,1
hours,1
start,2
shore,1
stars,1
fallen,1
short,1
reducing,1
finance,1
rebecca,2
measured,1
truths,1
ninety,1
militarily,1
sadistic,1
imagined,1
climb,4
measures,1
70th,1
golden,2
specifically,1
enter,1
savings,1
gallery,1
restoration,1
welder,1
sessions,2
warmth,1
destroy,1
hostage,1
priority,1
railways,1
coast,2
requires,1
truth:,1
canceling,1
bright,1
planned,2
anti,3
unknown,1
congressman,1
uae,1
gracious,1
haley,1
survive,1
performed,1
pipeline,1
shootings,1
hanging,4
randomly,1
uscma,1
outlines,1
endorsement,1
compact,1
dad,1
tell,2
shores,1
dan,1
dam,1
daughters,1
shows,1
shown,1
jordan,1
celebrated,1
slashed,1
majesty,1
trucks,1
tele,1
day,4
keeps,1
raising,1
created,1
island,1
water,1
corps,1
formal,1
countless,1
creates,1
24/7,1
apples,1
tens,1
tent,1
condemns,1
critical,1
raqqa,2
elsewhere,1
”thank,1
this:,1
guarded,1
equitable,2
sixteen,1
restraints,1
introduction,1
”but,1
revenge,1
built,1
anwr,5
burdened,1
concentration,3
corsa,2
third,1
plan:the,1
build,4
further,1
demands,1
tolerate,1
deb,1
dea,2
electronics,1
dee,2
presidents,1
areas,1
“this,1
“israel,1
unthinkable,1
dew,1
preacher,1
davidson,1
stacy,3
cuba,2
announcement,1
fined,1
going,43
banks,1
carefully,3
impact,1
shock,1
committees,2
distinctively,1
regime’s,1
average,1
treatment,7
compare,1
investments,1
waited,1
grasp,1
unlike,1
hotel,1
wednesday,5
term,1
acquisition,1
ambassadors,1
business,3
withdrawing,1
“sewer,1
staff,2
right,7
possible,3
stealing,1
inscribed,1
stage,1
taught,1
returning,2
complicated,1
afghanistan,1
’18,1
maximum,1
under,2
did,4
quarter,1
proposing,1
die,2
battling,1
hollywood,1
repealed,1
quantities,1
$1,1
$2,1
divisions,1
$3,1
fears,1
$4,1
$5,1
$6,2
later,1
$7,1
$8,1
fentanyl,4
forgotten,3
midst,1
camped,1
highway,1
businessman,4
possibly,2
satellites,1
renewing,2
journey,1
test,1
finally,1
enforcement,8
dismissive,1
louisiana,1
brown,1
toughest,1
embraced,1
final,1
toyota,1
expiration,1
distract,1
occasion,1
virtual,1
embraces,1
back,3
training,1
resisting,2
heeded,1
states,10
houston,1
ignore,1
company,3
thomas,1
blinded,1
applaud,3
billions,2
crazed,3
madison,2
length,1
trafficker,4
grand,1
concerns,1
permeate,1
nation’s,1
schedule,1
overwhelming,2
baby,1
grant,1
showing,1
pepfar,1
qualified,1
lunch,1
armies,1
helping,5
“kevin,1
attempt,1
dartmouth,1
balance,1
randall,1
know:,1
lock,1
latin,1
text,1
fools,1
dearly,1
kindness,1
made,6
statue,1
being,4
yielded,1
warner,1
menace,1
hoping,1
warned,1
ups,1
maniac,2
status,2
trading,1
silenced,1
don,5
us!,1
operates,1
)let,1
stamp,1
you’ve,2
scattered,1
nuke,1
government,1
known,1
joshua,4
)a,1
coalition,2
crime,2
stand,3
knows,1
)i,1
forward,3
crisisnextdoor,1
singapore,2
300,1
lawsuits,1
entities,1
304,1
305,2
306,1
usa,1
uniformed,1
use,1
subject,1
rockets,1
sadness,1
liked,2
sufficiency,1
strip,1
uss,1
negotiation,1
pledging,1
credit,1
combine,1
likes,1
waste,1
travesty,1
includes,1
establishment,1
picking,1
numb,1
320,1
congresswomen,1
couldn’t,1
veterans,13
salvador,5
negotiating,1
reckless,2
smoking,1
threats,1
bald,1
transformed,1
make,12
included,1
opposed,1
waving,1
rapidly,2
outdoor,1
stake,1
witness,1
freeing,1
due,1
nourished,1
dug,1
threat,1
”and,1
woke,1
commit,1
friendships,1
cure,1
sorrow,1
350,1
presidency,1
hiding,1
happier,1
bank,1
flourished,1
meaning,3
oppressed,1
wellbeing,1
band,1
released,2
10,2
11,1
12,1
13,1
14,1
15,1
august,1
16,1
17,1
18,1
19,2
allied,1
execute,1
benefit,1
cracking,1
labor,1
vastly,1
highest,2
unique,2
regained,1
)african,1
baghdadi,1
allies,2
20,4
21,1
22,1
switching,1
23,2
24,1
25,1
worlds,1
26,2
27,1
examine,1
28,1
scam,1
industry,1
long,2
remember,3
375,1
1st,2
invites,1
womb,2
relationship,2
workers,1
30,1
cuts,1
cusp,1
35,1
stat,1
expression,1
marshaling,1
childhood,2
star,1
37,2
belittling,1
many,17
stay,1
controlled,1
dedicate,1
extensive,1
inspire,1
increasing,1
progress,1
40,1
respected,1
43,2
devote,1
45,1
protects,1
treat,1
agent,2
46,1
abortion,1
starving,1
48,1
bishop,1
numbers,8
rapid,2
expressing,1
seven,1
jamiel,4
swiftly,1
“united”,1
wood,1
50,1
52,1
53,1
55,1
admitted,1
surprise,1
56,1
richness,1
58,1
maps,1
“here,1
invited,1
bridges,1
look,17
korea,1
achieving,1
murdered,1
sergeant,2
commits,1
60,1
63,1
64,1
65,2
needed,1
mass,1
speed,1
apple,2
admit,1
common,1
interest,2
themselves,3
70,3
75,1
76,1
78,1
winning,2
apply,1
mars,2
politician,2
histories,2
bars,2
landing,1
raped,1
i’ll,5
80,1
step,2
84,2
mark,1
tribute,2
base,3
transnational,1
peanuts,1
loss,1
didn’t,14
lost,1
90,1
stealth,1
workforce,1
94,1
99,2
van,1
jima,1
work,11
lose,2
matt,1
exceptional,1
cattle,1
“our,1
inequality,1
terminate,1
word,3
stated,1
theory,1
love,1
extension,2
gender,1
foundation,1
secret,1
across,1
partnerships,1
eat,1
he’ll,1
europe,2
loud,1
prevailed,1
reward,1
sudan,1
gathering,1
opinion,1
lots,1
insisting,1
soldier,1
regulations,1
devotion,1
aldrin,1
exists,1
stir,1
insult,1
hospitals,1
world:,1
freedoms,1
micron’s,1
hunter,1
streamline,1
waterways,1
preparing,1
assaulted,2
pharma’s,1
honored,1
battlefields,1
seems,1
‘the,1
“developing,1
vfw,5
scientific,1
congratulations,1
platform,1
walking,1
i’ve,10
spend,1
1990s,1
fairness,1
grave,1
advantage,3
spent,1
instead,3
commission’s,1
attacking,1
stolen,1
cuban,1
anticipate,2
communist,1
temporary,1
hands,1
mayhem,1
year,1
allowed,1
staying,1
yeah,4
branch,1
anguish,1
mccaskill,1
emergencies,1
empire,1
understanding,1
near,1
silence,1
toughness,3
victims,1
extortion,1
sanctuary,7
inviting,1
vietnam,2
leaps,1
economy,6
inspired,1
community,1
planning,1
stop,2
heartfelt,1
israeli,1
inspires,1
unused,1
convictions,1
boston,1
appropriate,1
rodgers,1
least,3
immediately,1
quarterback,1
inmates,3
agreed,1
learn,1
representing,1
ridiculous,1
conviction:,1
missions,1
severe,1
communism,1
exploit,1
addressing,1
notes,1
generates,1
sprint,1
lethal,1
official,1
ohio,1
generated,1
leave,2
cottage,1
spouses,1
intrusive,1
eli,1
minister,4
need,1
abandons,1
often,2
typewriter,1
canada,3
traditions,2
hardly,1
sanctions,6
lasting,1
private,1
desperately,1
gates,2
lined,2
accomplish,1
engine,1
end,1
benefitted,1
lines,1
bullet,1
vow,1
forty,1
g20,1
special,2
forum,5
horizon,1
contempt,1
environment,1
undertaking,1
kicks,1
achieved,1
happens,2
education,2
“russian,1
called,4
charter,1
occurs,1
liberate,1
turns,1
responding,1
aspire,1
tried,1
iphones,1
burdensome,2
deepest,1
epa,2
herman,5
brave,2
apec,1
shape,1
state’s,1
momentous,1
neil,1
allegiance,1
hudson,1
nicaragua,1
400,2
graves,2
weapons,2
bricklaying,1
ravages,1
tormenting,1
asked,1
era,1
rights,5
gorsuch,1
share,4
deployment,1
overdose,7
television,2
“i’d,1
chairman,2
climber,1
throbbing,1
sharp,1
awfully,1
strongest,2
excelled,1
journeys,1
shake,1
jenna,3
tucker,1
screen,1
mexican,1
trial,1
vandalism,1
exploitation,1
finest,1
ancestors,1
trafficking,1
belgium,1
woods,1
estate,1
recaptured,1
yours”,1
careers,1
weren,1
driving,1
races,2
individually,1
joseph,2
shame,1
financial,1
ferocity,1
raced,1
dreams,2
dreamt,1
running,2
spies,1
credits,1
eve,1
chose,1
harder,1
declared,1
rates,1
endeavor,1
progressing,1
transport,1
rolls,1
chord,1
strategy,1
forms,1
summon,1
)small,1
achievements,1
victories,2
maintain,1
vineyards,1
skills,1
companies,2
annihilate,1
surgically,1
differently,1
meadows,1
pounds,2
represented,1
zealand,1
230th,1
waves,1
remain,1
expected,1
businesspeople,1
voices,1
countries,16
85th,1
monitoring,1
eye,1
schiff,1
envelope,1
himself,1
wanted,5
immoral,2
glaring,1
liberating,2
’‘oh,1
disturbance,1
feels,1
argued,1
another,1
guarantee,1
enemy,3
samet,1
waterfall,2
triumph,1
horror,1
liberation,1
black,1
optimum,1
fortunate,1
marksmen,2
such,5
metric,1
charts,1
wealthy,1
penalties,2
florida,1
administration,2
developing,1
remains,2
operator,1
“$150,1
davos,1
white,1
openly,1
counterpart,1
menacing,1
might,2
improving,1
wonders,1
eradicate,1
hurricanes,1
leads,1
embarrassing,1
sued,6
patriotism,2
fields,1
underprivileged,1
next,1
import,1
hanoi,3
summit,1
conclusion,1
button,2
central,1
impose,1
gregg,1
supporting,1
dreamers,1
”i’ll,1
factor,1
incorporating,1
news,3
green,1
race,4
effectively,1
was,59
war,3
greet,1
futures,2
grew,1
way,18
massively,1
urban,1
ho’s,1
african,1
israel,3
window,2
attempted,1
greg,1
play,1
[of],1
yorktown,1
fought,3
quickly,2
foes,1
taxes,2
mexico:,1
decide,1
issues,2
overprescribing,1
misrepresents…”,1
priorities,2
fan,2
unaccountable,2
confirming,1
far,4
stuck,1
titans,1
taxed,2
issued,1
plan,1
double,1
suicide,1
davis,3
fbi,1
lowest,1
finish:,1
comfortable,1
prizes,1
leahy,1
completely,3
suit,1
dividing,1
study,1
differences,1
totaling,1
gain,1
arabia,2
receiving,2
financing,1
tragic,1
older,1
grin,1
grip,1
fda,1
vegas,1
grit,2
sided,2
“nobody,2
electricity,1
climate,1
continuously,1
great,15
happened,3
staggering,1
discoveries,1
pleased,1
sides,1
dominance,2
economic,1
stuff,1
arrest,2
disability,1
keplinger,1
section,1
retirement,1
malignant,1
rumor,1
looks,1
presented,1
enrich,1
few,6
highways,1
thankfully,1
rain,1
hunt,8
victimized,1
opened,2
inner,1
“not,2
produced,2
region’s,1
backlog,1
personally,1
outside,1
hung,1
produces,1
producer,1
topic,1
forgets,1
who,8
option,1
raid,1
american’s,1
politics,1
game,1
crucial,2
contribute,1
actuarial,1
why,1
faith,1
founders,2
died,3
candidate,1
structural,1
trudeau,1
david,1
unbounded,1
dies,1
win,2
lawyer,1
unfairly,1
electric,2
lobbying,1
colleges,1
barter,1
mozer,1
barriers,1
matters,2
various,1
you…”,1
attention,1
visit,1
humvees,2
reduction,1
extent,1
parent,2
lived:,1
voted,1
appointing,1
losing,2
fit,2
fix,1
honest,1
rank,1
pension,1
deaths,1
addition,1
doubts,1
sure,3
grow,2
gang,2
shrink,1
excited,1
ag,1
‘and,1
al,1
am,1
an,11
000k,1
former,2
extend,1
as,14
at,32
unanimously,1
tumor…that,1
intermediate,1
looking,6
formed,1
hurt,3
gerald,2
be,39
cherished,1
bj,1
they’d,1
accusing,2
systems,4
sudden,1
cherishes,1
fool,1
by,18
abandonment,1
foot,1
charge,1
outstanding,6
keeping,1
cj,3
familiar,2
breathe,1
food,1
forget:,1
folks:,1
withdrew,1
partner,1
skeptical,1
votes,3
freely,1
interview,1
de,1
congress:,2
admits,1
scare,1
sites,1
language,1
do,32
ford,2
dr,1
scars,1
gary,1
accomplished,1
attacks,1
won,8
rare,3
justin,4
encroachment,1
creativity,1
needy,1
wow,2
which,13
needs,2
kirstjen,1
eh,1
pence’s,2
el,5
et,1
profound,1
affirm,1
g7,1
horrific,1
never,6
piece,3
“cajun,1
delegates:,1
stared,1
foe,1
paycheck,2
limbs,1
tears,1
unmistakable,1
for,39
watching,4
jefferson,1
perhaps,1
dine,1
rate,1
skill,1
prosperity,2
divide,2
emissions,1
covers,1
gi,1
governors,1
where’s,3
‘take,2
go,13
)next,1
dime,1
form,1
500,3
leaders:seven,1
gate,1
renew,1
fort,1
he,34
waiver,1
withdraw,1
hi,1
placed,1
ho,4
poland,5
“while,1
welfare,1
flourish,1
relationships,1
appeared,1
today’s,1
else,2
four,2
mcmorris,1
easily,3
commitment:,1
believable,1
if,19
prescriptions,2
manipulation,1
ii,1
unbroken,1
commitments,1
in,61
unleashing,1
iq,1
advisors,1
is,40
it,86
somebody,3
announce,1
talked,1
wto,1
contrast,1
gave,1
qa’ida,1
become,3
ji,1
lawful,1
recovering,2
$10,1
$13,1
jr,1
$15,1
majestic,1
settlement,1
dire,1
sending,1
ability,2
belief,1
delight,1
immigration,3
reclaimed,1
$24,1
knew,2
nobel,4
conglomerate,2
clearing,1
subpoenas,2
places,2
judah’s,2
la,1
stabilize,1
fun,2
ll,1
reaped,1
certify,2
political,1
$38,2
while,4
enterprises,1
locker,1
second,6
that,106
bypassing,1
faster,1
picked,1
than,8
me,15
limit,1
benchmarks,1
tolerance,1
$40,1
turmoil,1
mr,1
alabama,1
ms,3
dirt,1
burglarized,1
feeling,1
my,11
rekindle,1
plus,2
flowing,1
expansion,2
entry,1
dream,1
noble,2
$50,1
totalitarian,1
heat,2
no,21
legacy,1
scalise,1
student,2
terrorists,1
ideology,1
careful,1
kissed,1
sean,1
head,1
“$1,1
kidding,1
of,136
heal,1
oh,1
ok,1
rescue,1
hear,4
avenues,2
on,32
allocated,1
or,30
foolishly,1
embark,1
(laughs,1
families,1
cousin,1
dunn:,1
kisses,1
easier,1
sitting,1
dominican,1
$75,1
nation,1
rocket,1
registered,1
determination,1
tenderhearted,1
extremely,1
freeze,1
retribution,1
slashing,1
)now,1
ripping,1
rebirth,1
adversaries,1
hundreds,2
recent,1
brand,1
they,92
them,11
then,6
tightened,1
convincingly,3
seat,1
re,2
adopt,1
attorney,1
expire,1
donors,1
oppose,1
bridge,1
singular,1
homosexuality,1
strengthening,1
crossings,1
discovered,1
wall!the,1
seek,4
seen,2
seem,1
poorest,1
exporter,2
poisoning,1
so,46
accountability,1
apart,1
exported,1
issuing,1
st,1
757s,1
necessary,2
decision,1
righteous,1
souls,1
syria,5
started,2
ideally,1
closes,1
closer,1
dismantle,1
single,2
see:,1
scourge,1
closed,1
flowed,1
to,159
lilly,1
joint,1
reasonable,2
generations,2
rules,1
nebraska,1
loaded,1
uk,1
un,1
military,4
up,24
us,13
waters,1
usual,1
purchases,1
this,32
va,9
carnage,1
ve,1
remarkable,1
sees,1
forge,2
failure,1
protesting,2
know,33
midterms,2
vp,1
changed,1
medicines,1
breakthrough,1
changes,1
approving,1
we,87
gas,1
creations,1
emphasize,1
previous,3
hawaii,1
securing,1
teach,1
reading,1
directive,1
xi,2
xl,1
environmentals,1
subsidize,1
deeper,1
talents,1
bankrupt,1
“you’ve,1
held,1
annihilation,1
courts,1
ridiculously,1
respiration,1
fruitful,1
type,1
troops,1
beyond,1
hell,2
april,1
“jobs”,1
narcan,2
terms,1
nicolas,1
election:,1
deeply,1
proof,1
phase,2
swearing,1
atrocities,1
teams,1
petersburg,1
nails,2
contract,1
[entities],1
befriend,1
years”,1
gdp,1
combinations,1
years’,2
nisa’s,3
revolutionary,1
fabric,1
unemployment,2
exact,3
praying,1
force,2
“18,1
ecuador,1
zeitchik,2
reemergence,1
surrounded,1
group”,1
south,2
gee,1
north,2
heroes:,2
barbed,2
claire,1
tools,2
“david,1
unelected,1
get,10
continues,1
course,1
power,1
mediation,1
christmas”,2
rivers,1
precious,1
yielding,1
sell,1
premiums,1
continued,1
suspect,1
brain,1
abide,1
lawmakers,1
help,3
forcing,1
massive,3
“you’re,1
depth,1
additionally,1
ended,2
self,1
located,1
bernardino,1
sound,2
rebuilding,1
sales,1
defectors,1
healing,1
barrier,4
revitalize,1
create,1
welcoming,1
criminal,3
upholds,1
tariffs,2
therapies,1
proud,1
uplifted,1
“65,1
earthquake,1
sent,1
nightmare,1
brussels,1
addressed,1
purposes,1
reaffirm,1
environmentally,1
send,1
judges,2
here,8
concrete,1
haven’t,2
rejected,2
challenges,1
purpose,1
airbase,1
snake,9
thinkers,1
scale,1
hero,2
security,3
station,1
disappointing,1
earning,1
costs,1
factory,1
strived,1
follow,1
mother’s,2
magical,1
treaty,2
ounce,1
intend,1
anthem,1
numerous,1
recognized,1
without,1
youth,2
civilians,1
collusion,1
purposes:,1
virgin,1
sovereignty,6
whatsoever,1
audience,1
sexually,1
possess,2
volunteers,1
reimbursed,1
recognizes,5
“does,1
much,18
)this,1
arab,2
debra,2
chapter,2
only:,1
entitled,1
12th,1
sights,1
miseries,1
eradicated:,1
anybody,4
misery,1
masters,1
heather,2
are:,1
“country”,1
weekly,1
guantanamo,1
heaven’s,4
disrepair,1
plateaus,1
surbaugh,1
resolved,1
committed,1
hardships,1
“catch,1
committee,1
sets,1
capitals,1
namely,1
defends,2
union,1
revisionist,1
alice’s,4
returned,1
god,3
adopted,1
standard,1
reports,1
correct,1
sworn,1
got,12
gov,1
institution,1
delinquent,1
aspirations,1
avert,1
immigration:,1
area,2
murder,1
revered,1
european,1
at&t,1
contributes,1
lack,1
governmental,1
neglected,1
iran’s,8
success,1
600,1
authority,1
cleared,1
batting,1
“quit,1
young,1
regional,1
taxpayers,1
obsolete,1
)i’m,1
applause),1
negotiations,1
redemption,1
battlefield,1
lady,3
inject,1
named,1
neglects,1
injustice,1
considered,2
channel,1
emts,1
focus,1
delivered,2
entire,6
changing,2
approach,3
usher,1
decisive,1
[broader],1
body’s,1
write,1
wage,1
assad’s,1
loyalty,1
understand,3
classroom,1
masks,1
intelligence,3
coyotes,2
vigorously,1
million,1
strongly,2
despair,1
champion,1
discredited,1
braced,1
larger,1
gun,11
renovation,1
hundred,2
wait,1
circuit,1
queen,1
magnificent,1
guy,3
restrict,1
dysfunction,1
instant,1
remembers,1
laid,1
dominant,1
heading,1
opportunities,1
pacific,1
framework,1
names,1
prisons,1
renovating,1
tide,1
tonight,7
possibilities,1
almost,1
equally,1
prevents,1
elevating,1
sustained,1
defenseless,1
wake,1
remember:,1
earlier,1
whether,3
sneak,2
counting,1
swat,1
beneath,1
ritual,1
basis,1
affected,1
tutor,1
army,1
carter,1
)according,1
unresponsive,1
arms,2
october,1
governor,3
virginia,1
basic,1
lake,1
dislocation,1
unite,1
bush,1
policies,3
combat,1
restoring,1
it’s,44
sacrificed,2
unity,1
pursue,1
tier,1
ties,1
catastrophe,1
extra,1
convey,1
busy,3
“deplorable,1
watersthey’ve,1
land,1
“crumbs”,1
imposing,1
tied,2
it’d,1
automatic,1
foremost,1
sincerely:,1
)here,1
apologies,1
cyber,2
kaufman,1
conduct,1
wall,7
walk,3
extending,1
refusing,1
witnessing,1
walmart,1
decay,1
discussion,1
unleashed,1
crowds,3
thinks,1
welcome,1
events,1
chaos,1
abundant,1
want,26
rifles,1
uncover,1
kong,1
critically,1
input,1
deserts,1
difference,2
must,2
circle,1
populations,1
crowd:,1
warfighters,2
hitting,1
chase,1
accident,1
colors,1
mcconnell,1
anyway,1
found,1
nadler,1
defense,2
hispanic,1
currency,1
canal,1
cruelty,1
ideals,1
fanatics,1
politicians,1
disclose,1
entirely,1
entrust,1
overdoses:,1
religion,1
narcotics,1
tragedy,2
extensively,1
chart,1
paramedics,1
opioids,4
attend,1
goods,3
voting,1
had,22
nicer,1
secure,1
anymore,3
align,1
guided,1
late,1
country”,1
school,2
preserved,1
)our,1
brutally,2
things,11
basically,1
immense,2
has,11
unlock,1
sighed,3
last,6
trapped,1
mothers:,1
deficits,1
adapt,3
weight,1
allegedly,1
warm,1
checks,1
lash,1
others’,1
wars,3
exports,1
impossible,1
effort,1
jewish,2
yesterday,2
weapon,1
thing:,1
courageous,1
venomous,1
cocktail,1
stronger,2
ends,2
vote,3
early,1
disease,1
yes,2
yet,4
lowering,1
reilly,1
wages,4
alike,1
clarity,1
infrastructure,2
time,11
highs,1
buzz,1
applications,1
flourishing,1
happy,2
electoral,3
alice,3
governments,1
multi,1
her,1
universities,1
zoning,1
hey,1
okay,2
having,3
laws,1
russian,1
administration…”,1
supreme,1
kansas,5
addictions,1
vfw’s,2
chris,2
terrific,1
worship,1
lawn,1
adams,1
doubled,2
emphasizes,2
aggressively,1
confirmed,1
alien,1
smart,2
)nearly,1
beaches,1
get…”,1
ways,2
distorting,1
tire,2
chain,3
efficient,1
chair,2
consistent,1
subsidies,1
waging,1
governed,2
small,2
before,3
campers,1
marketplaces,1
him,10
viciously,2
hit,4
his,4
hiv,2
beat,4
bear,1
grandfather,1
potential,2
‘you,1
repeatedly,1
tapping,1
rollout,1
prays,1
resist,1
straighten,5
emboldened,1
history,1
square,1
twice,2
camps,1
interference,1
government:,1
values,2
point,2
sounds,1
rediscovered,1
banned,1
hospital,1
dimension,1
benefits:,1
deserve,1
restore,2
yoder,2
freeloading,1
interviewed,1
approve,1
mean,3
valued,1
nominated,1
suggestions,1
”that,1
“he’s,1
monstrous,1
been,24
beef,1
advance,2
appreciate,1
mothers,1
diverse,1
murderous,1
killer,1
strict,1
you,105
safely,1
coulter,3
opportunity,1
active,1
court,1
mueller’s,1
deals,3
dealt,1
beds,1
obstruction,1
hotline,1
)last,1
abuses,1
unsafe,1
unmatched,1
abuser,1
“the,3
interior,1
how,5
owens,2
assembly,1
“tim,1
outraged,1
“fake”,1
march,1
meet,2
answer,1
calls,2
700,1
saints,1
restored,1
thrive,1
volcanic,1
abused,1
putting,2
homelands,1
sometimes,1
questions,6
promise,1
“tax,3
obstructing,1
listened,1
richard,1
ignored,1
count,2
zones,1
liberalize,1
vision,1
scared:,1
blame,2
uncompetitive,1
carrying,1
beginning,1
waiting,4
maureen,1
silencing,1
carryn,1
question:,1
partisans,1
shameful,1
bloody,1
grants,1
asia,1
killed,1
michael,1
although,2
approximately,1
tubes,2
spectacular,1
subsidizing,1
huh,1
decades,2
patriots,1
president,18
vetting,2
envy,1
“by,1
america,4
750,1
bend,1
religions,1
action,1
crucially,1
fired,1
greta,1
undercut,1
“tom,1
bell,1
afford,2
fires,1
livelihoods,1
reached,1
“at,2
maligned,1
acting,2
shield,2
enforcing,1
deliver,1
dealings,1
headed,1
eight,1
products,1
steve,4
periods,1
illness,1
nigeria,1
could,10
strike,1
smack,1
5th,1
torch,2
problem:,1
able,1
forged,1
concerned,1
conscience,1
inheritance,1
british,1
solution,3
bystanders,1
“god”,1
opponent,2
dramatically,1
international,2
redding,1
citizen,1
cities,7
principled,1
whistleblower,3
difficult,2
steps,1
friends,4
corporations,1
forget,1
strengths,1
principles,1
“pretty,1
present,1
problems,1
arrested,3
strife,1
belong,1
hawley,1
borders,4
derek,7
best,3
movements,1
mess,2
transform,1
remnants,1
rooted,1
“do,1
certainly,1
impressive,1
shocked,3
principle:,1
concerning,1
regulation,4
try”,1
tougher,4
notre,1
feared,1
cover,3
traffickers,3
congratulating,1
defenders,1
massacre,1
adventures,1
based,1
something,4
miners,1
intention,1
thereby,1
“in,1
daughters’,1
impulse,1
understandable,1
“is,1
meth,1
“it,1
“if,1
religious,1
fact,2
fundamental,1
dethroned,1
bases,2
pieces,1
“well,1
fred,1
free,1
equality,1
“he,2
rebellion,1
reaction,1
valor,1
protections,1
pelosi,1
actually,6
“buy,1
face,3
oldest,1
afraid,1
showed,2
friedman,1
stagnation,1
household,1
invite,1
coordinated,1
“but,1
“on,1
refugees,2
instinct,1
unfairness,1
icc,2
ice,5
independence,5
“oh,1
honors,1
)anytime,1
otto’s,3
ruin,1
“no,1
“there,1
please,3
“boy,1
finding,1
marjory,1
elected,2
“my,2
“mr,2
vital,2
israelis,1
rewards,2
jumped,1
rule,1
condemn,1
motors,1
smarter,1
expired,1
damaging,1
gulf,2
hurting,1
coordinating,1
lopez,1
america”,1
certainty,1
spine,1
commend,1
indeed,1
100th,1
frosted,1
sandy,1
jason,1
transcend,1
scripture:,1
railroads,1
fireside,1
humanitarian,1
guns,1
confronting,2
entrepreneurs,1
discussions,1
binding,1
fair,2
stepping,1
safety,1
enable,1
slavery,1
yemen’s,1
phenomenal,3
downplaying,1
profession,1
harman,1
fail,1
mercedes,1
steel,1
seize,1
triumphs,2
alexandria,1
privilege,2
foreign,8
macarthur,1
“complacent,1
fall,1
decisively,1
boldly,1
boundless,1
erase,1
safest,1
nice,9
27th,1
forgone,1
culture,3
fake,5
forgot,2
runs,1
first,11
perfect,6
fewer,1
poll,2
“we,4
championing,1
harmed,1
from,12
abusers,1
ill,1
finished,1
rejection,1
speaker,1
dignified,1
fame,1
fakers,1
death,1
steal,1
advice,1
according,1
factories,1
vicky,1
operations,1
paper,1
colored,1
lópez,1
concealed,3
value,1
listening,1
inf,1
enforced,1
centennial,1
limbaugh,1
underscores,1
rush,2
“to,1
)it’s,1
growth,1
texas,4
properly,1
poor,1
graduate,1
unanimous,1
farm,1
grief,1
enduring,1
virtually,1
fairly,1
motorcycles,2
moratorium,1
airport,1
persons,1
charges,1
800,1
cigarettes,1
charged,1
shortly,1
firmly,1
providing,2
weeks,1
fate,1
moms:,1
“twenty,1
pork,2
founding,1
is:,1
“what,3
aggressive,1
close,5
817,1
linked,1
supporters,1
winners,1
grieving,1
michigan,1
zte,2
unleash,1
accelerated,1
matson:,1
it:,1
embarrassment,1
proclamations,1
fast,1
trials,1
invasion,7
precedent,1
citizens,1
unborn,1
controls,1
astronauts,2
hasn’t,1
cartels,1
rural,1
fortunately,1
norfolk,1
post,1
agricultural,1
repeating,1
coping,1
pose,1
its,14
independents,1
constructive,1
remedy,1
wrapping,1
respect,2
article,1
bureaucracies,1
port,3
countries’,1
guys,3
crooked,3
income,1
joining,1
raged,1
billy,1
united,19
production,2
searching,1
directors,1
wallace,1
choose,1
peaceful,1
miles,3
overwhelmingly,1
previously,1
strikes,1
democratic,2
bills,2
identify,1
carpentry,1
citizenship,1
pour,1
infused,1
honorary,1
improvement,1
marines,2
pledge,1
pushed,2
following:,1
college,3
iwo,1
unga,1
sanity,1
“keep,1
number,5
experiencing,1
punish,1
property,1
centers,1
globalism,1
nothing,4
testing,1
handle,3
tough,8
script,1
happily,1
)before,1
reaffirmed,1
fundamentals,2
fathers,1
generously,2
city,1
confident,1
kelly,1
local,2
courage,1
healthcare,1
innovate,1
yield,1
promptly,1
decisions,1
)we’ve,1
filled,2
satisfaction,1
incomprehensibly,1
powerful,2
removed,1
atop,1
nisa,1
shaw,2
governance,2
shed,1
smashed,1
“give,1
unlocked,1
points,8
hoover,1
maintained,1
pregnant,1
physician’s,1
border,2
read,2
real,4
clock,1
admission,1
sullivan,1
resigning,2
shattered,1
badly,2
wealthier,1
telegraph,1
sununu,2
diminished,1
today,5
construction,2
“sir,1
saying,2
universal,1
radical,1
“when,1
twenties,1
looked,1
poles,1
warnings,1
minute,1
hardworking,1
productive,1
heartwarming,1
rebels,1
reason,3
ship,1
acts,1
’‘take,1
initiatives,1
proxies,1
gentle,1
goodness,1
shopping,1
“are,1
using,1
levin,1
completed,1
durbin,1
demand,1
turkey,1
letter,2
anniversaries,1
doses,1
tallest,1
poisons,1
handed,1
worth,1
releasing,1
openness,1
taken,3
takes,1
popular,1
broken,1
kreebull,1
detection,1
course:,1
jetfighters,1
escalation,1
armed,1
)similar,1
oliver,4
shifted,1
solace,1
disagreements,1
grips,1
lifetime,2
bloodshed,2
individuals,1
repeated,1
debate,1
either,2
vulnerable,2
preach,1
jet,1
helpful,1
those,10
worry,1
watches,1
egregious,1
nielsen,1
knives,1
lifted,1
telephone,1
significant,1
worse,2
bleed,1
bounded,1
arbitration,1
screaming,1
prosecuted,1
longer,4
watched,2
2:30,1
senate,1
everywhere,2
colleagues,1
parties,3
shuttered,1
selling,1
worst,1
[regime’s],1
leaving,1
oman,1
unlawful,1
planted,1
michelle,1
show,2
you’re,5
shot,1
recession,1
vigilance,1
killings,1
street,1
plains,1
ecause,1
“ann,2
elizabeth,2
vanished,1
learned,1
estimated,1
lobbies,1
suddenly,1
kaléo,1
guidance,1
milestones,1
reno,1
jim,2
vocational,1
largely,1
china:,1
severely,1
”to,1
mccarthy,2
eighteen,1
admissions,1
28th,1
chrysler,1
tenacious,1
collapsing,1
rely,1
legislators,1
bounds,1
”so,1
guard,2
babies,1
vehicle,1
madam,1
seaman,1
pressing,1
freedom,1
criminals,1
bilateral,1
soaring,1
plateau,1
comrade,1
$100,2
nomination,1
mexico,5
addictive,3
persists,1
spotless,1
levitt,5
persevere,1
shut,1
luck,1
cuevas,2
bonds,1
influence,3
knew:,1
stabilizing,1
totally,1
wrapped,1
you’ll,3
bondi,1
adam,1
crisis,2
marketplace,1
marshall,2
addiction,10
lewandowski,1
important,3
detective,1
phrase,1
veteran,3
daily,1
remaking,1
job,4
correction,1
daughter,1
largest,1
sponsor,1
joe,4
investigations,1
airmen,1
jenna:,1
administrator,1
”we,1
billion,6
joy,1
miracle,1
compliment,2
subvert,1
rest,3
administrations,1
prosecutor,1
gets,1
kingdom,2
differ,1
afternoon,2
puppet,1
streamlining,1
$151,1
investigation,1
$150,1
900,1
front,1
cornyn,1
timothy,2
softbank,1
plane,5
stupid,1
projects,1
wedge,1
independence–,1
kashmir,1
treatments,1
offer,1
complex,1
missiles,2
gaining,1
resettlement,1
demeaning,1
afterwards,1
preston,2
wrongly,1
narrowly,2
astonishing,1
)today,1
plans,1
unimaginable,1
plant,1
they’ll,1
drive,1
jones,1
homeland,1
civic,1
sixth,1
isolate,1
offered,1
civil,2
underway,2
national,3
audiences,1
customers,1
jobs,6
words,3
founded,1
medicine,1
entered,1
plan:,1
difficulties,1
digits,1
pillars,2
”this,1
developed,1
coercing,1
detention,2
prospective,1
disadvantage,1
bashing,1
dishonest,1
visionaries,1
defenses,1
renovate,1
exploited,2
parts,1
vigorous,1
western,1
helps,1
party,1
duties,2
however,1
trained,1
sources,1
relates,1
“open,2
compel,1
)all,1
salute,1
faceless,1
signs,1
related,2
aunt,1
captured,1
views,1
directed,1
historic,1
unacceptable,1
coercion,1
wearing,1
false,1
nancy,2
clobbered,2
)fifth,1
they’re,29
dinner,1
fulfills,1
realm,1
fulfill,1
crowd,3
destabilizing,2
mechanical,1
world!thank,1
sick,3
corner,1
peterson,1
majority,1
)and,2
join,1
crown,1
sentence,1
faithfully,2
post”,1
chasing,1
director,2
vain,1
ordinary,1
leveling,1
verdict,3
firearm,1
john,1
brought,2
works,1
alive,1
payments,1
pursuit,2
emerged,1
thinking,1
ruthless,1
cycle,2
world,6
prejudice,1
embarked,1
everything,3
urgent,3
affordable,1
unsound,1
pence,1
side,2
break,1
they’ve,11
indirectly,1
“amazon,1
dictatorship,2
comfort,1
joke,1
expansionist,1
century,3
hide,1
truthfully,1
report,1
powers,1
reminding,1
married,1
auto,1
sign,1
cotton,1
outrage,1
jong,1
high,2
sempra,1
expressed,1
different,7
directly,2
officially,1
rotunda,2
level,2
wilkie,2
restrictions,2
preserve,4
roots,1
establish,2
deter,1
arrests,1
belongs,2
focused,1
attached,1
modernizes,1
parents,1
birthday,1
pursues,1
decent,2
401k,1
total,1
pursued,3
squads,1
belleau,1
loses,1
loser,1
savage,1
consumer,1
initiative,2
social,4
interesting,4
opioid,12
cross,2
raised,1
control,1
demanding,1
kudlow,2
declined,1
acknowledge,1
earth,5
backs,1
threatening,1
behalf,1
somewhere,1
scene,1
redefined,1
raises,1
strengthen,1
him:,1
inadequate,1
hurricane,2
remaining,1
accept,2
badge,2
yearning,1
wowhow,1
appreciated,1
stopping,1
ranches,1
preston’s,1
surrendered,1
access,1
wiped,1
zinke,1
artists,1
crippled,1
detroit,1
key,1
hillary,1
surprised,3
situations,1
silk,1
stopped,2
silent,1
addicted,1
americans:,1
loads,2
launch,1
aren’t,1
saratoga,1
josh,6
bilat,1
hill,1
kate,1
cloak,1
appoint,1
vast,2
fourth,1
laughing,1
ignite,1
‘i’ll,1
declare,1
bloodlust,1
available,1
gleaming,1
principles:,1
quest,1
responders,3
night:,1
apache,1
murkowski,1
fervently,1
weakens,1
ironclad,1
sector,1
extreme,1
one:,1
night!,1
dumping,1
degree,1
especially,2
once,2
”generations,1
counties,1
kong’s,1
assessed,1
hire,2
records,1
inventors,1
kid,3
figured,1
monument,1
stunting,1
kim,2
vivid,1
brett,2
combatting,1
joy:,1
throughout,3
conflicts,1
virtue,1
)we’re,6
coverage,1
types,1
corrupt,2
reforming,2
technology,2
litigation,1
stroked,1
ones,1
gentleman,2
compromise,2
reach,1
backed,1
rules:,1
calibrated,1
unjustly,1
selects,1
read:,1
syrian,1
rulers,1
kissing,1
sight,1
between,1
$200,1
collar,1
monsters,2
apollo,1
deprived,1
following,1
guillory,1
complacency,1
wear,2
martinez,1
16th,1
weak,1
overseas,1
ballooned,1
distressed,1
1876,1
announcing,1
seeing,1
lean,1
assert,1
ukraine’s,1
place,4
$221,1
lawless,2
informed,3
“cesspool”,1
restart,1
bigger,4
tremble,1
aggression,2
offenders,2
lead,1
fraction,1
expect,2
site,4
amputations,1
gentlemen,1
miracles,2
filibuster,1
passage,1
bissell,1
bombs,1
leaders,2
“trump,1
parks,1
assets,1
lifesaving,2
knocking,1
plain,1
should,13
only,4
justice,1
$240,2
)see,1
$245,1
officers,6
“disrupters,1
ringleaders,1
individual,1
9/11,1
condemning,1
wipes,1
interim,1
person,4
$250,1
enforce,1
arsenal,1
supposedly,1
week,9
weep,1
“where,1
paris,1
ready,1
inundated,1
studies,1
wealthiest,1
roadways,1
greatest,1
clutched,1
unprovoked,1
orientation,1
manufacturers,1
studied,1
match,1
played,1
granite,1
prepare,1
pills,2
crusade,1
spoke,5
fifty,1
surgeon,1
withdrawn,1
stalemate,1
approved,2
–,1
would,9
outcomes,1
legs,1
customs,1
“you,1
’,7
mind:,1
“,1
”,25
incomes,1
successfully,1
meanwhile,1
reserves,1
coalitions,1
yourselves,1
“how,2
endorsed,1
diplomacy,1
latino,1
left,2
poorly,1
accessible,1
largescale,1
hosting,1
to…”,1
destroyer,1
balanced,1
elect,1
example,2
rebuilt,1
minds,2
characters,1
seong,5
things:,1
(laughter,2
quiet,2
policy,3
rebuild,2
address,1
approves,1
graham’s,2
beliefs,1
destroyed,2
police,6
throw,1
thank,10
planet’s,1
surgery,1
reimburse,1
violent,1
confront,1
provocation,1
unrivaled,1
scholarship,1
implement,1
hardened,2
export,1
others,3
making,2
check,1
8th,1
relatives,1
hijacked,1
mattis,1
supposed,1
applied,1
society,1
expanded,1
nowhere,1
ensuring,2
ticket,1
approval,1
blocks,1
realized,1
magnet,1
expose,1
cheer,1
explosion,1
stormed,1
well,9
shielding,1
realizes,1
personnel,1
justin’s,1
gains,1
myth,1
loved,1
venezuela’s,1
fierce,1
oppressors,1
reservation,1
cooperation,4
went,6
considering,1
distant,1
custody,1
intel,1
wall!,2
seoul,1
bringing,4
schools,1
renewable,1
spots,1
crazy,1
jessica:,1
southeast,1
matter,2
walls,3
bedrock,1
acquiring,1
meadow,2
reformers,1
product,1
stupidity,1
reminder,1
loves,1
ballistic,1
cheap,1
produce,2
justices,1
reminded,1
industries,1
cetera,1
dictators,1
witch,8
tormented,1
communities,1
capital,1
heartbreaking,1
minor,1
hostile,1
fuel,1
pleas,1
smuggling,1
straits,1
upon,1
explosives,1
employee,1
pray,1
platforms,1
identical,1
abject,1
helicopters,1
biggest,1
ambitious,1
west,1
raise,1
quite,1
revere,1
hated,1
traffic,1
las,1
law,1
maduro,1
lay,1
hatch,1
less,5
)but,1
adventure,1
institutions,2
condition,1
were,22
improve,1
ceremony,1
shining,1
taxation,1
arizona,1
university,1
troop,2
artificially,1
teaches,1
wound,2
teacher,1
generous,2
nightmare:,1
floor,2
possibility,1
wounded,1
broward,1
lengthy,1
“we’re,2
distinguished,1
opening,2
chooses,1
doctor,1
industrial,1
spoken,1
traveled,1
shouldn’t,2
cluster,1
prey,1
gotten,1
lieutenant,1
led,1
quid,1
lee,1
supply,3
“that’s,1
leg,1
integrity,1
mountain,1
breakthroughs,1
let,2
press,9
socialism’s,1
cares,1
“opportunity,1
neighborhoods,1
night,2
pace,1
havens,1
each,6
untapped,1
enroll,1
horrendous,1
muslim,1
tomorrow:,1
entertainment,1
document,1
killing,1
dollars,10
networks,2
strains,1
fixes,1
renegotiating,1
promote,2
does,1
builder,1
distortions,1
situation,3
legislation,1
(applause,4
thirst,1
refused,1
consolidate,1
withdrawal,1
jungles,1
admitting,1
prayer,1
detained,1
can’t…”,1
quit,3
fashion,1
insurance,3
surely,1
principle,1
medical,1
deterrent,1
importantly,1
strivers,1
lie,2
remington,1
source,2
acquires,1
uncontrolled,1
vitality,1
homes,1
registers,1
pompe,1
doubt,1
merit,1
develop,2
nurses,1
employing,1
involved,3
roberts,1
“effected,1
imploring,1
overall,1
fixed,1
page,1
justice:,1
full,3
1944,2
guaido,1
destiny,2
away,1
cards,1
millennium,1
beijing,1
specter,1
great‑granddaughter,1
puerto,1
cared,1
home:,1
bonuses,1
painful,1
$300,1
pain,1
center,1
purchase,2
titles,1
equal,1
1964,1
fund,1
paid,1
three,8
complacent,4
remembered,1
whoever,3
suppression,1
blacklisting,1
unlawfully,2
payment,1
controversial,3
“hey,1
lousy,1
1977,1
deputy,1
lng,1
roads,1
“pressure,1
pennsylvania,2
provide,1
eradication,1
cities”,1
primary,1
ideologies,1
teaching,2
wibberley,2
dome,1
lot,20
panama,1
1997,1
1996,1
‘i,1
low,1
solidarity,1
merely,1
wealth,2
meant,1
means,3
funding,3
initial,1
fury,1
goodlatte,1
salutes,1
eternal,1
fellow,1
’s,1
advancing,1
$350,4
interests,1
robert:,1
businessperson,2
crushing,1
door,1
commanded,1
quick,1
alliance,1
invaluable,1
recognizing,1
husband,1
experience,1
launched,1
terror:,1
commander,1
zone,4
disappeared,1
newfound,2
prescribing,1
keystone,1
fixing,1
adept,4
“just,1
minutes,1
klaus,6
sacrifice,1
particular,3
done,8
illegal,2
economies,1
congratulate,1
residents,1
)the,1
$375,1
matson,1
ease,1
mike,3
part,1
conversations,4
“i,3
principal,1
“yes,1
east,3
)america,1
blaming,1
surest,2
elvin,4
jarrett,1
relief,1
park,1
chemo,1
unbelievable,3
”a,1
seeking,1
”i,1
capitol,4
someone,1
gratitude,1
earn,1
booby,1
regulated,1
reductions,1
mutually,1
compassion,1
asylum,4
eighties,1
path,2
depending,1
surged,1
record,1
chicago,2
prevention,1
accepting,1
disparities,1
bunker,1
preventing,2
pass,1
past,1
mile,1
nineteen,1
behind:,1
milk,1
bill,1
“ronald,1
whose,1
easy,1
senior,1
smiled,1
domain,1
paso,5
adopting,1
“history”,1
touched,1
thrived,1
up…in,1
existed,1
bloated,1
won’t,4
philadelphia,1
handing,1
thrilled,1
mine,3
grateful,1
mind,1
reverence,1
bureaucrats,1
inflexible,1
paul,1
richest,1
ryan,2
added,2
gunfight,1
emergency,1
displaced,1
cheated,1
down,8
launching,1
recommendations,1
brings,1
commuted,1
adding,1
legal,2
seated,1
agreements,1
varied,1
believe:,1
armor,1
month,2
tackle,1
chuck,1
hampshire,9
rather,2
requesting,1
importance,1
worthy,1
endless,1
heartland,1
papers,1
miss,1
incentives,1
“promises,1
doorstep,1
bite,2
disgusting,1
hemisphere,1
nuclear,1
human,6
dwight,1
prince,1
kuwait,1
blessed,1
statistically,1
apprehend,1
crippling,1
interpret,1
inherit,1
beach,1
holets,3
ranchers,1
hartzler,1
interviewing,1
he’s,12
brothers,1
exhausted,1
division,1
merriweather,1
upholding,1
supplies,1
supplier,1
“donald,1
usually,1
proudly,1
he’d,3
fear,1
inspection,1
cookie,1
signed,5
appreciation,1
sense,1
removing,1
coaches,2
physically,1
field,1
served,1
wilderness,1
legitimate,1
baseball,1
cheerleader,2
realities,1
“nope,1
senators,6
goodbye,1
skin,2
stamped,1
we’re,35
mention,1
inserted,1
legally,2
ma’am,2
herald,1
melania,1
man,5
map,1
twenty,1
may,5
advocates,3
message:,1
bless,2
reforms,2
murders,1
walden,1
gearing,2
trustworthy,1
feet,1
fees,2
defending,2
presiding,1
recognition,2
feel,2
terribly,1
teenage,1
aisle,1
convene,1
firefighter,1
“push,1
bipartisan,1
terrible,2
carolina,2
equipment,1
ideas,1
unaccustomed,1
pressure,3
becomes,2
entries,1
background,1
thriving,1
constitution,3
cocaine,1
senseless,1
we’ve,15
nonsense,1
incursion,1
joshua:,1
breath,2
idea:,1
men,2
repeat,1
physical,2
micron,3
met,6
repeal,1
wicked,1
speeches,1
exactly,1
structure,1
“don’t,1
timetables,1
levittown,2
depend,1
sized,1
about,23
opec,2
danger,3
branching,1
“merry,2
character,1
above,2
stick,4
)as,1
)at,1
tales,1
disappearing,1
goals,1
height,1
myself,1
frozen,1
received,1
wonderful,2
gunned,1
america’s,3
missouri’s,1
substantial,2
flood,1
quality,1
illicit,1
pillar,4
animal,1
boost,1
sincere,1
“listen,1
invested,1
)by,1
shared,2
tormentors,1
mic,2
don’t,24
eliminate,1
believe,6
arabian,1
fell,1
into,5
destruction,1
crumbled,1
middle,3
prosper,1
though,1
strategies,1
renewal,2
swamp,1
“three,1
reverend,1
appear,1
bureaucracy,1
deludes,1
pharma,2
experts,1
open,1
$400,1
suffering,1
forced,1
invest,1
appellate,1
project,1
debra’s,1
funded,1
roughly,1
california,2
solutions,1
washington’s,1
felt,1
sucker,1
bears,1
secures,1
conquest,1
advisers,1
tragically,1
forces,3
flying,1
unlocks,1
proposals,1
secured,1
internet,1
allow,3
exists:,1
proper,1
bitten,1
polls,2
slain,1
poisonous,1
propel,1
urgency,1
)general,1
tijuana,1
activists,2
patrol,1
recently,1
hostages,1
incredible,7
beats,1
renewed,1
money,5
incredibly,1
stakes,1
riches,1
healthy,2
richer,2
we’ll,12
unprotected,1
forever,4
exxon,1
achievement,1
)if,1
whole,1
mom,1
revolution,1
)in,2
)working,1
servicemembers,1
reliable,1
)it,1
richly,1
obstacle,1
“get,1
profits,1
still,2
resemblance,1
enriched,1
“gee,1
toward,1
books,4
legitimacy,1
among,1
deportations,1
internal,1
healthier,1
signature,1
republican,1
excise,1
enjoy,1
defended,1
rediscovery,1
ourselves,2
fest,1
throwing,2
flexibility,1
accosted,1
perdue,1
believes,1
believer,1
writing,1
federal,5
believed,1
academy,1
include,1
alongside,1
genocide,1
tremendously,1
monroe,1
lefts,1
destructive,1
alexander,1
cutting,2
unarmed,1
voice,1
sharon,2
imbalance,1
allen,7
illnesses,1
prepared,2
craft,2
amendments,1
)my,1
semitic,1
fascism,1
that’ll,3
discover,1
)did,1
extremists,1
mysteries,1
)no,1
failed,1
shipped,1
cleaned,1
)on,1
deployed,1
warhead,1
wildfires,1
dictator’s,1
talks,1
craig,1
destinies,1
ashlee,4
distances,1
assistant,1
ultimately,2
slash,1
sponsorships,1
floods,1
saved,2
leading,2
politically,1
urge,1
music,1
famine,1
mueller,1
because,28
educate,1
moving,4
plunders,1
agreement,2
dealing,2
bronze,1
permits,1
guess,4
boris,1
science,1
detain,2
happening,1
aboard,1
stretches,1
)so,10
scout’s,1
‘poor,1
interstate,1
sleep,1
blindfolded,1
refuse,1
reversing,3
“duty,1
behavior,1
website,1
failures,1
)to,1
unlimited,1
judah,3
sharon’s,1
wyoming,1
pushing,1
normandy,1
plundered,1
emerge,1
sweet,1
ago:,1
anniversary,1
eager,1
republic,2
surrender,1
cruel,1
wrote,1
gather,1
jail,1
insist,1
energies,1
beneficiary,1
“why,1
)we,1
buildings,1
“who,1
that’s,25
sailing,1
bored,3
defied,1
arrivals,1
stretch,1
scouts,29
rico,1
havoc,1
responsible,2
medal,1
dumped,1
satellite,1
mistake,1
capabilities,1
dakota,1
autoworkers,1
rich,2
rick,1
agencies,1
duties:,1
migrants,2
sweat,1
visited,1
attacked,1
family,2
referred,1
gift,1
islamist,1
told,1
release,3
abiding,1
rolled,1
scalia,2
toll,1
moral,1
nah,1
judge,1
darkness,1
tom:,1
manipulate,1
lindsey,1
“thank,1
similar,1
partnership,1
aliens,1
foundations,1
evelyn,2
responsibly,1
thousands,1
mccarthy’s,1
nbc,3
driven,2
optimism,1
against,1
pouring,1
swell,1
remind,1
manufacturer,1
crude,1
encourage,1
[will],1
deficit,1
honestly,1
mnuchin,2
grandmother,1
eisenhower,1
concessions,1
urgently,1
dachau,2
honor,3
“wow,1
net,2
nasty,1
intense,1
new,13
took,2
catching,1
“would,1
acreage,1
domains,1
emptied,1
positions,1
tons,1
franklin,1
mickens,2
mandate,1
befallen,1
“what’s,1
reaching,1
media,1
around,2
talented,2
define,1
dictate,1
douglas,1
stepped,1
frontier,1
haven,1
egypt,1
employment,2
korean,1
nominations,1
specific,1
super,2
obtains,1
risks,1
viciousness,1
inherited,2
engage,1
president’s,1
territory,2
amendment,1
shift,1
birthright,1
johnson,1
decided,1
migrant,1
shoulder,1
fully,1
eliminated,2
exchanges,2
liberated,1
eliminates,1
slow,2
prouder,1
wouldn’t,3
$500,1
iowa,1
complexity,1
maybe,7
$506,1
rallied,1
students,1
recommend,1
rips,1
permitted,1
expectations,1
oftentimes,1
poison,1
silly,1
forecasting,1
institution’s,1
supporter,1
tour,1
boring,3
carlson,1
lincoln,1
absolute,1
understood,1
perry,1
supported,1
resulted,1
documents,1
genuinely,1
solved,1
objections,1
19th,1
research,2
guatemala,4
weren’t,1
sciences,1
sophomore,1
royals,1
forgetting,1
)he’s,1
sinister,1
houses,1
solves,1
sovereign,4
wounds,1
imagine,2
boats,3
girl,1
mentally,2
whatever,3
airports,1
destroying,1
yards,1
dictatorships,1
pawns,1
reopen,1
affectionately,1
reexamine,1
designs,1
involving,1
blind,1
color,1
nearly,3
cathy,2
glorifies,1
non,1
nor,1
not,17
drops,1
now,12
statement,3
lived,2
wisconsin,1
thoughts,1
delivery,1
disunity,1
election,7
breaks,1
conquer,1
can’t,11
ronald,1
what,27
furthermore,1
detailed,1
timely,1
risk,1
battles,1
delivers,1
flame,1
rise,1
hadn’t,1
recalls,1
charles,1
when,13
hatred,1
crush,1
endured,1
struggling,1
catch,6
nra,1
financially,2
o’rourke,1
reimbursing,1
promising,1
give,4
lives,1
depends,2
survived,1
limiting,1
tribunals,1
ships,1
determined,1
farms,2
prevail,1
ladies,1
burdens,1
mozer:,2
direct,2
flags,1
hardship,1
firepower,1
modern,2
sentenced,1
acknowledging,1
revving,1
selflessness,1
enables,1
dishes,1
wrong,2
organization,1
heads,1
certain,3
board,1
levels,2
flag:,1
pursuing,3
widow,1
used,8
constantly,1
whip,2
earned,1
foxconn,1
threaten,1
letting,1
rhetoric,1
awoke,1
otherwise,2
marked,1
here:,1
borne,1
survival,1
market,2
effects,1
keep,1
citizens:,1
eagle,3
solemn,1
wondrous,1
reagan,1
almighty,1
imprisonment,1
deserves,1
transpired,1
rocky,1
necessarily,1
alone,1
strive,1
words:,1
along,1
jerusalem,1
hottest,1
dialogue,1
blunder,1
designed,1
harley,1
ingraham,1
handful,1
harming,1
terminal,2
thanking,1
shine,1
koreans,1
vega,1
disproportionate,1
bring,1
hearted,1
promoted,1
brink,1
manufacturing,2
giant,1
promotes,1
neglect,1
employers,1
promoting,1
rescues,1
vein,1
empowering,2
saudi,2
steven,1
turning,1
peace,10
partnering,1
ukraine,11
competitive,2
it’ll,2
brother,1
frank,1
ordering,2
viability,1
multinational,1
communications,1
rescued,1
search,1
whoa,1
insurer,1
whom,3
humanity,2
innovation,1
kristina,1
peacekeeping,1
drifted,1
screeched,1
survivor,1
emissary,1
children’s,1
prospered,1
”you,1
fueled,1
empowered,1
essential,1
mistake:,1
defendants,1
girls,1
usmca,2
fighters,2
meaningful,1
japanese,1
approvals,2
warning,2
chairs,1
)when,1
celebrating,1
beneficiaries,1
deduct,1
image,2
cancerous,1
ribbon,2
celebration,1
electromagnetic,1
carry,1
necessity,1
negotiators,1
mountains,1
“maybe,1
mistakes,1
india,3
burden,1
layered,1
brightest,1
teachers,12
taliban,1
trouble,2
patents,1
class,1
reawakening,1
counter,1
kept,3
let’s,2
management,1
“crumbs,1
significantly,1
isn’t,1
promotion,1
straightforward,1
very,53
decade,1
practice,1
beheld,1
congress,4
weaponry,3
groundbreaking,1
fractured,1
legislative,1
william,3
french,1
burns,1
encouraging,1
issue,2
literally,1
lower,1
commercials,7
index,1
you’d,2
peaks,1
decree,1
acted,1
“let’s,1
continuing,1
“protestors,1
diagnosed,1
rebuilds,1
wider,1
of:,1
turned,1
eventually,2
sphere,1
vets,1
dependence,1
peril,1
camera,1
modernize,1
sadly,1
seemed,1
slaughtered,1
obnoxious,1
draw,1
off,3
caliphate,1
disabilities,1
complete,1
domination,3
erasure,1
i’d,2
edge,1
ruling,2
yemen,2
i’m,13
relentless,1
colonies,1
chronic,1
months,1
cowards,1
confronted,1
chosen,1
dahlberg,1
expand,1
headquarters,1
daca,6
venezuelan,1
squander,1
coal,1
devastating,1
malice,1
brightly,1
keys,1
investigate,1
devastation,1
preparations,1
oil,2
dreamed,1
“swamp”,1
fight,1
scouting’s,1
brief,1
allows,1
pretty,8
dads,1
recover,1
determine,1
homeless,1
“respectfully,1
selfless,1
radiation,1
memorials,1
lands,1
crumbling,1
strategic,1
azar,2
promised,1
speaking,1
province,1
engines,1
muslims,1
promises,1
breaking,1
proposal,1
vibrant,1
old,1
settled,1
kenton,5
lowered,1
ancient,1
starting,3
conservative,3
conference,1
lifelong,1
braved,1
tanks,1
george,4
paved,1
unemployed,1
braver,1
fights,1
one,19
cents,1
“fellas,1
gridlock,1
pull,1
subway,1
trillions,4
dealer,1
buying,1
threatens,1
assist,1
partially,1
storms,1
country,14
builders,1
excellence,1
willing,2
blessings,1
amazing,5
trivial,1
aids,1
details,1
“vocational”,1
treated,1
smiling,1
ensure,1
epidemic,2
”well,1
buses,1
solve,3
towns,2
“sanctuary,1
region,5
support,3
cold,1
reciprocal,1
learning,1
resolutions,1
cole,2
life,3
expects,1
honey,1
lies,1
promise:,1
pittsburgh,2
cases,1
wide,1
regime,1
brighter,1
mandates,1
fiercely,1
lied,1
damn,1
succeed,1
location,1
dame,1
intimidation,1
chains,1
depresses,1
competition,1
rasmussen,1
none,1
displays,1
infiltrating,1
closing,1
problem,1
voluntary,1
presence,2
abandoned,2
seized,1
reasserting,1
ominous,1
wife,3
come,4
push,1
)every,1
exist,1
story:,1
examples,2
nationwide,2
lift,1
celestino,1
sexual,1
resettling,1
conceived,1
obrador,1
repressive,1
distribution,1
our,30
out,25
cope,1
dark,1
copy,1
dare,1
asses,2
cook,1
apologize,1
puts,1
disciples,1
unravel,1
chorus,2
owe,1
date,1
data,1
own,3
exxonmobil,1
drug,40
successes,1
argentina,1
partisan,1
consequences,1
development,1
edison,1
like,16
resource,1
proposes,1
prestige,1
bloc,2
ending,1
core,1
efforts,1
proposed,1
council,3
ground,2
embassy,1
repression,1
dash,1
sprawl,1
everybody,1
brits,1
penalty,9
line,1
sentencing,2
link,1
recovery,1
hearts,1
regimes,3
affairs,1
limb,1
cost,1
stories,1
aims,1
will,5
confidence,4
fishing,1
assad,1
dictator,1
groups,1
arbitrary,1
allowing,1
rediscovering,1
loopholes,3
tilted,1
o’clock,3
tuesday,2
storied,1
oath,4
york,2
assured,1
challenge,2
dignity,4
locations,1
chips,1
govern,1
americans:we,1
pharmacist,1
your,8
palestinians,1
these,15
begins,1
contributions,1
protected,2
)for,1
eline,1
investing,1
prison,1
sister,2
wins,1
trauma,1
devices,1
kate’s,1
historically,1
outsourced,1
revived,1
wind,1
arrives,1
wasn’t,3
independent,2
ahead,6
achieve,1
talking,1
alvarado,1
fates,1
arrived,1
economically,1
headline,4
denuclearize,1
faced,2
leveraged,1
soviet,1
wipe,1
americans,2
blue,2
speaks,1
unprecedented,1
days,5
combined,1
discuss,1
acceptable,1
harmony,2
cozy,1
roaring,1
bahrain,1
kerry,2
wish,1
deadly,1
miami,2
wise,1
amounts,2
pam,1
conversation,9
verywe’re,1
vicious,1
minors,1
pay,1
revival,1
enormous,1
list,1
rivals,1
wire,2
spending,1
circumstance,1
treasury,1
claims,2
folks,3
paramount,1
permitting,1
chile,1
child,1
divided,1
germany,1
instrument,1
remove,1
wisdom,1
fatal,1
starvation,1
producing,1
fanatical,1
hannity,1
treasure,1
live,1
responded,2
brexit,1
“george,1
victory,2
uniforms,1
with,53
crutches,2
china,6
stoneman,1
service,7
there,12
monuments,2
american,13
russia,1
heroes,2
pen,1
revive,1
per,3
period,1
africa,1
offenses,1
birth,1
peck,1
ever,9
loving,1
assisted,1
even,10
meetings,2
assumed,1
engaged,1
dismantling,1
obama,1
injured,1
imprison,1
americans:less,1
wrenching,1
violence,1
monday,1
cpac,5
pompeo,2
robust,1
bought,4
peel,1
granddaughter,1
ceases,1
verge,1
who’s,1
“tell,1
depletion,1
prohibit,1
imposed,1
manner,1
perils,1
members,2
stock,1
matthew,4
terror,4
heroin,1
everyone,1
surge,1
heroic,1
strengthened,2
kings,1
mccaul,1
firefighters,1
senator,1
denisha,3
out!”,1
evil,1
rarely,1
repatriated,1
$700,1
rising,1
initiated,1
unclear,1
prisoner,1
cause,1
crowley,1
represents,1
imperils,1
intended,2
design,1
working,1
friday,1
monument:,1
conformity,1
department,6
subsidized,1
chief,1
liberties,1
accord,1
aircraft,2
$716,1
kicked,1
followed,1
despite,1
gunfire,1
qatar,1
jessica,2
derailment,1
plunder,1
fantastic,6
interested,1
defeating,1
vessels,1
waivers,1
truths:a,1
painkiller,1
pmi,1
cj’s,1
premiers,1
liberty,1
lawrence,2
meeting,3
portions,1
displayed,2
bible,1
began,1
recognize,1
exerted,1
bravely,1
schwab:,1
brutality,1
reality,1
actions,1
panels,3
“president,2
giving,1
realism,1
prize,1
facts,1
freer,1
excuse,1
sanctioned,1
leppert,1
impeachment,1
tariff,4
trillion,1
demonstrating,1
escape,1
giver,1
gives,1
colombia,1
phenomenally,1
receive,1
pointless,1
implied,1
surplus,3
)remember,1
manhattan,1
seekers,1
theft,1
declaration,1
shaping,2
standing,2
yacht,1
doesn’t,8
defiant,1
prosperous,1
representatives,1
friendship,3
rightfully,1
smith,1
juan,1
placing,1
conservatives,1
she’d,1
disappointed,1
preparedyeah,1
continue,1
attracts,1
realize,1
offers,1
given,1
accountable,1
pre,1
she’s,1
crimes,3
“could,1
unstoppable,1
rusted,1
pro,1
boeing,1
secrets,1
exaggerated,1
country:,1
honduras,5
playing,1
employees,3
asking,4
whoops,1
hooked,2
complaining,1
booming,1
peru,1
anything,2
agriculture,1
retired,1
assembled,1
pipes,1
administration’s,1
“let,1
generic,2
medics,1
later:,1
typical,1
bravery,1
gateway,2
forming,1
striving,1
semitism,1
assassination,1
program,1
infant,1
smugglers,1
put,6
identified,1
gangs,2
trap,1
struggle,1
grows,1
iran,4
iraq,1
heritage,1
awhile,1
light,1
standpoint,1
jude,1
valuable,1
stifling,1
fueling,1
hoax,4
yachts,1
“death,1
250th,4
deportation,1
predatory,1
desire,2
scouting,6
unfortunately,2
disgrace,1
strides,1
china’s,1
january,1
permanent,2
foster,1
backgrounds,1
organized,1
embarks,1
choice,1
travel,1
renovated,1
defeated,1
civilization,1
replace,1
pakistan,3
listen,1
major,1
funds,3
consider,1
gravest,1
group,3
“valor,1
tree,1
flooding,1
reciprocity,2
sailors,1
”one,1
hurts,1
absolutely,2
sustain,1
shutdown,1
request,1
relocating,1
their,15
inherently,1
percent,6
general,3
nominees,2
september,1
tenets,1
uphold,4
eternity,1
process,3
again”,1
requirements,1
clear,1
clean,1
contests,1
neither,1
fulfilling,1
sometime,1
mostly,1
innocent,4
safer,2
primaries,1
trip,1
fiat,1
soft,1
knowledge,1
prime,4
happen,3
loyal,1
mainstream,1
population,1
enthusiasm,3
islands,1
trying,2
millions,9
told…she,1
replenish,1
trans,1
wisely,1
negotiated,1
comes,1
soil,1
capability,1
peter,2
hearing,1
enrolled,1
drains,1
democrats,6
committing,1
thursday,1
redistributed,1
transition,1
tells,1
appeals,1
june,1
series,1
represent,1
compete,1
goodwill,1
clobber,1
hold,1
tale,1
chinese,1
outdated,1
prior,1
talk,4
tall,1
landmark,1
train,1
snake’,1
dedicated,1
ralph,1
snake”,1
planet,2
2001,1
planes,1
granting,1
take,6
danny,1
immediate,1
rigged,1
beneficial,1
jihadist,1
numbers:,1
some,11
additional,1
2011,3
primarily,1
transferring,2
2008,1
tennessee,1
passes,1
can’t–,1
diego,1
passed,1
just,20
venezuelans,1
respects,1
rediscover,1
sold,1
hometown,1
holy,1
peck:,1
darling,1
remembering,1
2020,1
tracks,1
home,3
hole,1
2019,1
existing,1
2018,1
2017,1
tame,1
2016,1
2015,1
owned,1
else’s,1
classmates,1
comforter,1
explain,1
answers,1
hope,2
2030,1
soon,1
executive,1
sons,1
tape,1
husbands,1
song,2
protest,1
heavy,1
hong,2
faraway,1
cancelled,1
longest,1
britain,1
innovators,1
summer,1
exploits,1
robert,1
nikki,1
streaming,1
file,1
hurtling,1
austin,1
bloodiest,1
member,1
caravans,1
creed,1
together,3
within,1
health,2
gathered,1
attackers,1
positive,1
bevin,1
agents,1
“b”,1
harvey,1
refugee,2
evening,1
return,4
instance,1
$800,1
eliminating,1
practically,1
$805,1
serve,1
reptile,1
smile,1
confused,1
fine,2
find,1
host,2
pilots,1
downs,1
day’s,1
protestors,1
drove,1
occur,1
pleasant,1
sort,2
seriously,1
$817,2
fill,1
hears,1
heart,2
task,1
sawdust,2
transit,1
true,2
flaws,1
valley,1
position,3
racked,1
petty,2
tillerson,1
since,3
greats,2
soul,1
abundance,1
dangerous,1
hour,1
leadership,1
alliances,1
heard,3
experienced,1
falling,1
equation,1
sought,1
writers,1
vowing,1
sheriffs,1
skimped,1
discredit,1
extraordinary,1
painkillers,2
online,1
fence,1
coming,4
irving,1
way!we,1
morin,1
firm,1
ongoing,1
contribution,1
mistreated,1
constellation,1
)with,1
fire,1
reason:,1
trample,1
pentagon,1
sticking,1
richmond,1
enthusiastic,1
undertaken,1
disastrous,1
wield,1
processing,1
except,1
programs,1
kidnapped,1
inflicted,1
illinois,1
knocked,2
global,4
mazda,1
outline,1
dogmas,1
unless,2
plants,1
excess,1
operating,1
bullets,1
ought,1
bodyguards,1
accordance,1
restrictive,1
people,45
democracy,3
peninsula,1
“good,1
windswept,1
abandon,1
maduro’s,1
unrealized,1
operation,2
we’d,1
alarming,1
outspend,1
obligations,1
reputation,1
parkland,1
inside,1
mainly,1
leaves,1
restrain,1
unbreakable,1
jean,2
five,2
imbalanced,1
celebrate,1
warmbier,1
hunger,1
offshore,2
announced,2
timelines,1
guessed,1
campaign,1
systematically,1
firemen,1
conflict,2
kills,1
loudly,1
reasons,1
rough,2
traders,1
guantánamo,1
father,1
begging,1
update,1
quo,1
commerce,1
assistance,2
declaring,2
mastering,1
wants,1
wonder,1
every,5
answered,1
again,2
taxpayer,1
artificial,2
indiana,2
disadvantaged,1
retaken,1
negotiator,1
jeff,3
during,2
embodies,1
venezuela,5
schumer,3
otto,1
deregulation,1
price,1
defensive,2
games,1
albuquerque,1
hernandez,2
dependent,2
reduced,1
cherish,1
resilient,1
agree,1
focusing,1
imagination,1
resistance,2
welcomed,1
itself,2
anyone,3
pride,1
disproportionately,1
favorite,1
civilized,1
)you,2
regions,1
sheriff,1
substitute,1
uniform,2
herman’s,1
causes,1
violate,1
hopes,2
reduces,1
event,1
demonstrated,1
wherever,1
witnesses,1
established,1
witnessed,2
agency,1
railroad,1
caused,1
thune,1
gamed,1
agenda,3
’she,1
holocaust,1
cannot,1
televisions,1
veterans’,1
struggled,1
tight,1
space,3
chamber,1
moment:,1
publicity,2
halted,1
bottom,1
commitment,2
motorbikes,1
healed,1
covered,2
bosom,1
thrilling,1
solving,1
normalized,1
professionals,1
terrorist,2
network,1
empowerment,1
lockheed,1
holding,1
moments,1
public,1
disdainful,1
terrorism,3
track,1
looted,1
enslave,1
modernization,1
maine,1
nevada,1
isis,1
stifle,1
charging,1
resources,3
trades,1
heaviest,2
expensive,1
demolish,1
trade,7
currently,1
ambassador,1
unveiled,1
“v”,1
simple:,1
building,3
setting,1
score,1
quote,1
alaska,1
sorts,1
ran,2
sails,1
mentored,1
younger,1
truman,2
authorities,1
hurried,1
endure,1
poster,1
workers:,1
southern,1
robbed,1
dollar,1
rolling,1
targeted,1
departments,1
scott,2
government’s,1
world’s,2
abc,3
abe,1
pulled,1
medically,1
oppression,1
maxine,1
calling,1
childcare,1
scout,17
scour,1
fleet,1
couple,6
moved,1
fourthly,1
kayla,3
agreeing,1
red,1
act,1
offender,1
helped,1
finish,1
further:,1
warsaw,1
gifts,1
swift,1
add,3
dreaming,1
ratify,1
shortchanged,1
christians,1
rex,1
finite,1
)going,1
unpopular,1
mutual,2
cultures,3
therefore,1
washington,4
“deplorable”,1
smashing,1
trust,1
puddle,1
campaigned,1
finalizing,1
soldiers,1
prevent,1
sanctuaries,1
disturbing,1
)under,1
sorry,1
ratings,1
scope,1
duda,1
embrace,2
message,1
recorded,1
manchester,2
crap,1
truth,1
nafta,2
age,2
iranian,1
smaller,1
islamic,1
movie,1
ago,6
rumors,1
rid,1
years,13
rig,1
disappointment,1
pleading,1
backseat,1
reinforce,1
odds,1
decline,1
rip,1
businesses,5
“reciprocal,2
hugging,1
guise,1
exit,1
system,2
keeping:,1
spot,1
mighty,1
presenting,1
aid,1
depleted,2
other,18
aim,1
uncle,1
drastic,1
air,1
skilled,1
defeat,1
involved:,1
speak,2
women’s,3
sacred,1
tender,6
squandering,1
horrors,1
meantime,1
inauguration,1
boat,1
future,2
movement,1
signing,3
donald,2
impressed,1
reigned,1
body,3
missouri,1
commenced,1
trump:,1
brains,1
burglary,1
implemented,1
all,44
always,2
already,3
percentages,1
expense,2
strangers,2
maintaining,1
obamacare,2
wrecker,1
territorial,1
prayers,1
americans:first,1
should’ve,4
words:you,1
hiring,3
contracts,1
ron,1
weakness,1
and,231
row,2
dump,1
snowy,1
ann,1
abroad,1
undermine,1
reelection,1
act”,1
unnecessary,1
any,5
caring,1
qaeda,1
ninth,2
until,1
parson,1
dull,1
collapse,2
expanding,1
thought,7
orrin,4
prostitution,1
legend,1
anywhere,2
chiefs,1
english,1
hired,1
poverty,3
lightning,1
devoted,1
margin,2
broke,1
hosts,1
spirits,1
testament,1
000,1
coexist,1
evangelicals,1
alex,1
manufacturers’,1
hezbollah,2
recipients,1
grade,1
reinforcements,1
choices,1
corruption,7
dunn,1
succeeded,1
increased,1
inspiring,1
increases,1
cried,3
mandating,1
pockets,1
are,34
came,10
grace,1
patience,1
captive,1
visions,1
where,5
stirred,1
arm,2
kids,2
vice,1
art,1
noticed,2
empower,1
delegates,1
abraham,1
call,9
ownership,3
kick,1
partners,2
ask,6
theories,1
relations,1
through,7
ass,1
anyways,1
engagement,2
becoming,1
strength,2
officer,3
run,1
mitch,1
mother,1
extinguish,1
view,1
protests,1
ours,1
pipelines,2
ate,1
all:,1
neighbors,3
warriors,2
yourself,1
”take,1
donate,1
results,1
newest,1
that…we’re,1
out!,1
bold,2
camp,1
volunteer,1
name,1
spaces,1
mourn,1
larry,5
neighborhood,1
benefits,1
congressional,1
presided,1
boom,2
abolish,1
truck,1
book,1
“please,2
defend,1
crying,1
stupidly,1
sympathies,1
introduce,1
rodriguez,1
newborn,1
bond,2
target,3
momentum,7
tokyo,1
obstruct,1
mouth,1
thirdly,1
maguire,2
restricted,1
giants,1
assuming,1
duty,1
commonsense,1
moms,1
81st,1
leader,2
blazing,2
trump,3
yard,1
dangers,3
republicans,1
pledged,1
experimental,1
cast,1
officials,1
broad,1
truly,1
greater,3
cash,1
case,1
generation,1
admired,1
oppressive,1
images,1
scraps,1
tunnels,1
saving,1
cars,4
moon,2
phone,3
slide,1
failing,1
ice:,1
care,6
assault,1
damage,1
tolerated,1
cures,1
fulfilled,2
administration”,1
transfers,1
glorious,2
lebanon,1
protect,1
vile,1
nato,2
reliance,1
more,9
born,1
“momentum,3
anytime,2
people’s,1
pressured,2
kill,1
inaccurate,1
beings,1
“that,1
cured,1
cruz,1
accounts,1
broadly,1
tyranny,1
navy,1
chants,1
simple,2
embezzled,1
choking,1
saluting,1
talent,1
percentage,1
connections,1
rogue,3
negotiate,1
package,1
cave,1
king,2
kind,5
timing,1
overburdened,1
both,3
most,2
transfer,1
gottlieb,1
affection,1
nerve,1
danger:,1
clinics,1
inspiration,1
malaria,1
understands,1
causing,1
reject,2
patient,2
sad,7
phony,2
sequester,1
mentioned,1
san,1
move,1
amount,1
sat,1
alarms,1
saw,1
also,13
say,19
enough,4
dunford,1
increase,1
spread,1
biden,4
said:,1
favor,1
heights,1
organizations,2
simply,1
climbers,1
bad,6
depraved,1
reflected,1
kiss,1
ban,2
nazi,1
suffer,1
megan,7
“look,1
)america’s,1
slogan:,1
bay,1
violated,1
pollack,1
disasters,2
reopens,1
personal,1
unsustainable,1
globe,1
submitted,1
onslaught,1
chemical,1
switched,1
applause,1
greatly,1
denuclearization,2
victorious,1
dean,2
strong,1
deal,15
abuse,1
lobbyists,4
affect,1
facing,1
dead,2
proven,1
eyes,1
“reform,2
sea,1
drain,1
proved,1
see,10
responsibility,1
montana,1
dear,1
compared,1
completion,1
set,2
joined,1
fastest,2
oval,1
sex,1
integrate,1
practices,1
battle,4
awesome,1
visa,2
fighter,1
auspices,1
river,1
jobless,1
transferred,1
beauty,2
promises:,1
bet,1
france,1
clear:,1
“make,1
financed,1
unstable,1
she,1
susan,4
fades,3
debt,1
unaccompanied,1
little,4
deep,1
humane,1
killers,1
maryland,1
regulatory,1
capable,1
delegates:one,1
explained,1
getting,5
undermines,1
await,1
unfair,1
sir,1
outlawed,1
sit,1
over,15
ballot,2
brilliant,1
six,1
living,1
undermined,1
bound,2
firsthand,1
elusive,1
setup,1
avoid,1
big,4
advanced,1
thankful,1
nations,11
bit,1
slaughter,1
thanks,2
improved,1
cautionary,1
convinced,1
advances,1
model,1
animals,1
reduce,2
sky,1
afghan,1
fellas,1
large,1
20th,1
lgbtq,1
compromises,1
tomorrow,1
foolish,1
transactions,1
someday,1
country’s,1
‘he’s,1
defy,1
doctrine,1
begin,3
secondly,1
history–,1
weekend,1
prosecutions,1
finishing,1
hopefully,2
immigrant,1
tradition,1
convicted,1
table,1
creator,1
implementing,1
change,4
clapped,1
wilbur,1
likewise,1
corporate,1
discovery,1
salman,1
facilities,1
theirs,2
constant,1
several,1
office,1
angel,1
northern,1
bmw,1
”like,1
stands,1
son,2
bankrupted,1
dismantled,1
sow,1
petroleum,2
incoming,1
discretion,2
escalated,1
thrown,1
throws,1
permanently,2
mammoth,1
deduction,1
bob,5
tax‑cut,1
enacted,1
announcements,1
reinvigorated,1
behind,1
dozens,1
tenth,1
what’s,4
medicaid,1
box,1
mental,1
boy,6
says:,1
murphy,2
ripped,1
auxiliary,1
prices,1
beachhead,1
highly,1
chance,2
nature,1
illegally,1
stand:,2
clerk,1
100,3
essentially,1
closest,1
windfall,1
americans’,1
baltimore,1
county,1
stood,1
pains,1
fighting,1
encouraged,1
putin,1
115,1
116,1
horrible,2
staub’s,1
friend,1
draws,1
heartache,1
societies,3
extremism,1
motorbike,2
make:,1
deny,2
closely,1
horribly,1
australia,1
120th,1
would’ve,1
glory,1
morning,1
actors,1
mission,3
doctors,1
smuggle,1
shooter,1
regains,1
stops,2
conditions,1
motor,1
sue,1
jogging,1
overcome,1
cooperate,1
sum,2
grounded,1
ports,2
neighboring,1
extended,1
serving,1
current,1
democrat,2
secretary,5
civilian,1
offensive,1
makes,2
enemies,2
strangling,1
threatened,4
honoring,1
beloved,1
147,1
accomplishment”,1
handled,1
depths,1
idlib,1
story,1
but,65
symbol,1
calamitous,1
“independent,1
buy,2
express,1
150,1
advocate,1
151,1
zero,2
america:tonight,1
cheered,2
157,1
missile,1
distinctions,1
written,1
passion,2
steinle,1
coordinate,1
greatness,1
dealers,7
160,1
stole,1
enhanced,1
tube,1
ocean,1
crumbs,2
naval,1
desk,1
higher,1
inchon,1
doing,13
brazil,1
idea,1
unfolding,1
logjam,1
prisoners,1
174,1
flush,1
nation:,1
missing,1
jamboree,5
successful,1
lovely,1
encourages,1
socialist,1
figure,1
brutal,2
airway,1
socialism,2
pushers,2
stone,1
migration,4
cindy,1
passing,1
“yeah,1
)agent,1
streets,1
tested,1
immensely,1
193,1
seconds,1
children,2
road,2
review,1
massachusetts,3
nobody,2
guide,1
goal,6
natural,2
rightly,1
kingston,1
motto,1
)together,1
substantially,2
pervasive,1
flag,2
racing,1
unsavory,1
range,1
there’s,4
rock,1
flat,1
smears,1
1970s,1
generals,1
twisted,1
broadcasts,1
well‑being,1
cease,1
prescription,4
uplifts,1
elements,1
scarce,1
apology,1
currencies,1
begun,1
hopeful,2
tremendous,11
leasing,3
growing,3
teammates,1
tab,1
globalists,1
draconian,1
suspending,1
campfire,1
tenure,1
tap,1
alarmed,1
goes,1
behaviors,1
patients,1
tax,1
towards,1
chances,1
safe,6
destined,1
departure,1
fragile,1
presidential,1
herself,1
potentially,1
covering,1
instances,1
flee,1
graham,2
distinct,1
fled,1
aware,1
can,15
drama,1
targeting,1
delegation:,1
stoppage,1
car,1
flew,1
limitless,1
topped,1
endowments,1
said,28
stamps,1
carried,1
february,2
ireally,1
reunification,1
hail,1
really,15
carrier,2
immigrated,1
response,1
counterparts,1
