chesterArthur,Occurences
half,1
belligerent,1
reformatory,1
disapproval,1
salary,3
naturalized,1
dishonor,1
commends,1
ten,1
sake,1
energy,1
deference,1
switzerland,1
competent,2
investment,2
*,3
require,3
carriers,1
avoidance,1
1,1
2,8
3,12
4,5
5,4
6,10
7,4
8,1
9,4
protective,1
roll,1
concede,1
turn,1
hans,1
result,2
gold,2
opposition,1
harber,1
same,7
commission,3
after,1
connect,1
hand,1
resume,2
a,1
b,2
c,1
collisions,3
d,1
e,1
f,1
g,1
h,2
i,1
j,2
blood,1
m,2
neighbor,1
n,1
the,50
entering,2
sale,1
s,3
w,1
exciting,1
obvious,1
information,1
november,5
business:,1
good,2
faithful,1
amounted,2
suffered,2
besides,2
serious,1
predicted,1
delivering,1
rome,1
savages,1
gone,1
divergence,1
aside,1
reopening,1
enjoined,1
disturbed,1
raging,1
provided,1
effecting,1
representation,1
embody,1
motive,1
provides,2
postmaster,2
reenforce,1
quarters,1
room,1
better,1
lawmaking,2
21st,1
permit,1
suitable,2
andgovernment,1
taking,1
pupils,1
prohibits,2
gained,1
exerting,1
struck,1
flow,2
order,7
protecting,1
simonoseki,1
faiths,1
propose,2
reform,1
sydney,1
ensue,2
woman,1
save,3
protection,1
scrap,1
too,3
have,1
energetic,1
avail,1
question,9
additions,1
spirit,1
ross,3
intellectual,3
regard,4
cod,1
67for,1
thousand,2
quietude,1
representative,2
disapproved,1
longitude,1
circumstances,1
including,1
96of,1
markets,2
anew,1
200,1
201,2
obligation,1
204,1
violation,1
205,1
206,1
try,1
209,1
patriotic,3
became,1
ceded,2
unclaimed,1
effective,1
times,1
direction,1
whence,1
9853,1
20l,1
220,1
reservations,4
225,1
stable,1
227,1
228,2
canton,1
229,1
grapple,1
productions,1
impelled,1
incident,2
exceeds,1
japan,5
fullness,1
uncertain,1
concern,3
230,1
unoccupied,1
defines,1
234,1
refrain,1
237,1
states:it,1
state,2
contrasted,1
defined,1
element,1
appointments,3
22d,1
probable,5
thewashington,1
243,1
244,1
clouded,1
247,1
248,1
249,1
creating,1
monitors,2
sweeping,1
cut,1
probably,1
jurisdiction,1
constitutional,1
manly,2
two,1
250,1
251,2
moment,1
254,1
desired,4
257,3
258,1
attack,2
259,1
reported,2
prevented,1
creation,1
immigrants,4
think,1
participate,2
occurred,1
forbidden,1
desires,1
accused,1
replaced,1
services,1
260,1
261,1
forfeited,1
262,1
263,1
264,1
chilean,1
265,1
filling,1
mistress,1
speech,1
269,1
cabinet,1
privileges,1
israelites,1
caucasian,1
vexatious,1
271,1
participant,1
domestic,1
initiate,1
275,1
276,1
paying,1
279,1
dying,1
guaranties,1
actual,1
eastern,2
reflection,1
ultimate,1
widely,1
280,2
281,2
enlisted,2
283,1
285,1
privileged,2
287,2
suited,1
assume,2
halls,1
johns,2
memory,1
290,1
292,2
house,2
postages,1
297,1
299,2
construed,1
intercourse2,1
intercourse1,1
imbittered,1
hours,1
unjust,1
opposing,1
cairo,1
shore,1
start,1
earliest,1
fallen,1
jerome,1
conveniences,1
short,1
commonwealth,1
replete,1
reducing,1
measured,1
abreast,1
regulate,1
obstacles,1
ninety,1
required,2
measures,1
states:at,1
enter,1
savings,1
restoration,2
benignant,1
sessions,2
destroy,1
deemed,1
grouping,1
railways,1
respectfully,2
coast,2
requires,1
ventilation,1
exponents,1
31for,1
unknown,1
assure,1
consult,1
consuls,1
survive,1
performed,1
prevalent,2
compact,2
speedy,1
friendly,1
possession,1
shores,1
manila,1
dam,1
enlightening,1
shows,2
shown,1
infusion,1
forcibly,2
majesty,1
day,1
raising,1
claimants,1
island,3
created,1
wharves,1
water,8
corps,1
formal,1
countless,1
forcible,1
fervor,1
creates,1
06for,1
elsewhere,1
tend,1
guarded,2
inducement,1
equitable,1
sixteen,1
saskatchewan,1
restraints,1
dated,1
introduction,1
built,1
heavily,1
peking,1
successively,1
third,2
meridian,1
build,1
further,2
demands,3
contracted,1
exemption,1
interdependence,1
examining,1
railway,2
exuberance,1
reimbursement,1
abusing,1
cuba,3
announcement,1
carefully,1
banks,7
going,1
shock,1
committees,1
beginnings,1
distinctively,1
fines,2
attitude,1
treatment,1
average,4
compare,1
undemocratic,1
obstructions,1
bodies,1
investments,1
term,1
acquisition,1
rigid,1
business,1
withdrawing,1
right,2
possible,2
partly,1
leone,1
constrained,1
00for,1
inscribed,1
taught,1
stage,1
returning,1
maximum,3
waiter,1
under,4
did,2
quarter,2
proposing,1
die,1
repealed,4
bulgaria,1
emory,1
believing,1
$1,7
$2,2
exemplary,1
$3,1
fineness,2
$4,1
$5,1
$6,1
later,1
$7,1
passport,1
$8,1
$9,1
considerate,1
forgotten,1
evils,2
highway,1
possibly,1
impair,1
renewing,1
test,2
journey,1
finally,1
kinship,1
remained,1
enforcement,1
thereafter,1
conviction,1
louisiana,1
hideous,1
acceptance,1
final,2
expiration,3
deserving,1
distract,1
occasion,1
loan,1
embraces,1
back,1
training,1
expectation,1
states,8
bureau),1
duration,1
pound,1
load,1
engagements,3
company,1
length,2
advert,1
concerns,2
schedule,1
property112,1
grant,2
showing,1
000and,1
armies,1
bureaus,1
118),1
(1,1
construct,1
(3,1
attempt,1
conciliating,1
balance,2
randall,1
undeserving,1
lock,1
resorted,1
text,1
renounced,1
exceeded,4
framing,1
made,1
statue,1
electrical,1
being,1
48for,1
invalid,1
(a,1
interval,1
status,1
trading,1
embarrassed,1
portugal,1
stamp,1
operated,1
bands,1
(u,1
scattered,1
government,3
exemptions,1
known,1
3/4,1
crime,1
characterized,1
36for,1
cultivation,1
300,3
303,1
304,1
305,1
306,1
307,1
309,1
discreet,1
generaltreasury,1
repealing,1
mail,2
creditably,1
use,2
subject,1
certifying,1
edward,1
main,5
forties,1
arrangement,1
revenue,11
sufficiency,1
312,1
concentrated,1
314,1
monopoly,1
negotiation,1
pledging,1
319,1
grain,1
credit,1
24for,1
discountenance,1
alter,1
fraudulent,1
concentrates,1
bearing,1
establishment,1
includes,1
embroil,1
deposits,3
clayton,1
originate,1
dispose,1
augurs,1
fidelity,1
commended,2
330,1
333,1
336,1
hither,1
337,1
338,2
suppressed,1
included,3
make,1
hostilities,1
attempting,1
opposed,1
questioned,1
rapidly,1
340,1
intensity,1
witness,1
343,1
345,2
freeing,1
due,4
346,1
nourished,1
conform,2
348,1
invention,1
00,13
01,1
02,3
inform,2
03,1
04,2
05,2
avowed,1
commit,1
23167,1
09,1
cure,1
sorrow,1
350,2
garfield,1
observed,1
352,2
presidency,2
bank,4
meaning,3
bane,1
expended,3
band,1
beneficent,1
10,3
12,1
599chemicals38,1
13,1
14,1
august,3
15,3
divergent,1
16,1
17,1
18,4
19,1
600),1
execute,1
360,1
benefit,2
labor,1
362,1
highest,1
368,1
allies,1
20,2
21,1
22,1
transporting,1
23,1
24,2
25,3
26,1
27,1
examine,1
28,1
participated,1
29,1
experiments,1
industry,1
371,1
long,2
remember,1
1st,1
377,1
378,1
garrisons,1
invites,1
examined,1
relationship,1
30,8
31,1
33,1
34,2
35,1
expression,1
36,1
37,1
star,3
38,1
39,3
380,1
many,1
382,1
383,1
stay,1
385,1
controlled,1
386,1
extensive,1
repelling,1
coasting,3
increasing,6
progress,3
40,1
41,1
42,2
coequal,1
43,1
seeks,1
columbia1,1
devote,1
45,2
agent,1
wool,2
46,1
47,2
militia,2
48,1
49,1
wholly,1
refunding,2
odious,1
numbers,2
rapid,2
expressing,1
seven,1
390,1
391,1
396,1
sealer,1
3d,1
397,2
398,1
399,1
sever,1
bark,1
wood,1
50,3
51,1
52,1
columbia3,1
53,1
54,1
theeuropean,1
55,1
surprise,1
56,1
57,2
58,1
59,1
sealed,1
murderer,1
invited,1
complaints,1
modification,3
crushed,1
look,1
grounds,1
korea,4
murdered,1
60,2
61,1
62,1
63,1
64,1
colombian,2
66,1
67,1
subsistencedepartment,1
needed,1
mass,1
jurisprudence,1
speed,1
67$137,1
admit,1
common,1
interest,1
themselves,1
71,2
72,2
73,1
74,1
78,3
79,1
cubic,2
apply,2
steamer,2
mars,1
schley,1
gratifying,3
separated,1
bars,1
80,1
separates,1
81,1
step,1
fisheries,3
82,1
83,1
84,1
85,2
86,2
tribute,1
comrades,1
87,2
89,1
subordinate,1
estates,1
requisition,2
loss,1
incentive,1
relate,2
premises,1
lost,2
90,1
91,1
92,1
93,1
preliminary,1
95,2
capitalists,1
96,1
controlling,1
97,2
repayment,2
18659,1
98,3
work,1
exceptional,1
cattle,1
staten,1
inequality,1
registration,1
missionary,1
word,2
stated,4
theory,1
love,1
extension,1
argentineconfederation,1
6090,1
foundation,1
across,1
unwise,1
illumine,1
inaugurate,1
europe,3
prevailed,1
disagreement,1
188247,1
removals,1
consolidation,1
opinion,2
regulations,4
devotion,1
exists,1
indian,6
18647,1
rhenish,1
existence,2
threshold,1
unqualified,1
ramifications,1
mining,1
revision,3
waterways,1
visitors,1
preparing,1
provision,3
955more,1
seems,2
commence,1
1992),1
scientific,1
fomented,1
winter,1
insure,1
fairness,1
heartily,1
grave,3
arsenals,1
advantage,2
instead,1
shipments,1
indies,1
abortive,1
cuban,1
bullion,2
exception,1
temporary,4
animosities,1
hands,2
year,49
sufficiently,1
allowed,1
branch,1
emergencies,1
awaiting,2
understanding,1
empire,1
surveying,1
near,3
agrees,1
inspired,1
economy,1
flathead,1
community,1
(89),1
minnesota,1
stop,1
prudence,1
383total,1
boston,3
appropriate,1
usefulness,1
rodgers,2
least,3
immediately,1
resignation,1
subsequently,1
representatives:having,1
follows:from,1
submarine,1
variations,1
devastated,1
agreed,1
fostering,1
unfriendly,1
were:,2
learn,1
etc950,1
cruising,2
turin,1
newer,1
intrusion,1
missions,1
severe,1
specie,2
instructions,1
notes,2
evidence,2
occupancy,1
remodeled,1
amity,3
official,1
signified,1
spring,1
leave,1
predestined,1
assigns,1
peoples,1
minister,2
need,6
vexed,1
often,5
obtaining,1
tests,2
canada,1
traditions,1
hardly,1
lasting,1
useful,1
private,3
10th,1
complained,1
precisely,1
calamity,1
accomplish,2
von,1
intentionally,1
end,3
lines,3
fails,1
forty,1
special,1
undertaking,1
referment,1
atnew,1
discretionary,1
slightly,2
education,6
occupation,1
called,1
revenue$15,1
springs,1
nationalities,2
assays,1
occurs,1
costarica,1
fullest,1
gradually,1
tried,1
burdensome,1
collins,1
siamese,2
deepest,1
succeeding,1
outbreak,2
sources17,1
narrow,1
proceedings,1
decadence,1
shape,1
comport,1
seventy,1
momentous,1
specify,1
allegiance,1
forth,1
nicaragua,9
400,3
seventh,1
pertinent,1
402,1
403,1
404,2
graver,1
407,1
408,1
weapons,1
authors,1
melville,2
valid,1
410,1
asked,1
pauper,1
triable,1
412,1
rights,1
415,1
416,1
ere,1
share,1
417,1
418,1
419,1
thoroughly,1
420,1
species,1
callao,1
426,1
429,1
strongest,1
cent,18
indemnity,2
customs$195,1
mexican,1
autonomous,1
trial,3
declares,1
432,1
etc,10
($250,1
436,1
437,2
439,1
june30,1
belgium,1
subjected,1
below,4
intimately,1
shall,1
rigorous,1
443,1
444,1
445,1
tribe,1
races,1
therefor,1
unexpectedly,1
financial,2
indictments,1
promulgated,1
turreted,1
450,2
451,1
exalt,2
harborimprovements,1
454,1
457,1
458,1
tokens,1
commensurate,1
render,1
republics,1
declared,4
endeavor,1
armored,1
rates,1
relieve,1
adjacent,1
460,1
461,1
462,1
463,1
464,2
466,1
468,1
469,2
forms,1
summon,1
achievements,1
maintain,1
belgian,1
farther,1
establishing,2
472,2
473,1
474,2
companies,2
475,1
478,1
479,1
pounds,1
represented,4
zealand,1
beneficence,1
convocation,1
remain,1
expected,2
sustenance,1
countries,4
480,1
481,1
485,1
himself,1
487,1
wanted,1
489,1
deposit,1
continent,2
disturbance,1
another,1
688in,1
enemy,1
hindered,1
494,1
496,1
497,1
indolent,1
envoy,3
499,1
indemnify,1
cemetery,1
triumph,1
horror,1
defray,1
ratification,1
such,4
andimprovements,1
incorporation,1
penalties,1
presently,1
florida,2
administration,1
remains,1
arriving,1
incorporate,1
jurors,1
features,3
white,1
embrassment,1
termination,1
seeming,1
might,1
examiners,1
sharing,1
expressions,1
improving,1
servants,2
museum,1
embarrassing,2
leads,1
patriotism,1
fields,1
next,1
furnishing,1
import,1
submit,3
classes,2
conclusion,2
doubtless,6
central,2
impose,1
erichsen,1
derived,1
postponed,1
severity,1
race,1
congresses,1
was,1
war,13
way,2
realization,1
wagons,1
excellencies,1
bolivia,2
african,1
attempted,1
play,1
yorktown,3
taxes,3
96the,1
decide,1
guarantor,1
issues,1
packets,1
confirming,1
collections,1
far,1
taxed,2
issued,1
plan,3
double,1
lowest,3
feasibility,1
denial,1
study,2
differences,1
portion,5
gain,1
receiving,1
older,3
berlin,2
unprovided,1
climate,2
continuously,1
great,1
rags,1
ordained,1
73for,1
peaceable,1
pleased,1
sides,1
terminating,1
statistics,1
arrest,1
distinction,1
disability,1
fee,1
section,3
discontent,1
retirement,2
originated,1
looks,1
protocol,1
unfavorably,1
presented,2
few,1
highways,1
strain,1
rail,1
opened,1
83from,1
exceptions,2
produced,1
hebrews,1
voyage,2
outside,1
effect,1
explaining,1
topic,1
sugar,2
sums,1
embarrass,1
who,1
raid,1
option,1
erection,1
precipitancy,1
contribute,1
faith,2
why,1
died,1
hospitality,1
electric,1
drafts,1
khedive,1
bolivar,1
recommended,3
000),1
barriers,1
matters,1
various,4
administrative,1
festivities,1
attention,2
fulfillment,1
visit,1
reduction,5
extent,6
17from,1
appointing,1
skins,1
fix,1
honest,1
rank,1
pension,8
assumption,1
rehearing,1
outlet,1
addition,3
doubts,1
24th,1
sure,1
excited,2
ah,1
supremacy,1
locality,1
ordinarily,1
proceeding,1
am,1
an,1
dreaded,1
former,1
extend,1
as,2
at,1
au,1
interpretation,2
intermediate,2
looking,3
formed,1
be,5
prove,1
intimacy,1
accusing,1
systems,1
paraguay,1
sudden,1
by,6
abandonment,1
foot,1
enabling,1
outstanding,4
charge,3
keeping,1
food,1
42$51,1
476hides,1
unfit,1
interview,1
freely,1
expenditure,1
carlos,2
de,3
commanders,1
language,1
do,3
observe,1
dr,1
furnish,2
accomplished,2
rare,2
won,1
justin,1
encroachment,1
preceded,1
criticism,1
needy,1
which,4
needs,1
relinquishes,1
coinage,2
precedes,1
favored,1
profound,1
never,1
advantageously,1
amending,1
exchangeable,1
for,6
filibustering,1
content,1
isthmus,2
perhaps,1
rate,1
alert,2
oils,1
skill,1
depots,1
divide,1
prosperity,2
representatives:i,1
contrary,1
brigandage,1
governors,1
thence,1
go,1
specification,1
0085,1
accumulations,1
justly,1
form,5
500,1
504,1
505,2
renew,1
fort,1
he,1
508,1
withdraw,1
lapsed,1
placed,1
geneva,1
merchandise$724,1
welfare,2
divine,1
relationships,1
appeared,2
511,1
four,3
else,2
512,1
513,1
contemplate,1
514,2
easily,1
unaware,1
517,1
if,1
519,1
resentments,1
ii,1
likely,7
unbroken,1
disputed,1
advisory,1
in,3
maturity,1
is,5
impartiality,1
it,3
schemes,1
aimed,1
disputes,2
lively,1
521,1
supplement,1
525,1
gave,1
alteration,1
become,5
lawful,1
$10,2
$11,1
$12,1
accrue,1
$14,2
$16,2
$17,2
$18,2
occurrence,1
$19,1
disposal,1
settlement,1
534,1
dire,1
customary,1
sending,1
538,1
539,1
ability,1
stipulates,1
belief,1
immigration,2
$20,1
states:after,1
$21,1
$23,1
suggestion,6
$25,3
ingots,1
$27,1
$29,1
clearing,1
disposition,3
patented,1
places,1
541,1
542,1
543,1
544,1
545,1
547,1
548,1
conscious,1
accomplishment,1
$30,1
fur,1
reaped,1
$36,2
pursuant,1
political,3
$39,1
while,1
enterprises,1
second,1
550,1
that,3
suggests,3
554,1
556,1
than,1
sufficient,2
557,1
limit,1
me,1
communication,4
cabinets,1
smoothbore,1
profited,1
$42,1
contest,2
$44,2
mr,2
alabama,1
$47,1
adjudications,1
$49,1
feeling,3
liveliest,1
my,2
stipulated,1
expansion,1
license,1
562,1
fiscal,1
orleans,1
noble,1
postpone,1
magellan,1
$50,2
no,4
$54,1
careful,4
seal,1
mixed,2
storage,2
25by,1
570,1
elapsed,3
572,1
head,2
573,1
574,1
575,2
misunderstanding,1
578,1
of,26
imported,2
capacities,1
occupied,2
$60,1
rescue,1
on,1
or,2
influx,1
$66,1
580,1
occupies,1
581,1
intelligent,1
583,1
redeemable,1
586,1
easier,2
knit,1
infringement,1
sitting,2
dominican,1
$74,2
$75,1
nation,1
readily,2
$79,1
registered,1
determination,1
convenience,1
discipline,2
590,1
594,1
595,1
597,1
proclamation,2
inevitably,3
adversaries,1
hundreds,1
recent,5
they,2
suspension,1
6242,1
them,1
allowance,1
then,1
17for,1
seat,1
seas,1
adopt,1
attorney,2
teachings,1
oppose,1
obtained,1
$90,1
bridge,1
$91,1
danubian,1
$92,1
discovered,1
strengthening,1
executed,1
seek,2
seen,1
seem,5
128coffee49,1
insuperable,2
so,1
apart,2
exported,1
calendar,1
maintains,1
st,3
necessary,1
decision,2
squadrons,1
abominable,1
heed,1
closer,1
single,1
consequent,3
to,11
commercial,2
joint,1
separate,3
reasonable,1
generations,1
endangered,1
risking,1
rules,7
nebraska,1
pensions55,1
embracing,1
military,1
up,1
us,2
militate,1
waters,1
usual,1
this,1
reasonably,1
pensions66,1
thin,1
28the,1
remarkable,1
defrayment,1
purchased,1
fermented,1
sees,1
failure,1
intrenched,1
suggesting,1
changed,1
changes,4
indisposed,1
perpetuate,1
we,1
willingly,1
sources31,1
summoned,1
examination,6
disposed,3
slight,2
previous,5
hawaii,1
securing,1
enactments,1
vacancies,1
roumania,1
compensation,1
bankrupt,1
acknowledgment,1
localities,1
held,4
southwestern,1
courts,4
fruitful,1
april,1
beyond,1
troops,3
masonic,1
scrupulously,1
terms,2
madagascar,1
deeply,1
proof,1
phase,1
petersburg,1
contract,2
conclude,1
provisions,1
workingman,1
exact,1
force,8
ecuador,2
ascertaining,1
south,1
precautions,1
thegovernment,1
north,1
hemp,1
get,1
continues,3
course,10
power,1
rivers,1
yielding,1
premiums,1
continued,7
sojourning,1
quelled,1
coffin,1
theindians,1
depth,2
monadnock,1
ended,1
self,2
located,2
exposition,1
unyielding,1
depot,1
hindrance,1
harbor,2
treasurer,1
sales,3
alexy,1
2744,1
costa,1
barrier,1
create,2
criminal,1
77from,1
comforts,1
tariffs,1
49from,1
incapacity,2
nuisance,1
sent,1
marauders,1
purposes,3
treasured,1
send,1
inconsiderable,1
thereupon,1
expenses,3
here,4
necessities,2
composers,1
purpose,1
regret,1
rejected,1
scale,1
renews,1
superiors,1
engaging,1
security,1
organize,1
observations,1
station,1
confidently,1
follow,1
intent,1
revenues,7
factors,1
expenditures290,1
treaty,11
ounce,1
29for,1
german,1
satisfactorily,1
exceeding,1
numerous,1
recognized,1
without,1
youth,1
introduced,1
proffer,2
compartment,3
sovereignty,2
inlandstates,1
persistent,1
authorize,1
mormons,1
variousforms,1
thus,1
destinations,1
possess,1
volunteers,1
devise,2
replies,1
extinguishment,1
recognizes,1
inefficient,1
much,1
entitled,1
chapter,2
rejecting,1
misery,1
are:,1
resolved,1
committed,1
committee,1
intrusted,1
union,3
ruined,1
returned,1
adopted,2
novel,1
prominence,1
standard,3
reports,5
correct,1
institution,1
aspirations,1
avert,1
contributed,1
area,1
shipment,2
59for,1
european,1
alienation,1
remunerative,1
contributes,1
lack,2
governmental,1
neglected,1
ingenuity,1
600,1
success,7
authority,3
601,1
603,2
instituting,1
cleared,2
609,1
promptings,1
young,2
obsolete,1
611,1
unhindered,1
616,1
sustaining,1
departed,1
negotiations,2
laborers,2
620,1
redemption,4
complaint,1
remonstrances,1
623,1
lady,1
624,1
628,2
pensions16,1
named,1
injustice,1
foreigners,2
indifference,1
offense,2
considered,3
channel,1
favorable,1
changing,2
entire,4
approach,1
qualifications,2
decisive,1
632,2
thewestern,1
634,1
635,1
637,2
638,1
639,1
portsmouth,1
passengers,15
envoys,1
loyalty,1
corporation,2
dismiss,1
suspended,1
intelligence,1
injuriously,1
million,1
642,1
643,1
strongly,2
manifested,1
646,1
648,1
legacies,1
649,1
bulk,1
bull,2
favorably,1
larger,1
gun,1
hundred,1
iniquity,1
restrict,1
650,2
651,1
legislate,1
encumbering,1
native,2
656,1
alsothe,1
costly,1
blackfeet,1
hitherto,1
accordingly,4
consequence,1
laid,1
particularly,2
dominant,1
discussed,1
halmer,1
lain,1
pacific,11
inconsistent,1
opportunities,1
661,1
662,1
names,2
664,2
665,1
666,1
attorneys,1
668,1
practicability,1
armaments,1
notoriously,1
tide,2
possibilities,1
predecessors,1
franchise,1
arrears,7
almost,2
conduce,1
equally,1
adjudicating,1
equipping,1
sustained,1
suits,1
associate,1
671,2
earlier,1
675,1
676,2
whether,9
reexamining,1
counting,1
liability,1
basin,1
basis,1
affected,1
army,1
682,1
683,1
contentions,1
annum,2
686,1
arms,1
october,1
virginia,1
lake,6
silver37,1
473in,1
replied,2
unite,2
combat,1
manifestly,1
restoring,1
these:,1
690,1
accidentally,1
693,1
unity,1
694,1
sacrificed,1
696,1
697,1
ties,1
extra,1
land,1
importation,1
elevation,1
performing,1
foremost,1
doubtful,1
assimilation,1
livelihood,1
conduct,3
extending,2
quietly,1
remonetization,1
refusing,1
clauses,2
decay,1
discussion,2
crook,1
lesser,1
rifled,1
welcome,1
events,1
marsh,1
interchange,2
discussing,2
separately,1
mankind,1
abundant,3
want,1
marshes,2
herewith,1
rifles,1
induce,1
difference,2
must,2
memorandum,1
reside,2
ward,1
sabine,1
found,1
etc298,1
defense,1
currency,5
canal,16
arts,1
limits,2
736imports:,1
states:i,1
intimate,3
simplification,2
entirely,2
disclose,1
marts,1
powerless,1
extensively,1
antagonism,1
attend,2
waged,1
goods,1
had,11
secure,1
antagonist,1
late,6
differing,1
school,1
preserved,2
proclaimed,1
things,1
immense,2
has,3
last,13
definite,1
weight,1
warn,2
warm,1
measure,1
injurious,1
evacuated,1
exports,12
impossible,1
effort,2
settling,1
exercising,1
impoverished,1
ends,1
contemptuously,1
vote,1
steady,1
early,7
commissioners,3
disease,1
intruder,1
yet,4
reserving,1
formalities,1
engineer,1
reconnoissance,1
alike,1
wages,1
inasmuch,1
time,2
buenos,1
applications,1
aroused,1
happy,1
electoral,1
governments,2
her,1
abrogating,1
authorized,4
tiding,1
torpedo,1
laws,2
having,6
sugars,1
russian,1
authorizes,1
supreme,5
slope,2
kansas,1
passenger,4
customarily,1
disqualify,2
merits,2
confirmed,1
alien,1
concurring,1
sculptors,1
ways,2
attest,1
uncultivated,1
preponderance,1
hamburg,1
officersof,1
efficient,1
entirety,1
chair,1
consistent,2
sword,1
hisgovernment,1
columbia256,1
governed,1
small,3
gallant,1
beam,1
before,2
him,4
his,8
bear,3
potential,1
awaited,1
repeatedly,2
pleaded,1
history,2
grossly,1
square,1
repairs,1
twice,1
debt5,1
interference,1
1864133,1
98from,1
00of,18
devolves,1
allusion,1
point,3
devolved,2
ceiling,4
deserve,3
artisan,1
were:for,1
restore,1
hereafter,3
diplomatically,2
solicited,1
alternative,1
crowded,1
protectorate,1
submits,1
debts,1
approve,1
valued,1
determining,1
suggestions,7
abrogation,1
attendance,1
settlements,3
13th,1
been,2
advance,1
foregoing,1
diverse,1
strict,1
reflects,1
you,4
safely,3
limitations,1
giles,1
tangier,1
opportunity,2
active,2
court,7
lacked,1
misuse,1
subsidiary,1
disregarded,1
diverts,1
natives,1
firms,1
advising,1
ofmerchandise,1
abuses,1
interior,2
thereto,1
how,3
assembly,1
subjects,1
assemble,1
march,1
cargoes,2
repel,1
advantages,1
meet,1
answer,1
regarded,4
calls,4
700,3
restored,1
702,2
703,1
705,2
encroachments,1
706,2
publications,1
dispatch,1
putting,1
domingo,1
sometimes,3
questions,7
enjoying,2
yards15,1
yards17,1
ignores,1
710,1
reckoning,1
712,2
714,1
715,1
reply,1
718,1
baron,1
dolphin,2
enactment,5
thereof,4
720,1
probity,1
724,1
theserepublics,1
725,1
confusion,1
carrying,2
affording,1
beginning,1
730,1
contraction,2
santo,1
exposed,1
unfinished,1
736,1
737,1
738,1
outward,2
notice,4
bloody,1
grants,2
lumber,1
asia,3
superintendence,1
outlast,1
683this,1
although,5
741,1
encouragement,1
743,1
tubes,1
747,1
president,1
contracting,1
fortunes,1
relinquishment,1
therein,1
adventurous,1
dropped,2
america,2
750,1
753,1
756,2
action,11
manifold,1
fabrication,1
sensitive,1
distributions,1
procuring,2
accompanied,1
afford,1
fires,1
reached,4
766,1
767,1
769,1
acting,2
releif,1
ably,1
enforcing,1
dealings,1
whereupon,1
notify,1
products,5
eight,2
770,1
thetis,2
778,1
periods,1
disapprove,1
guaranty,1
illness,1
could,1
topics,1
freightage,1
beneficencecongress,1
marks,1
782,1
withhold,2
785,1
786,1
trusted,1
affixed,1
able,1
789,1
cheaper,1
forged,1
concerned,1
conscience,1
cheapen,1
follows:merchandise$667,1
british,6
encampments,1
790,1
791,1
794,1
795,1
solution,4
796,1
unmanufactured,1
797,1
799,1
mourns,1
supplementary,1
international,1
calculated,3
citizen,2
cities,1
difficult,1
steps,1
friends,2
corporations,1
forget,1
principles,1
testifying,1
present,1
quieting,1
problems,1
strife,3
arrested,1
belong,1
accommodations,2
borders,1
surveys,3
best,1
movements,1
transform,1
advise,2
regulating,1
magnitude,1
steamboat,1
certainly,1
merchandise15,1
compound,1
master,1
concerning,1
regulation,1
conventional,2
accommodation,1
mere,3
opinions,1
electors,1
articles:sugar,1
feared,1
frauds,1
cover,1
competitors,1
devolve,1
based,2
intention,2
pointed,1
thereby,2
impulse,1
remonstrance,1
abra,1
concur,3
religious,1
nevertheless,1
fact,1
fundamental,1
notes13,1
unmindful,1
bases,1
thrift,1
unaccomplished,1
particulars,2
free,1
equality,1
dictation,1
rebellion,1
unnatural,1
intervening,1
valor,1
thorough,1
actually,1
face,1
congratulation,2
alsace,1
convened,1
marvelous,1
cessation,1
showed,1
invite,1
preemption,1
ratio,1
legation,1
ice,2
independence,1
honors,1
reconvened,1
presentation,2
burlingame,9
afforded,6
whenever,3
comitatus,1
sofia,1
enlarging,3
elected,1
contentedly,1
extends,1
vital,2
czar,1
rule,2
20from,1
gulf,2
characteristics,2
inferior,1
commend,3
indeed,3
00total,2
grande,1
deficiency,1
professed,1
removal,1
comment,2
railroads,1
reconsidered,1
guns,2
equalize,1
comparatively,1
discussions,1
fair,2
thatterritory,1
preparation,1
enable,2
safety,1
slavery,1
stipulations,1
profession,1
provisional,1
competing,1
arise,1
fruitless,1
toleration,1
eminent,3
fail,1
filing,1
wines,1
emperor,1
ascertained,4
steel,3
thereof33,1
triumphs,1
church,1
privilege,1
immunity,1
foreign,1
fall,1
mysterious,1
of250,1
(increasing,1
thereof41,1
abstract,1
excel,1
appearance,1
culture,1
hereby,1
incumbents,1
first,3
quotas,1
perfect,1
clearly,1
stringent,3
seacoast,1
preferable,1
stoutest,1
spite,1
punctuality,1
from,1
bench,1
finished,1
rejection,1
incalculable,1
manufacture,2
remitted,1
repair,1
death,2
advice,2
according,2
factories,1
unexpended,2
stead,1
operations,4
paper,1
winds,1
liberality,1
steam,2
discriminate,1
colored,1
idaho,1
value,11
enforced,1
centennial,1
fortune,1
quantity,1
repay,1
nigh,2
fishermen,1
growth,4
winch,1
authenticated,1
texan,1
objects,2
texas,1
resolution,1
properly,1
dutch,1
unsatisfactory,2
definitions,1
grief,1
unlikely,1
needful,1
enduring,1
excellent,1
fairly,2
adapted,1
persons,4
charges,2
advancement,1
800,1
municipal,1
802,1
charged,2
805,1
shortly,3
807,1
providing,2
weeks,1
criterion,1
manual,1
milan,1
retire,1
810,2
814,1
close,1
816,1
817,1
supporters,1
dressier,1
evincing,1
intending,1
embarrassment,1
fast,1
overt,1
comptroller,1
825,1
826,1
citizens,2
nine,1
concurrence,2
asserting,1
centenary,1
agricultural,2
post,4
exhibitors,1
833,1
836,1
protocols,1
837,1
concluding,1
accede,1
educational,2
hurtful,1
its,1
remedy,1
article,1
respect,1
840,1
port,1
841,1
842,1
adjustment,1
hesitate,1
income,1
united,8
production,3
requisitions,1
carlisle,1
fleets,1
debarred,1
peaceful,1
miles,11
850,3
previously,1
bills,1
citizenship,1
honorary,2
improvement,6
863,1
864,1
866,1
pledge,1
869,1
enjoyed,1
college,1
shah,1
excepted,1
number,1
obedience,1
interoceanic,2
873,1
875,1
punish,1
casual,1
coaling,1
property,6
centers,1
879,1
utterance,1
delicacy,1
shorter,2
fund$44,1
nothing,2
testing,1
distributed,2
hotchkiss,1
repaired,1
urged,6
880,1
happily,1
881,1
882,1
884,1
887,1
889,1
silver,4
prejudge,1
partial,1
artisans,2
urges,2
705iron,1
blessing,1
fathers,1
generously,1
city,1
confident,1
exclusion,1
local,4
891,1
894,1
extravagant,1
yield,1
promptly,1
assertion,1
attainments,1
rests,1
filled,1
satisfaction,1
tributes,1
removed,1
powerful,1
objected,1
removes,1
governance,1
sealing,1
construing,1
correspond,1
points,1
rear,1
elapse,1
copies,1
debt14,1
reap,1
modified,1
maintained,4
stocked,1
banks1,1
border,1
constructing,1
read,1
banks9,1
shipmasters,1
generalgovernment,1
admission,5
prompted,1
real,2
unit,1
monthly,2
collect,1
(now,1
adherents,2
jurisdictional,1
telegraph,1
diminished,1
confiscated,1
construction,5
parliamentary,1
saying,1
universal,2
fifteen,3
radical,1
twenties,3
looked,1
mills,1
minute,1
application,6
productive,1
formally,1
banksand,1
profuse,1
reason,1
intimation,1
ship,3
acts,2
erect,1
debt54,1
revolutions,1
exalted,1
aspee,1
debt59,1
annual,7
cotton30,1
exclusive,1
testify,2
occasioned,1
containing,1
investigating,1
completed,1
demand,1
turkey,1
letter,4
annually,1
frequently,2
predecessor,1
handed,1
fertile,1
taken,1
takes,1
popular,1
broken,1
missionaries,1
vaults,1
lacking,1
fitted,1
abrogated,1
obviating,1
ordnance,1
armed,2
jeannette,3
disagreements,1
foundry,1
assailed,1
bloodshed,1
individuals,1
debate,1
either,1
unrestricted,1
those,1
estimates,2
courses,2
arbitration,2
worse,1
prosecuted,1
difficulty,1
watched,1
longer,3
senate,2
commonwealths,1
everywhere,1
consul,1
parties,1
leaving,4
distance,4
prospects,1
unavailing,1
show,2
cautious,2
disappear,1
renounce,1
augmented,1
situated,1
vigilance,1
arrive,1
intimating,1
seamen,2
inaction,1
learned,1
resolving,1
estimated,5
approbation,1
tribal,2
suddenly,1
receipts,6
compensated,1
guidance,1
penny,1
delicate,1
judiciously,2
proficiency,1
largely,1
defrays,1
imperiling,1
utilized,1
chester,1
eighteen,1
admissions,1
bounds,2
style,1
eradicated,1
$104,1
purely,2
vindicate,1
settle,1
harsh,1
unilateral,1
seaman,2
pressing,1
1753,1
freedom,2
invitations,1
criminals,1
$100,1
$114,1
mischief,1
superfluous,1
tribes,2
nomination,1
mexico,1
allowances,1
superseded,1
shut,1
questionable,1
mature,1
amicable,2
bonds,17
influence,3
and$38,1
amicably,1
georgia,1
responsibilities,1
69from,1
unsuitable,1
$123,1
$137,1
england,1
lands863,1
important,1
phrase,1
40from,1
$130,1
correction,1
$133,1
$132,1
marshals,1
$134,1
erroneous,1
limitation,1
largest,2
solicitation,1
investigations,1
footing,1
1798,1
1795,1
variousstates,1
naturalization,1
sheet,1
abolitionof,1
correcting,1
$145,1
rest,1
administrations,1
comply,1
original,4
pestilence,1
kingdom,1
differ,1
900,1
arming,1
investigation,1
interruption,1
901,1
front,2
902,1
907,1
909,1
projects,1
wedge,1
offer,1
diplomatic,6
complex,1
$162,1
911,1
912,1
$166,1
oklahoma,1
healthful,1
917,1
918,1
919,1
274wool,1
adequately,1
neutralization,1
disclaim,1
34for,1
plans,1
plant,1
921,1
922,1
drive,1
925,2
926,1
$178,1
929,1
58for,1
traits,1
readiness,1
servant,1
liquors,2
offered,2
shipowners,1
civil,7
932,1
subsequent,1
national,4
$186,1
indicate,1
939,1
sixty,2
contain,2
founder,1
words,2
benefited,1
founded,1
entered,1
applicant,1
instructed,1
940,1
difficulties,1
941,1
942,1
$195,1
somewhat,1
validity,1
$196,1
947,2
$198,2
949,2
roomy,1
needless,1
developed,2
shipbuilding,1
monopolized,1
952,1
contact,1
954,1
955,1
956,1
958,1
959,1
prospective,1
detachment,1
disadvantage,1
overtax,1
proposedpanama,1
defenses,1
anxiety,1
71for,1
964,1
parts,3
scheutze,1
966,1
western,2
mediator,1
969,1
party,1
duties,2
however,1
distrusted,1
sources,5
relates,1
sierra,1
salute,1
homeward,1
signs,1
974,1
975,1
captured,1
976,1
977,1
views,6
directed,2
assurances,1
reviewing,2
981,1
982,1
983,1
imposinga,1
prompt,1
elaborate,1
repose,1
mechanical,1
counsels,1
output,1
990,1
991,1
992,1
fatigue,1
warrants,1
corner,1
illimitable,1
steerage,1
said:we,1
999,1
majority,1
join,1
crown,1
vain,1
assembling,1
ordinary,1
harmonious,1
37total,1
siam,2
attracted,1
john,1
recommending,1
advisoryboard,1
brought,1
works,3
alive,1
proportion,1
payments,2
pursuit,1
emerged,1
ruthless,1
steamboats,1
world,4
composed,1
assented,2
december,1
embarked,1
decks,8
urgent,1
italy,2
side,1
creditors,1
counseling,1
willingness,1
expressly,1
comfort,1
pensions,5
transference,1
century,1
report,22
transitory,1
powers,1
married,1
cotton,3
expresses,1
high,1
falls,1
sailed,1
levied,1
expressed,3
criticisms,1
directly,1
different,3
administered,1
awaits,1
level,2
adjusted,1
restrictions,3
preserve,1
establish,2
deter,1
collectors,1
attached,2
shuts,1
morocco,1
oregon,1
errors,1
parents,1
consumed,1
preservation,1
total,1
pursued,1
consols,3
speedier,1
savage,3
auspicious,1
social,1
interesting,6
raised,2
cross,1
relying,1
control,1
46for,1
acknowledge,1
declined,1
earth,1
reconstruction,1
susceptibilities,1
steamships,4
threatening,1
intercourse,1
thearmy,1
commanding,1
behalf,1
lighten,1
hinder,1
strengthen,1
injury,1
exhibit,2
inadequate,1
remaining,1
accept,1
northwestern,1
atlanta,1
access,1
redeemed,5
apprehension,2
referring,1
artists,2
78901,1
conferences,1
key,1
silk,1
silent,1
fancied,1
are:object,1
persia,1
confirm,1
unacquainted,1
appoint,1
1808,1
shanghai,1
1807,1
vast,1
fourth,2
declare,1
available,1
confine,1
quest,1
criticises,1
unusual,1
extreme,1
customs$57,1
degree,1
inquiries,1
discord,1
especially,1
once,6
expend,1
demonstrate,1
insists,1
implements,1
assessed,1
1863116,1
pending,8
monument,1
infraction,1
1830,1
throughout,2
conflicts,2
assent,2
virtue,1
compulsion,1
corrupt,1
transmit,1
29th,1
consulate,1
litigation,2
contravention,1
speedily,1
specially,1
1848,1
compromise,1
1846,1
1845,4
$203,1
$206,1
reach,4
$208,1
meritorious,1
1855,1
1853,1
1851,3
1850,1
justify,1
timber,2
1858,1
between,9
$200,1
inclusive,2
1866,1
1865,2
1864,3
1863,1
1862,2
1861,2
expenditures,7
1860,1
seventeen,1
following,1
$210,1
1868,2
1867,1
(where,1
provoked,1
1880,5
unsuccessful,1
disseminating,1
weal,1
16th,1
1877,1
1876,1
impress,1
1875,1
1874,1
auspiciously,1
1873,1
1872,1
1870,2
unhesitating,1
place,1
$220,2
1879,3
objection,3
1878,1
informed,1
dispute,2
$235,1
observation,1
1891,1
aggression,1
offenders,1
lead,3
fraction,1
expect,1
1885,2
1884,1
shipboard,1
1883,1
1882,3
1881,4
gentlemen,1
minted,1
passage,2
adequate,1
routes,2
assets,1
plain,1
divers,1
should,1
only,1
justice,1
officers,1
individual,1
netherlands,1
accepted,1
lawlessness,2
regards,1
willliam,1
person,4
testimony,1
retaliation,1
$250,1
enforce,1
antilles,1
imputing,1
states:since,1
obtainable,1
guarding,1
gunboats,1
paris,2
ready,1
securely,1
interposed,1
greatest,1
immunities,3
manufacturers,1
limited,3
studied,1
corresponding,1
$270,1
thisgovernment,1
severalty,1
fifty,1
surgeon,1
unhampered,1
withdrawn,1
discourage,1
owners,1
approved,1
would,7
customs,6
warrant,1
successfully,2
meanwhile,2
circular,1
$290,1
applies,1
left,3
temper,1
reserved,1
rejoice,1
eleven,1
$295,1
statute,2
object,1
suffice,1
notable,1
elect,1
example,2
minds,1
midway,1
balances,1
quiet,1
policy,1
address,1
accessories,1
mechanical)double,1
destroyed,1
1868154,1
norway,1
fifth,1
accumulated,1
unrivaled,1
nelse,1
export,1
others,1
signally,1
making,9
greytown,1
beset,1
relatives,1
deducted,1
mines,1
ductility,1
survivors,1
supposed,1
plenteous,1
applied,4
indispensable,1
theretofore,1
lent,1
society,2
expanded,1
nowhere,1
denmark,1
approvedmarch,1
averting,1
patiently,1
orlop,1
lend,1
lena,1
approval,1
realized,1
expose,1
acquaints,1
avow,1
well,1
extinguished,1
observance,1
sharvell,1
experiment,2
loved,1
reservation,4
cordial,2
cooperation,1
freights,1
consigned,1
went,1
and$6,1
considering,2
distant,1
and$4,1
19071,1
seoul,1
bringing,1
schools,3
prohibited,1
orders,4
successor,1
expedition:,1
respectively,1
matter,2
gortz,1
rails,1
neutrality,2
succession,1
product,1
walter,1
produce,1
walks,1
courteously,1
perfected,2
confided,1
undoubtedly,1
industries,1
constrains,1
paupers,1
capital,1
cantons,1
minor,1
hostile,2
exhibiting,1
straits,1
upon,3
expeditions,2
explosives,1
employed,3
consular,7
defective,1
raise,1
west,2
quite,1
traffic,1
law,1
comparison,1
coins,1
lay,1
lest,1
less,1
institutions,1
conflicting,2
condition,1
length3,1
inventions,1
were,1
gratification,1
ceremony,1
improve,1
desirous,1
naming,1
taxation,1
arizona,5
piercing,1
censure,1
levy,1
generous,1
defraying,1
constitutionally,1
recasting,1
floor,4
possibility,2
exhibition,1
01from,1
wounded,1
distinguished,1
opening,1
declarations,1
industrial,2
lining,1
maintenance,1
barbarous,1
eads,1
legislating,2
lieutenant,8
bimetallic,1
expedition,5
led,2
absorb,1
supply,2
lee,1
wherein,1
circulate,1
unfailing,1
mountain,2
integrity,1
advises,1
cargo,1
subordinates,1
pace,1
courtesy,1
polity,1
pack,1
each,2
rendered,1
1907,1
cordially,1
items,1
thirty,1
bankers,1
dollars,4
steamers,3
descendants,2
fixes,1
964excess,1
promote,1
does,5
punishments,1
tonnage,2
situation,1
legislation,1
modifying,2
confederation,1
circulars,1
allayed,1
clause,1
unavailingly,1
refused,2
tidal,1
withdrawal,2
putnam,1
producers,1
emphatically,1
admitting,1
economical,3
juan),2
demanded,1
fashion,1
surely,1
principle,1
medical,1
lie,2
source,1
unable,2
irrigation,2
separation,1
homes,3
acquired,1
involves,2
doubt,1
merit,1
pecuniary,1
involved,1
converted,1
district,4
fixed,1
whereof,1
full,5
destiny,1
away,1
cards,1
$305,1
aspects,1
obviated,1
puerto,2
blinding,1
dueto,1
$300,1
convention,1
appropriately,1
refusal,1
purchase,1
enlarged,1
186540,1
advised,3
wiser,1
equal,1
oftenest,1
fund,7
gravity,1
paid,6
spared,1
department:now,1
exacted,1
$324,1
incur,1
winfield,1
three,1
95for,1
remembered,1
payable,1
sweden,1
suppression,1
season,1
payment,1
sweetman,1
suppressing,1
roads,2
metallic,1
pennsylvania,1
judicial,2
provide,1
bids,1
companies521,1
louisville,1
$330,1
primary,1
$345,1
whereon,1
computed,1
enterprise,2
teaching,1
(in,1
accidental,1
panama,2
follows:exports:,1
aided,1
premium,1
low,2
merely,2
phases,1
meant,2
wealth,2
means,6
funding,1
initial,1
impracticable,1
profitless,1
orphan,1
americanclaims,1
aught,1
fellow,1
$350,1
interests,1
commanded,1
recognizing,2
husband,1
experience,1
launched,2
commander,1
wasteful,1
bulwer,1
checked,1
$364,1
necessitate,1
combination,1
obtain,2
fixing,1
curiosity,3
coasts,1
particular,1
done,1
illegal,1
gainsaid,1
relanding,1
congratulate,1
perceived,1
ample,1
residents,1
$376,1
ease,1
inures,1
part,8
unalloyed,1
theexecutive,2
expediency,1
principal,1
east,2
relief,5
affirmed,1
amply,2
park,3
$387,1
262total,1
nicaraguan,1
persuaded,1
seeking,1
interfere,1
reclamation,1
hongkong,1
fitting,1
$398,1
regulated,1
reductions,1
mutually,1
ambiguous,1
conducting,1
bind,1
depending,1
record,1
chicago,3
prevention,3
accepting,2
provinces,1
preventing,2
pass,3
past,16
bill,4
tributary,1
whose,1
easy,1
serdze,1
census,1
domain,1
oceans,1
adopting,1
assigned,1
relative,1
quartermaster,2
profoundly,1
existed,1
906i,1
adoption,5
pave,1
thriven,1
mind,1
grateful,1
yokohama,1
involve,4
requisite,1
phrased,2
revenue29,1
amphitrite,1
depositories,1
bylaw,1
inch,2
phrases,1
london,2
added,1
1/2per,1
bereavement,1
impel,1
displaced,1
down,1
recommendations,2
launching,1
incumbent,1
shifting,1
affaires,1
brings,1
indians2,1
revenue40,1
revenue43,1
adding,1
legal,2
indians6,1
boundaries,1
indians7,1
signal,4
fortitude,1
reviving,1
traversing,1
varied,2
regarding,2
armor,1
month,2
precautionary,1
757total,1
occasions,1
acres,1
convening,1
impossibility,1
compatriots,1
rather,1
importance,17
worthy,5
patagonian,1
title,1
papers,1
hemisphere,1
blesses,1
human,1
grantees,1
prince,1
ayres,1
blessed,1
pacificrailway,1
permission,1
considerations,1
henry,1
decidedly,1
apprehend,1
faction,1
recommends,1
articles,3
appreciating,1
exhausted,1
navigation,2
supplies,1
testified,1
deems,1
whereas,1
letters,3
fear,1
inspection,1
lafayette,1
oriental,1
signed,1
appreciation,1
sense,2
classification,1
removing,1
field,1
served,1
messages,4
opens,1
legitimate,1
whereby,1
senators,1
advisability,1
mention,1
inserted,2
man,1
twenty,1
mar,1
contemplated,1
may,2
advocates,1
supplied,3
assimilate,1
authorizing,1
statutes,4
trustworthy,1
contemplates,1
siberia,2
feet,7
fenced,1
fees,4
condolence,1
sprung,1
93from,1
recognition,1
feel,2
thesouth,1
convene,1
circulating,1
residence,1
bangkok,1
22from,1
imperatively,1
pressure,2
servia,1
mormon,1
becomes,1
directions,1
000)could,1
constitution,3
lulled,1
harvests,1
conceive,1
men,1
repeat,2
justification,1
physical,1
met,2
repeal,2
barley,1
constituting,1
newfoundland,1
circulation,6
contingency,1
depend,2
sized,1
about,1
danger,1
granted,1
character,1
eluded,1
above,1
melbourne,1
disappearing,1
comprise,1
resident,1
height,2
myself,1
received,1
wonderful,1
athens,1
substantial,1
quality,1
certificates,2
overstep,1
consistently,1
sincere,1
invested,1
promptitude,1
shared,1
outset,1
vigor,1
association,2
eliminate,1
believe,2
fell,1
into,2
manufactures53,1
greece,1
arbitrator,1
table:amount,1
64for,1
destruction,1
reverent,1
middle,2
though,1
ottoman,1
appeal,1
receivable,1
transportation,1
appear,1
manufactures49,1
definitely,1
exacts,1
associated,1
holds,1
littoral,1
experts,1
open,1
$401,1
$400,1
berry,2
forced,1
suffering,1
ascertainment,1
project,1
locks,3
iglesias,5
funded,1
california,1
tobacco,2
formidable,1
commending,1
felt,2
owing,1
76for,1
bears,1
secures,1
conquest,1
sections,1
effected,1
unanimity,1
assurance,2
fabrics,1
fortnight,1
965flax,1
paths,1
forces,1
secured,1
allow,1
befall,1
proper,1
polls,1
organic,1
patrol,1
registry,1
693gold,1
$435,1
recently,1
$439,1
prepaid,1
rentals,1
prints,1
renewed,2
riches,1
money,1
richer,1
forever,1
endanger,1
ireland,1
achievement,1
claimed,2
arctic,1
whole,6
revolution,1
relation,1
berne,1
richly,1
obstacle,1
unconstitutional,1
profits,1
still,3
relating,1
constitute,1
beams,3
toward,4
books,2
among,10
specifies,1
internal,1
$469,1
signature,1
republican,1
excise,1
enjoy,1
ourselves,2
specified,1
slave,1
naturally,1
believes,1
federal,1
believed,2
include,2
unarmored,1
destructive,1
altogether,1
alexander,1
acquainting,1
dimensions,3
voice,1
endeavored,1
injuries,1
prepared,2
amendments,2
perfecting,1
greely,2
capture,1
excite,1
failed,2
exigencies,2
appointed,1
shipped,2
abolition,1
tobe,1
prescribed,1
provides:,1
riots,1
distances,1
prescribes,1
notified,1
controversy,2
command,1
compulsory,1
revised,2
landscape,1
prevailing,1
floods,1
saved,1
leading,1
urge,1
cruiser,2
arraying,1
because,1
67total,1
agreement,4
dealing,1
merchant,3
tendered,1
contains,1
prohibiting,1
selection,1
permits,1
ensued,1
protracted,1
returns,1
detail,1
6912,1
retried,1
forest,1
*sent,1
utility,1
occupations,1
interstate,3
prohibition,1
certified,1
hereunto,1
discriminations,1
broadness,1
fourteenth,1
decreased,3
mechanics,1
incorporates,1
republic,1
historical,1
fitness,4
incorporated,1
discrimination,1
surrender,1
debarkation,1
cruel,1
foreshadows,1
attributable,1
forbidding,1
modeled,1
originally,1
jail,2
volume,1
resurvey,1
materials,2
buildings,1
sailing,1
discriminating,1
unascertained,1
unsolved,1
respecting,3
technical,1
baggage,1
indebtedness,1
cent65,1
rico,2
responsible,1
capitalist,1
rich,1
chiefly,2
agencies,1
visited,1
arisen,2
attacked,1
family,1
referred,3
gift,5
copyright,2
career,1
release,1
moral,1
diminution,1
rehabilitation,1
brethren,1
judge,1
proscription,1
similar,3
parrott,1
aliens,1
rehabilitating,1
thousands,2
crossing,1
transshipped,1
crossed,1
inequalities,2
indicated,1
against,1
00estimated,1
pouring,1
manufactures,5
representations,1
swell,1
encourage,1
holders,1
indicates,1
deficit,2
coronation,2
cession,1
manifests,1
urgently,1
preceding,3
uruguay,1
francisco,2
honor,2
losses,1
languishing,1
whites,1
constancy,1
pages,1
bureau,5
(675clerks),1
net,1
overestimated,2
new,5
numbering,1
took,1
repassed,1
positions,3
unimpaired,1
underestimated,1
tons,2
continuance,5
bestowed,1
franklin,1
dunbar,1
boundary,4
befallen,1
reaching,1
respective,1
follows:domestic,1
georgetown,1
around,1
influences,1
define,2
dictate,1
frontier,6
egypt,1
manifest,2
employment,2
provided:,1
specific,1
nominations,1
obtains,1
engage,3
telegraphic,2
molasses$103,1
remainder,1
approvingly,1
territory,8
amendment,3
developments,1
kalakaua,1
johnson,1
securities,2
decided,1
fully,2
ensuing,1
thebrazilian,1
uninterrupted,1
disinterested,1
formulating,1
exchanged,1
supplying,1
intomexico,1
maybe,1
students,1
$507,1
recommend,11
permitted,2
obeyed,1
ripe,1
expectations,1
blaine,1
absolute,2
understood,1
supported,1
resulted,2
chargeable,1
documents,1
solved,2
objections,2
19th,1
guatemala,2
houses,1
sovereign,1
commemoration,1
attractive,1
boats,1
whatever,1
decrease,3
yards,1
designs,3
color,1
nearly,2
admittedly,1
vested,1
nor,1
not,2
now,1
statement,2
arthurdepartment,1
delivery,4
election,1
asiatic,1
what,1
refer,2
detailed,2
timely,1
risk,1
rise,1
excludes,1
charles,2
when,3
withheld,1
contested,1
excluded,1
desperadoes,1
recited,1
reimbursing,1
promising,1
give,2
practicable,1
counsel,1
lives,2
depends,1
end:first,1
stations,1
limiting,1
recites,1
tribunals,2
propriety,4
explicit,1
ships,6
determined,2
prevail,2
burdens,1
explicitly,1
enormously,2
futile,1
direct,2
flags,1
districts,6
enabled,1
commons,1
hardship,1
modern,4
cent20,1
befitting,1
sentenced,1
in1881,1
adjourned,1
tentative,1
veneration,1
organization,2
width,1
hampered,1
heads,1
certain,1
board,2
woolen,1
levels,2
infringing,1
pursuing,1
outgrown,1
widow,1
helvetian,1
applicants,2
heretofore,1
used,1
constantly,1
peruvian,1
threaten,1
otherwise,1
marked,2
recital,1
irremediable,1
borne,1
assays4,1
nearer,2
pleasing,1
solely,1
market,1
sparseness,1
effects,2
54from,1
refers,1
indifferent,1
conventions,1
solemn,1
schuetze,1
imprisonment,1
transpired,1
endurance,1
necessarily,1
alone,3
strive,1
along,1
ofcongress,1
designed,1
breach,1
supplemented,1
certificates109,1
stimulus,1
contained,1
convicts,1
inhabitants,1
diminishing,2
bring,2
colonial,2
warfare,2
manufacturing,1
neglect,1
promoting,1
urging,1
furnishes,1
engineers,1
peace,1
garnered,1
consideration,1
competitive,1
lawfully,1
reluctance,1
communications,2
search,1
extinction,1
furnished,1
whom,1
relinquish,1
permanence,1
scarcely,1
attainable,1
humanity,3
944it,1
innovation,1
alternate,1
attainment,2
foreseeing,1
empowered,2
essential,3
tributaries,1
generosity,1
excavation,1
exclude,1
lands7,1
commissioner,6
utmost,1
lands2,1
evoked,1
fractional,2
exportsover,1
caracas,2
fourteen,2
celebration,3
temptation,1
carry,2
arose,1
necessity,1
negotiators,2
identifying,1
compelling,1
origin,1
pursuits,2
burden,3
unitedstates,3
sanction,1
teachers,1
trouble,1
class,1
attended,3
spanish,5
employments,1
kept,2
perpetuity,1
07leaving,1
adjournment,1
management,2
publish,1
counted,1
presents,3
promotion,5
very,1
practice,1
congress,1
examinations,1
canadian,1
delayed,2
legislative,2
51from,1
william,1
vessel,8
embarrassments,1
tensile,1
french,1
encouraging,3
issue,1
lower,1
dictated,1
traditional,1
conservation,1
dictates,1
acted,2
cheeks,1
02for,1
continuing,1
extraterritorial,2
pedestal,1
escaping,1
wider,1
turned,1
admonish,1
(but,1
eventually,1
3141,1
settlers,1
delegate,1
library,1
sphere,1
veto,1
modifications,1
seemed,3
vest,1
off,4
generally,1
exploring,1
smithsonian,1
attaining,1
complete,1
compensate,1
fratricidal,1
claim,3
melado,1
colonies,1
interested),1
whaling,1
months,2
follows,1
chosen,1
venezuelan,3
magistrate,1
survey,1
outbreaks,1
code,1
incompetent,1
preparations,1
considerable,1
proposition,1
sympathy,2
fight,1
brief,1
assessments,1
determine,1
disjoined,1
considerably,2
purview,1
confer,1
drew,1
(193,1
wrought,1
mention:first,1
lands,4
puritan,1
remarks,1
exercised,2
disqualified,1
strategic,1
amounting,2
expedient,3
exercises,1
estimate,2
promises,1
breaking,1
proposal,1
old,1
settled,2
diseases,2
ancient,1
consolidated,1
twelve,1
austria,1
madrid,1
starting,1
clerkships,1
conference,4
activity,1
variety,1
incurring,1
mutatis,1
george,3
caution,1
mints,1
one,1
incurred,1
cents,3
quito,1
connected,1
threatens,2
assist,1
materially,1
attained,1
acquiescence,1
partially,1
country,2
$642,1
willing,1
blessings,2
excellency,1
regularly,2
trivial,1
satisfactory,2
details,1
aids,1
distributive,1
coil,1
abolished,1
authoritative,1
epidemic,1
multiplying,2
solve,1
region,2
support,7
yearly,1
coin,1
drop,1
locating,1
reciprocal,1
resolutions,1
life,3
establishments,1
lieu,1
cases,9
wide,1
superior,2
impairment,1
succeed,1
attested,1
location,1
proportions,1
covenanted,1
profitably,1
tempestuous,1
competition,1
none,2
lieutenants,1
problem,1
closing,1
ambler,1
voluntary,1
connection,1
abandoned,2
presence,1
inability,7
method,1
wife,1
streams,1
profitable,1
come,2
fortifications,1
exist,1
utah,3
expenses$22,1
columbia,3
instrumental,1
constitutions,1
conceives,1
conscription,1
distribution,2
our,8
said:the,1
evidenced,1
out,1
capacity,3
cope,1
case),1
copy,2
precise,1
evidences,1
cook,1
pleuropneumonia,1
puts,1
confers,1
matured,1
insecurity,1
owe,1
perished,1
date,4
enshrouded,1
data,1
own,1
bottoms,1
follows:if,1
argentine,1
consequences,1
avoiding,1
development,5
like,1
repudiating,1
branches,3
prolonged,2
ending,2
efforts,1
proposed,1
fraud,2
council,2
398cotton,1
intruders,1
ground,1
embassy,1
utes,1
note,1
line,4
hearty,1
penalty,1
conveyed,2
undertakings,1
inure,1
hearts,2
affairs,3
considers,1
cost,3
lima,2
aims,1
will,3
confidence,1
fishing,1
wilt,1
compliance,1
york,3
sultan,1
swollen,1
assured,1
dignity,1
challenge,1
adolph,1
functions,1
overflowing,1
govern,1
chipp,2
devisethe,1
your,1
explanation,2
remote,1
rupture,1
these,1
contributions,3
protected,2
afflict,1
framed,1
essentials,1
apparent,1
wing,1
independent,1
carriage,1
obedient,1
concluded,4
alleged,1
tribunal,2
arrived,1
economically,1
(except,1
borrowed,1
follows:,3
forests,3
printing,1
americans,2
impartial,3
days,5
hague,1
imperial,1
liberal,2
discuss,1
harmony,3
renders,1
acceptable,1
sharply,1
wish,1
wise,2
amounts,2
exceed,1
upernavik,1
claimant,1
par,2
monarchy,1
invitation,2
pay,2
determinate,1
enormous,1
revival,1
especial,1
list,3
rivals,1
conforming,2
candidates,1
darkened,1
circumstance,2
treasury,11
sinking,5
revise,1
claims,12
paramount,1
preserving,1
permitting,3
chile,2
legislature,1
evinced,1
withholding,1
relieving,1
germany,1
divided,1
instrument,1
medium,1
remove,3
wisdom,2
starvation,1
outstrip,1
producing,1
confinement,2
secrecy,1
depredations,1
live,1
responded,1
harbors,1
extradition,1
perform,2
germane,1
colorado,1
beautifying,1
with,2
amended,1
china,1
furtherance,1
service,2
there,3
coffee,1
monuments,1
american,1
miantonomoh,1
unpaid,1
affords,2
russia,1
per,20
ceased,3
period,5
africa,1
proceed,1
(section,1
offenses,1
birth,2
confirmation,1
recurrence,1
ever,4
evidencing,1
even,1
restriction,1
americaa,1
indication,1
assumed,1
vacancy,1
engaged,1
doubted,1
chileans,1
459),1
prevalence,1
indicating,1
injured,1
restricting,1
imperative,1
violence,1
plenipotentiary,2
requiring,1
ineffectual,1
prohibit,1
imposed,1
bearings,1
83leaving,1
30th,1
appropriated,1
manner,1
pig,1
imposes,1
judgment,5
members,1
mineral,1
stock,1
suspend,9
50total,1
terror,1
accumulation,1
strengthened,1
guaranteed,1
indiscriminate,1
hygienic,1
snow,1
evil,1
initiated,1
cause,5
represents,1
intended,1
dryness,1
attending,2
kindred,1
working,1
redeem,1
conformity,1
department,1
$712,1
liberties,1
chief,1
accord,2
contributing,2
italian,1
followed,3
merchandise,8
interested,2
ply,1
formerly,1
vessels,2
credited,1
bigamy,2
186118,1
stated:we,1
emigrant,1
liberty,1
lawrence,3
meeting,1
confidential,1
landed,1
portions,5
displayed,1
began,1
$737,1
violations,1
thesecretary,1
exerted,1
recognize,2
5286),1
abnormal,1
brutality,1
offend,1
commendation,1
distinguished),1
diligent,1
dispersed,1
restating,1
giving,3
objectionable,1
scrutiny,1
facts,2
marine,1
hungary,1
inalienable,1
routine,1
sanctioned,1
tariff,1
sectional,1
reorganization,2
enlist,1
escape,1
giver,1
colombia,6
retention,2
gives,1
receive,1
surplus,6
correspondence,4
dislodged,1
relegating,1
declaration,1
prosperous,1
representatives,1
$750,1
friendship,3
rightfully,1
juan,1
infractions,1
placing,1
peopling,1
continue,1
interpose,1
inexcusable,1
clerical,1
cautiously,1
realize,1
offers,2
given,1
accountable,1
crimes,3
hayes,1
molasses,1
guilty,1
exaggerated,1
proximity,2
statutory,1
maritime,2
receipt,1
playing,1
employees,1
pursuance,2
asking,1
peru,1
surroundings,1
agriculture,1
prudent,1
retired,2
assembled,2
notwithstanding,1
potomac,1
mannah,1
unquestionably,1
forming,1
notorious,1
assassination,1
put,3
25total,1
mischiefs,1
meets,1
conclusions,1
infancy,1
lapse,1
light,1
appropriating,1
apparently,1
valuable,7
methods,4
hundredfold,1
indictment,1
replenishment,1
grown,1
deportation,1
appropriation,5
1867235,1
henceforth,1
desire,2
supplanted,1
suffers,1
touching,1
liberia,2
unfortunately,1
lately,8
compartments,1
barren,1
sources1,1
encountered,1
grove,1
january,2
permanent,6
foster,1
organized,1
travel,1
choice,1
civilization,4
appointment,3
companions,1
answering,1
funds,1
feasible,1
consider,1
eighty,1
prescribe,1
gravest,1
imports,14
gross,2
tact,1
allotment,2
reciprocity,2
distrust,1
absolutely,1
sustain,1
arbitrarily,1
relocating,1
request,4
preventionof,1
substitution,1
credentials,1
12from,1
insurmountable,1
their,1
percent,1
general,1
september,2
induced,1
applying,1
process,1
requirements,1
clear,1
eighth,1
relocation,1
encounter,1
theunited,1
09as,1
governing,1
neither,3
glad,1
account,6
innocent,1
33from,1
hunting,2
knowledge,1
fictitious,1
prime,1
table:year,1
devised,1
loyal,1
july,1
venture,1
warren,1
population,2
atlantic,9
cancellation,1
route,5
islands,1
millions,1
wisely,2
negotiated,1
unwilling,1
soil,1
rican,1
93for,1
peter,1
saccharine,1
consisted,2
emigrants,1
equable,1
committing,1
june,5
series,1
represent,1
42from,1
arkansas,1
moscow,1
hold,1
chinese,3
correctly,1
designated,1
prior,4
vault,1
dedicated,1
commonly,1
rapidity,1
fide,1
granting,1
revolting,1
take,2
obviate,1
3326,1
immediate,1
beneficial,3
relatively,1
44for,1
some,2
session,1
additional,1
jute,1
primarily,1
tidings,1
passed,2
reception,1
just,1
respects,1
sole,2
midnight,1
jury,1
affects,1
monitor,1
foreshadowed,1
strictly,1
home,1
existing,4
postage,1
proclamationwhereas,1
material,1
owned,1
peculiar,1
iron,3
unshaken,1
(numbering,1
staple,1
hope,5
soon,2
opium,1
executive,2
displacement,1
anticipated,1
misconduct,1
allotting,1
compact),1
classified,2
protest,1
distinctly,1
operative,1
heavy,2
exhibitions,2
impede,1
constitutionality,1
machinery,2
britain,3
summer,1
robert,1
file,1
member,1
incidents,1
insular,1
elimination,1
together,1
within,1
health,1
positive,1
corrected,2
agents,2
prospect,1
return,1
topical,1
instance,1
practically,1
serve,1
accredited,2
reviews,1
fine,1
find,1
delaware,2
therefrom,1
selected,1
cables,1
occur,1
illustrate,1
demoralizing,1
seriously,4
sort,1
fill,1
93if,1
convenient,2
task,1
horn,1
infer,1
scientists,1
transit,1
true,1
valley,3
position,3
populous,1
since,6
sentiment,2
patent,2
toils,1
abundance,1
dangerous,2
certificate,1
appears,2
coined,3
effectually,2
hour,2
thevice,1
heard,1
execution,2
falling,1
processes,1
sought,2
683during,1
underlie,1
extraordinary,1
evident,4
tracts,1
merchants,1
coming,1
armament,1
disturbances,2
intentional,1
76from,1
firm,1
contribution,2
conveyance,1
fire,1
supplementing,2
husbandry,2
undertaken,1
disastrous,1
wield,1
except,1
preparers,1
inflicted,1
infectious,1
lands172,1
prominent,4
favoring,2
collecting,2
customs$214,1
unless,1
excess,7
operating,1
ought,2
condolences,1
irregularities,1
admonition,1
accordance,1
yakutsk,1
adhesion,2
people,5
estimated258,1
chesapeake,1
peninsula,1
fish,1
operation,1
adverse,1
alarming,1
cannon,3
obligations,2
tranquilly,1
mainly,1
follows:source,1
endangers,2
leaves,1
restrain,1
five,3
$883,2
hesitated,1
admirable,1
sufferings,1
collection,3
lorraine,1
channels,1
mountainous,1
owning,1
misapprehension,1
conflict,1
installed,1
reasons,2
commerce,1
assistance,1
55the,1
declaring,2
wants,1
definition,2
every,5
yards4,1
mansion,1
summary,1
(estimated),2
answered,1
again,1
indians,13
ratified,1
kinsmen,1
employ,1
residing,1
desirable,5
during,1
wisest,1
degrees,1
venezuela,3
consist,1
price,1
defensive,1
dependent,1
briefly,1
reduced,1
cherish,1
agree,2
itself,3
enjoyment,3
steuben,1
nuclei,1
distress,1
spain,3
civilized,3
regions,1
hoped,1
irksome,1
unequally,1
protector,1
kaacke,1
requests,1
substitute,1
thedistrict,1
uniform,1
causes,1
violate,1
hopes,1
demonstrated,1
event,1
wherever,2
witnesses,1
established,3
mutandis,1
railroad,2
agency,1
caused,1
reenforcements,1
rigidly,1
spar,3
inadvisable,1
space,7
reference,4
navies,1
inferred,1
struggles,1
depart,1
exactions,1
invariable,1
fostered,1
travelers,1
breadstuffs,1
mails,3
invariably,1
arthur,1
accorded,1
tract,1
arrival,1
friendliness,1
frequent,1
interred,1
statements,2
aggregate,1
jealous,1
holding,1
public,1
imposts,1
monetary,1
were:from,1
constructed,1
kongo,2
unchanged,1
resources,1
heaviest,1
expensive,1
trade,5
westward,1
performance,1
cemented,1
follows:the,1
insisted,1
conferred,1
quickened,1
moneys,1
aiming,1
horses,1
building,2
tolls,1
setting,2
score,1
alaska,1
quota,1
ram,1
younger,1
raw,2
packages,1
authorities,1
hurried,1
ibis,1
institute,2
southern,2
uncertainty,1
andbrazil,1
dollar,1
extraditable,1
dual,1
aspect,1
departments,1
federation,1
pathos,1
mitigate,1
tritest,1
maxims,1
signify,1
swine,2
qualities,1
register,2
31327,1
fleet,1
moved,1
fourthly,1
act,9
transmission,1
shortage,1
add,1
consent,1
commendable,4
escaped,1
mutual,1
fund45,1
fund46,1
peacefully,1
begged,1
therefore,1
exchange,2
washington,1
contiguous,1
trust,1
soldiers,1
prevent,2
dues,1
benjamin,1
disturbing,1
appended,1
scope,1
humiliation,1
embrace,2
judicious,1
recorded,1
message,1
modify,1
strikingly,1
age,2
albeit,1
inaugurating,1
smaller,1
tendency,1
ago,4
overlooked,1
37for,1
faults,1
years,1
odds,1
decline,1
rio,1
cowboys,2
conceded,2
swiss,1
aggregated,1
system,1
likelihood,1
defects,1
animated,1
aid,1
other,1
aim,1
air,2
skilled,1
2172,1
crew,3
steadily,2
vacation,1
sacred,1
tender,1
infected,1
thepotomac,1
horrors,2
specialists,1
meantime,1
boat,1
inauguration,2
remonstrated,1
tended,1
reversal,1
future,3
mississippi,2
movement,1
workings,1
impressed,2
rating,1
body,1
missouri,1
forays,1
mode,1
ratifications,1
venice,1
commissions,1
all,2
always,2
already,13
conducted,1
applicable,2
expense,1
strangers,1
maintaining,1
territorial,1
postal,5
inequitable,1
interfering,1
60total,1
monrovia,1
accession,1
contracts,1
lamented,1
and,26
(plans,1
abroad,3
disposing,1
cruisers,1
unnecessary,1
any,3
duly,2
intercommunication,1
suggested,1
caring,1
communicated,1
consists,1
until,1
honorable,2
thought,3
concession,1
severed,1
accurate,1
prosecution,1
treaties,1
anywhere,1
battalion,1
allowable,1
naught,1
devotes,1
chiefs,1
english,5
resort,6
devoted,2
apt,1
spirits,2
000,4
001,1
importunity,1
territories,11
hampton,1
recipients,1
grade,2
008,1
extirpation,1
succeeded,1
increased,1
appliances,1
of39,1
012,1
diversity,1
varying,1
fruits,1
are,1
016,2
017,1
came,1
patience,1
9639,1
where,1
broader,1
arm,1
art,1
vice,5
substances,1
makethe,1
complications,1
thoughtful,1
noticed,1
favors,1
inferiors,1
delegates,2
suppress,3
holden,1
021,1
call,4
023,2
024,1
028,1
ask,3
estimated$343,1
relations,1
65total,1
through,3
81on,1
becoming,2
engagement,2
strength,1
officer,1
offices,3
justified,1
of57,1
run,1
enact,1
85from,1
032,1
033,1
mother,1
view,2
292silk,1
protests,1
ours,1
038,1
neighbors,2
terminable,1
delegated,1
results,1
defiance,1
1861266,1
correctness,1
accomplishing,1
holland,1
040,2
andnovember,1
041,1
042,1
agitation,1
046,1
ulysses,1
049,1
name,1
spaces,3
neighborhood,1
bulgarian,1
justifies,1
abatement,1
benefits,1
congressional,2
reflections,1
absence,3
book,1
since1860,1
609specie67,1
050,1
052,1
054,1
055,1
056,1
makeshifts,1
057,1
058,1
059,1
defend,1
solicitous,1
analogous,1
introduce,1
waterway,3
061,2
bond,2
063,1
bona,1
064,1
tokyo,1
067,1
thirdly,1
mouth,2
069,2
restricted,2
duty,1
cape,1
chosenese,1
yard,1
dangers,1
commotion,1
apaches,2
usage,1
deprecated,1
pledged,1
experimental,1
collected,5
072,1
transmitted,1
075,1
discloses,1
077,1
078,1
cast,1
079,1
officials,1
broad,1
participating,1
greater,6
cash,1
case,1
generation,1
oppressive,3
item,1
emigration,3
082,1
wares,1
085,1
matches,1
saving,1
cars,1
kuehne,1
carl,1
failing,1
excessive,1
care,2
participation,4
interjection,1
090,1
exercise,1
093,1
094,1
098,1
cramped,1
protect,1
reliance,2
contingencies,1
more,1
born,1
disorder,1
painters,1
colossal,1
habits,1
navy,6
persistently,1
imperiled,1
sir:*,1
simple,1
philanthropic,1
alleviate,1
prudently,2
labors,1
percentage,1
described,1
negotiate,1
king,5
kind,1
overburdened,1
both,1
most,1
transfer,1
courteous,1
endingjune,1
thesetransactions,1
ascertain,1
affecting,2
forbid,1
inspiration,1
patient,1
mentioned,1
accompanying,2
prosecuting,1
profit,2
sam,1
san,6
amount,16
disclosed,1
earnestly,1
say,1
also,3
enough,1
belgians,2
increase,2
spread,1
educated,1
1881719,1
favor,3
organizations,1
latter,1
depression,1
simply,1
inhere,1
gunboat,1
seaboards,1
assemblage,1
completing,1
dissenting,1
suffer,2
exequatur,1
bar,1
draft,1
bay,2
violated,1
intendment,1
documentation,1
personal,1
angry,1
submitted,3
violates,1
delay,1
boyd,1
greatly,4
victorious,1
deal,2
geographical,2
strong,1
miscellaneous,2
abuse,1
scheme,1
affect,2
dead,1
hebrew,1
onerous,2
ministers,2
sea,3
drain,1
proves,1
sec,1
proved,4
see,1
responsibility,1
effectual,1
montana,1
dear,1
compared,2
completion,1
set,2
joined,1
procedure,1
practices,1
consignees,1
earnest,1
river,1
practiced,1
transferred,1
beg,1
deposited,1
deck,20
marriages,1
states:,1
shipping,1
advocacy,1
discharge,3
useless,2
france,1
laborer,2
states:herewith,1
transcripts,1
franco,1
skins22,1
tilling,1
complain,1
polygamy,3
zeal,2
she,1
2238,1
lessened,1
finances,1
resumed,1
debt,10
little,3
deep,1
confined,1
humane,1
54leaving,1
deem,3
exhibits,2
capable,1
explained,1
repress,1
unhappily,1
salaries,1
appalling,2
jersey,1
supervision,3
await,2
sir,1
conversion,1
pretensions,1
over,1
ballot,1
salaried,1
brilliant,1
practical,2
living,1
six,1
sanguinary,1
assuring,1
bound,2
stroke,1
retained,1
hayti,1
prerogative,1
avoid,1
fresh,1
comprehensive,2
appointees,1
manifestations,1
heinrich,1
modes,1
select,1
convinces,1
advanced,1
dissolving,1
recommendation,3
supervising,1
invoke,1
nations,1
depicts,1
slaughter,1
thanks,1
improved,1
punishable,1
convinced,2
model,1
animals,1
reduce,1
inquire,1
large,5
surface,1
satisfied,1
transactions,1
foresight,1
operate,1
iverson,1
santiago,1
exclusively,1
doctrine,1
begin,1
secondly,1
alluded,1
professions,1
percents,6
distilled,1
prosecutions,1
inquiry,2
viewed,1
tradition,1
convicted,1
change,3
extremes,1
deplored,1
punishment,4
instruction,2
facilities,1
improvements,1
constant,2
several,1
office,19
northern,2
posts,1
852foreign,1
stands,1
proceeds,2
contagious,2
imposition,1
petroleum,2
convocations,1
discretion,1
comprises,1
permanently,1
clerks,1
commodious,1
prejudgment,1
deduction,1
enfeebled,1
rewarded,1
enacted,1
04total,1
tenth,1
sentiments,2
hostility,1
bow,1
regularity,1
1/2,2
1/3,1
workshops,1
highly,1
unfortunate,1
chance,1
nature,3
100,1
dormant,1
103,1
awards,2
unauthorized,1
105,2
issuance,1
posse,2
108,1
essentially,1
109,1
inland,1
parsons,1
delta,1
arsenals48,1
fighting,1
communes,1
110,1
111,1
112,1
eastward,1
encouraged,2
113,1
114,1
heroism,1
115,2
116,1
friend,2
118,1
draws,1
119,1
drawn,1
prompts,1
closely,1
pleasure,2
australia,1
glory,1
120,1
marauding,2
122,1
mission,6
123,1
requested,1
125,1
126,2
128,1
129,1
invoked,1
conditions,1
revenue121,1
littleton,1
advisable,1
57leaving,1
overcome,1
cooperate,2
186210,1
13+,1
undisturbed,1
sum,10
unusually,1
grounded,1
ports,1
neighboring,2
extended,2
130,1
131,1
133,1
resorting,1
134,1
current,1
secretary,21
135,2
137,1
138,1
gloom,1
actively,1
porte,1
promoters,1
preferred,1
christendom,1
storm,1
makes,3
threatened,1
disavowal,1
sanitary,3
140,1
141,1
condemned,1
143,1
144,1
uppermost,6
146,1
paralyzed,1
149,1
revenue144,1
but,1
detriment,1
dissent,1
merchandise740,1
buy,1
unequal,1
express,1
150,4
151,1
152,1
frequency,1
zero,1
154,1
illiteracy,1
159,2
arsenals13,1
wishes,1
1882were,1
solemnizing,1
shortened,1
coordinate,1
greatness,1
dealers,1
deficiencies,2
160,1
cogent,1
161,1
163,1
enhanced,1
166,1
167,1
168,1
ocean,3
naval,1
avows,1
alfred,1
higher,1
doing,1
brazil,3
idea,2
(actual),2
prisoners,2
171,1
174,1
175,1
176,1
177,1
178,2
179,1
proprietary,1
missing,1
legations,1
successful,1
gradual,1
deliberations,2
180,2
frenchrepublic,1
passports,3
arsenals39,1
182,1
183,1
185,1
stone,1
189,1
passing,1
penitentiary,1
streets,1
potent,1
190,1
193,1
194,2
195,1
commencement,1
199,1
retiring,1
children,1
review,1
weather,1
devolving,1
nobody,1
mailed,1
efficiency,6
natural,1
forwarded,1
tranquillity,1
acquainted,1
substantially,1
flag,1
james,1
range,1
derive,1
feature,1
recall,1
variously,1
occupying,1
intimated,1
suggest,1
averted,1
cease,1
elements,2
greenwich,1
submission,2
argument,1
begun,1
hopeful,1
growing,1
utterly,1
tab,1
enlargement,1
conspicuous,1
62for,1
tenure,4
incursions,1
copenhagen,1
appropriations,5
indirect,1
filed,4
goes,2
tax,10
constrain,1
suffrage,1
reparation,2
97the,1
ranks,2
chances,1
safe,1
sioux,1
files,2
presidential,2
departure,1
sail,1
instances,2
distinct,1
aware,1
can,1
projected,1
numerical,1
award,1
albert,1
marriage,2
alarm,1
said,6
terminated,1
carried,2
illustrious,1
idle,1
february,4
seaboard,1
really,1
carrier,3
response,1
rival,1
