dwightEisenhower,Occurences
explosive,1
half,2
darings,1
thrones,1
asserts,1
approved,1
would,1
pick,1
ten,1
sake,1
energy,1
incomes,1
successfully,1
solid,1
notably,2
require,1
yourselves,1
cooperative,1
1,1
2,1
3,1
4,1
size,1
applies,1
5,1
left,1
6,1
7,1
8,1
rounded,1
9,1
role,1
turn,2
destroyer,1
elect,1
result,1
minds,4
midway,1
same,1
feeding,1
procedures,1
commission,1
after,1
raids,1
hand,1
policy,1
resume,1
a,33
address,1
tripartite,1
e,1
posture,1
i,4
neighbor,1
n,1
the,172
straight,2
consisting,1
halt,1
destroyed,1
heightened,1
s,12
t,1
u,1
v,1
thank,1
fifth,1
november,1
resolve,1
thy,1
good,4
faithful,1
provocation,1
suffered,1
serious,1
others,3
making,1
grandchildren,1
beset,1
sane,1
aside,1
scholars,1
applied,1
provided,1
indispensable,2
assembly:when,1
society,3
expanded,1
provides,1
hard,1
multiply,1
conducive,1
approval,1
swords,1
realized,1
better,1
explosion,1
permit,1
well,2
ambitions,2
taking,1
observance,1
frustrations,1
reservation,1
hate,1
flow,1
cooperation,1
reminds,1
order,1
enlisting,1
considering,1
faiths,1
distant,1
timid,1
turbulence,1
propose,2
reachable,1
bringing,2
schools,1
tnt,1
southeast,1
indecision,1
women,1
legislatures,1
woman,1
successor,1
save,1
protection,1
solemnly,2
matter,3
soonest,1
conjunction,1
too,1
honesty,1
have,11
reformers,1
energetic,1
product,1
implications,1
question,1
spirit,1
intellectual,1
cheap,2
produce,1
picture,1
courteously,1
pitting,2
undoubtedly,1
regard,1
unreasonable,1
eurasia,1
thousand,1
capital,2
impounding,1
pitted,1
fuel,1
hostile,1
upon,10
shrines,1
pray,2
incontrovertible,1
ambitious,1
west,1
quite,1
say:,2
traffic,1
circumstances,3
including,2
law,1
baltic,1
lay,2
production!,1
less,1
adventure,1
institutions,1
markets,1
anew,1
were,5
ceremony,1
improve,1
shining,1
try,2
inspirations,1
university,1
censure,1
technique,1
effective,1
times,1
nickels,1
possibility,1
direction,1
realizing,1
distinguished,1
declarations,1
industrial,3
activities,1
quantitative,1
spoken,1
impelled,1
maintenance,2
incident,1
exceeds,1
japan,1
concert,1
supply,1
concern,1
defines,2
worked,1
integrity,1
etched,1
midpoint,1
let,1
state,1
press,1
worker,1
cargo,1
defined,1
element,2
conduct:,1
pace,1
night,1
opposite,1
courtesy,1
pack,1
each,4
aftermath,1
curing,1
thirty,1
sweeping,1
wasting,1
cut,1
probably,1
constitutional,1
dollars,1
dread,1
strains,2
weighed,1
two,1
moment,3
promote,1
attack,3
does,1
cornerstone,1
situation,7
legislation,5
allayed,1
confederation,2
think,1
fraught,1
participate,1
shells,1
desires,1
team,2
services,1
withdrawal,2
emphatically,1
torture,1
prayer,2
quit,1
thing,2
1956!my,1
imperialism,1
fashion,1
insurance,2
surely,1
privileges,1
principle,2
lessening,1
nixon,1
importantly,1
registering,1
lie,1
source,1
initiate,2
domestic,1
unable,1
1930,1
lit,1
homes,2
registers,1
1939,2
strengthens,1
appeasement,1
eastern,2
tension,1
reflection,1
tenuous,1
involves,1
judgments,1
ultimate,1
doubt,1
develop,1
privileged,1
soviets,1
1940,1
involved,3
dominated,1
mockery,1
crossroads,1
district,1
fixed,1
assume,1
1947,1
1945,2
full,4
destiny,1
away,1
warranted,1
aspects,1
banish,1
farmers,3
house,1
indefinite,1
disaster,1
1954,1
1953,1
1952,1
1950,2
lifting,1
1959,1
1958,1
1956,2
1955,3
enhance,1
convention,4
hours,2
pain,1
center,1
start,1
heads:almighty,1
equal,2
separating,1
fund,1
gravity,1
short,2
finance,1
measured,1
ledgers,1
truths,1
militarily,1
punitive,1
three,2
required,1
measures,3
golden,1
attain,1
enter,1
savings,1
warmth,1
czars,1
roads,2
destroy,1
priority,2
creative,1
preventive,1
statesmen,1
provide,1
preoccupations,1
requires,1
primary,1
bright,1
planned,1
anti,1
pluribus,1
low,1
assure,1
merely,2
wealth,2
means,4
survive,1
initial,1
eternal,1
fellow,2
hanging,1
interests,1
cling,1
quick,1
friendly,2
tell,1
possession,1
recognizing,1
bushels,1
experience,2
launched,1
shores,1
shows,1
shown,2
forcibly,2
disappeared,1
day,3
combination,1
curiosity,1
created,1
island,1
sacrifice,1
done,1
water,2
pause,1
corps,1
economies,2
overriding,1
diffidence,1
entertain,1
ease,1
critical,1
part,1
elsewhere,1
conversations,2
expediency,5
this:,6
principal,1
east,29
somber,1
preposterous,1
built,1
persuaded,1
concentration,1
entertained,1
fellowship,1
seeking,1
cooperated,1
third,1
build,1
gratitude,1
demands,2
fitting,1
mutually,1
areas,1
compassion,1
bind,1
finds,1
interdependence,1
record,1
conceivable,1
principally,5
servitude,1
pass,2
going,2
past,2
milk,1
committees,1
easy,1
whose,1
partisanship,1
oceans,1
indo,1
profoundly,1
influential,1
virtues,1
bequeath,1
choosing,1
waited,1
grasp,1
term,1
acquisition,1
mine,1
mind,3
business,1
right,2
possible,3
involve,1
partly,1
touches,1
stage,1
groupings,1
under,1
platitudes,1
did,1
die,1
conceiving,1
added,1
dim,1
emergency,1
down,3
recommendations,2
fears,1
shifting,1
later,1
brings,1
forgotten,1
boundaries,1
highway,2
fortitude,1
possibly,1
test,2
finally,1
remained,1
enforcement,1
agreements,1
conviction,2
aegis,1
publicly,1
hideous,1
irritations,1
month,2
acceptance,1
stockpiles,2
final,2
occasion,1
rather,1
requesting,1
importance,2
pacts,2
back,1
worthy,1
training,1
expectation,1
states,1
lathes,1
duration,1
hemisphere,1
nuclear,1
human,1
billions,1
stirs,1
blessed,1
crippling,1
bureaucrat,1
grant,1
qualified,1
armies,2
brothers,1
helping,1
appreciating,1
attempt,1
division,2
balance,1
supplies,1
know:,1
lock,1
proudly,1
fear,1
inspection,1
incessant,1
made,1
consideration:,1
conciliation,1
signed,1
electrical,1
appreciation,1
sense,4
being,2
menace,3
physically,1
birthplace,1
field,1
aggravated,1
noninterference,1
battleground,1
realities,1
whereby,2
status,1
trading,1
targets,1
scattered,1
mention,1
impatience:,1
government,1
known,1
condemnation,1
accumulate,1
man,6
stand,2
leisure,1
map,1
us:,1
knows,2
twenty,3
contemplated,1
may,4
fifth:,1
insinuation,1
forward,2
vividly,1
peacetime,1
sprung,1
use,2
subject,3
recognition,1
feel,1
main,1
sadness,1
casing,1
strip,1
monopoly,2
negotiation,1
weaknesses,1
terrible,1
combine,1
waste,1
ideal,1
concentrates,1
imperatively,1
understandings,1
equipment,1
heedless,1
ideas,1
establishment,3
pressure,1
deposits,1
becomes,2
feed,1
help!one,1
background,1
lengthens,1
constitution,1
tinkering,1
negotiating,1
fountainhead,1
balk,1
men,7
repeat,1
threats,1
transformed,1
make,5
met,2
hostilities,2
wicked,1
opposed,1
absorbs,1
protestations,1
rapidly,1
structure,1
stake,1
intensity,1
witness,1
conform,1
contingency,1
threat,1
mercy,1
depend,1
miscalculate,1
about,5
intertwined,1
cure,1
sorrow,1
danger,2
observed,1
granted,1
presidency,1
bank,1
character,1
sizes,1
facts:1,1
meaning,2
above,2
concurrently,1
released,1
bolsheviks,1
goals,4
upheaval,1
injunction,1
14,1
august,1
16,1
received,1
substantial,1
benefit,1
labor,3
vastly,1
avoided,1
meshing,1
highest,1
unique,1
impatiently,1
sincere,2
allies,3
binds,1
shared,3
25,1
seizure,1
26,1
vigor,1
experiments,1
29,1
scan,1
association,1
mid,3
industry,1
believe,1
long,3
shares,1
fell,1
remember,1
into,1
greece,1
supports,1
invites,1
relationship,2
30,1
workers,3
destruction,1
31,1
expression,1
middle,25
prosper,1
associates,1
though,1
renewal,1
toppled,1
many,4
stay,1
everyday,2
transportation,2
dedicate,1
controlled,1
appear,1
extensive,1
increasing,1
progress,5
experts,1
open,1
42,1
seeks,1
devote,1
wool,1
treat,1
militia,1
salvation,1
wholly,1
forced,1
suffering,1
numbers,1
rapid,1
seven,1
project,1
devoting,1
plowshares,1
swiftly,1
50,1
51,1
displaying,1
surprise,3
felt,1
bears,1
look,1
assurance,1
korea,2
immutable,1
achieving,1
forces,3
60,1
proposals,1
farewell,1
allow,1
defer,2
legacy:,1
knock,1
ranges,1
needed,1
mass,1
proper,1
polls,1
18th,1
bitter,1
peculiarly,1
speed,1
common,6
interest,3
ranged,1
themselves,2
prologue,1
unaffected,1
mask,1
winning,1
apply,1
recently,1
starved,1
gratifying,1
force:,1
renewed,1
money,1
riches,1
healthy,1
richer,1
separates,1
formula,3
step,1
comrades,1
base,1
endanger,1
trend,1
achievement,1
whole,2
revolution,3
relation,1
businessmen,3
loss,1
lost,1
preliminary,1
punctilious,1
controlling,1
still,2
jima,1
work,6
lose,2
constitute,1
toward,2
books,1
knowing,1
providence,1
among,3
convince,1
stampede,1
registration,2
stated,1
love,2
internal,1
signature,1
republican,17
enjoy,1
defended,1
foundation,1
secret,3
ourselves,3
across,1
unwise,1
naturally,1
mortgage,1
believes,2
identity,1
federal,3
explosions,1
europe,3
solitude,1
reward,1
include,3
destructive,4
empires,1
mrs,1
devout,1
soldier,3
dulles,1
devotion,3
ages,1
theproblem,1
exists,1
voice,1
hospitals,2
imbalance,1
prepared,1
existence,1
migratory,1
freedoms,1
dwarfed,1
perfecting,1
scarred,1
discover,1
deathless,1
imply,1
failed,1
furnaces,1
appointed,1
darkly,1
alerted,1
transcendentalists!now,1
honored,1
seems,1
irreplaceable,1
scientific,3
insure,1
sternly,1
platform,1
expedited,1
spend,1
talks,1
austrian,1
klieg,1
destinies,1
monolithic,1
grave,1
advantage,1
spent,1
instead,1
ultimately,1
command,1
communist,3
temporary,1
hands,1
year,3
leading,1
awful,1
branch,1
emergencies,1
famine,1
vii,1
understanding,1
empire,1
near,1
because,2
moving,1
agreement,1
inviting,1
dealing,1
inspired,1
economy,1
community,2
tendered,1
planning,1
contains,1
stop,1
unsought,1
science,1
conception,1
inspires,1
sovietization,1
despotic,1
prudence,1
insoluble,1
appropriate,1
least,6
quarterback,1
eloquent,1
hungry,1
insolvent,1
refuse,1
realistically,1
provocateurs,1
prohibition,2
agreed,1
computers,1
cultivated,1
learn,2
newer,1
farce,1
emerge,1
communism,10
anniversary,1
teetotallers,1
longterm,1
addressing,2
evidence,4
official,2
spring,1
lastingly,1
leave,1
incorporated,1
holocausts,1
eulogy,1
signifies,1
discrimination,2
surrender,1
peoples,7
minister,1
need,4
cruel,1
wrote,1
vetoed,1
originally,1
intentions,1
often,1
energies,1
tests,1
canada,1
materials,1
hardly,1
lasting,1
bonfire,1
private,1
technical,1
respecting,1
unwarranted,1
defies,1
scouts,1
responsible,1
end,3
satellite,2
capabilities,2
bargaining,2
toil,1
flounder,1
rich,1
perverts,1
rice,1
people:,1
special,2
noted,1
significance,2
charted,1
environment,1
undertaking,1
sweat,1
results:,1
achieved,1
attacked,1
family,1
referred,1
gift,1
discretionary,1
slightly,1
occupation,1
education,2
called,1
release,1
charter,3
abiding,1
occurs,1
toll,1
moral,3
turns,1
fullest,1
aspire,1
gradually,1
tried,1
brave,1
darkness,1
similar,1
shape,1
unblinking,1
momentous,1
indochina,1
ungenerous,1
thousands,1
wives,1
forth,1
reinforced,1
relevance,1
driver,2
drives,2
compose,1
crossed,1
weapons,8
carved,1
indicated,1
against,3
crude,1
remind,1
andes,1
valid,1
themask,1
inertia,1
encourage,1
asked,1
era,3
ibsen,1
rights,1
malaya,1
share,2
bureaucratic,1
honestly,1
chairman,1
weighing,1
eisenhower,2
sharp,1
urgently,1
strongest,1
imperatives,1
shake,1
honor,2
degradation,1
americans:three,1
losses,1
naked,1
trial,3
exploitation,1
undertake,1
pages,2
links,1
net,1
aspiration:we,1
new,1
subjected,1
shall,11
careers,1
races,1
tons,1
individually,1
joseph,1
inconvenience,1
around,1
joyous,1
chose,2
define,1
dictate,1
declared,2
haven,1
egypt,2
indefensible,1
manifest,1
relieve,1
employment,1
specific,2
risks,1
engage,1
martin,1
remainder,1
forms,1
summon,1
victories,1
undeveloped,1
maintain,1
establishing,1
bargain,1
decided,1
represented,1
fully,2
eliminated,1
theflint,1
waver,1
remain,1
expected,1
countries,8
backbreaking,1
eye,1
himself,1
wanted,1
springfield,1
continent,1
iowa,1
plundering,1
another,4
students,1
guarantee,1
enemy,1
knowledgeable,1
permitted,1
ingredients,1
horror,1
impoverishment,1
black,1
persuade,2
abstractions,1
such,3
lincoln,5
absolute,1
technological,2
understood,1
dimes,1
presently,2
documents,1
administration,1
sweats,1
genuinely,1
developing,1
solved,1
remains,1
research,4
betrays,1
housed,1
features,1
huge,3
suez,4
wounds,1
attractive,2
town,1
might,1
expressions,1
enticements,1
unbridled,1
whatever,3
ignorance,1
materialism,1
patriotism,1
clothing,1
designs,1
fields,1
involving,1
next,3
submit,1
glorifies,1
simplicity,1
summit,1
vested,1
nor,2
conclusion,2
not,12
central,1
now,6
statement,1
lived,1
supporting,1
factor,1
news,1
thoughts,1
election,1
race,2
effectively,1
was,5
war,4
sharpest,1
way,4
realization,1
what,1
urban,1
furthermore,1
refer,1
fortified,1
israel,2
risk,2
battles,1
rise,1
play,2
disciplined,1
prized,1
betterment,2
fought,1
issues,2
when,1
entrusting,1
far,2
abruptly,1
struggling,1
formalized,1
plan,1
promising,1
treason,1
give,2
counsel,1
lives,3
depends,2
probability,1
comfortably,1
survived,1
lofty,1
determined,1
farms,2
ladies,1
burdens,1
completely,1
study,1
bomber,1
sentences,2
differences,1
direct,2
futile,1
gain,1
arabia,1
modern,1
tragic,1
older,2
categories,1
amass,1
enables,1
unitedly,1
climate,1
great,3
happened,1
wrong,1
discoveries,1
organization,1
pleased,1
heads,1
certain,1
economic,4
board,2
fed,1
distinction,1
cycles,2
discontent,1
used,1
constantly,1
indivisible,1
protocol,1
threaten,1
citizenry,1
few,1
highways,1
rhetoric,1
marked,2
otherwise,1
recital,1
recurring,1
sunk,1
dependable,1
solely,1
market,1
effects,1
personally,1
keep,1
effect,1
elementary,1
topic,2
solemn,1
totality,1
unworthy,1
sums,1
who,8
weigh,1
politics,1
almighty,1
deserves,1
contribute,1
faith,13
why,2
necessarily,1
strive,4
alone,1
along,1
looms,1
jerusalem,1
dies,1
designed,1
win,1
wit,1
electric,1
stimulus,1
soberly,1
approaches,1
diminish,1
matters,2
various,1
attention,1
uses,1
fulfillment,1
reduction,1
denied,1
extent,2
this:first:,1
bring,2
warfare,1
honest,2
whigs,1
finality,1
addition,1
employers,1
colossi,1
grow,1
sure,1
league,3
supremacy,1
engineers,1
unswerving,1
privation,1
am,1
an,7
former,1
saudi,1
thirds,1
fold,1
as,18
at,5
impenetrable,1
turning,2
peace,12
looking,2
consideration,1
brother,1
hurt,1
be,18
prove,1
cherished,2
search,1
systems,2
by,16
whom,1
humanity,1
enabling,1
keeping,1
quicker,1
alternate,2
attainment,1
lasted,1
third:,1
food,1
partner,1
freely,1
essential,2
sanctity,1
expenditure,1
lightness,1
argonne,1
language,3
do,1
painfully,1
observe,1
accomplished,1
attacks,1
warning,1
celebrating,1
needy,1
utmost,1
which,3
needs,1
profound,1
never,3
phantom,1
temptation,1
aspiration,1
carry,1
arose,1
necessity,1
mountains,3
compelling,1
for,24
pursuits,1
watching,1
burden,1
perhaps,3
alert,2
brightest,1
trouble,1
prosperity,1
class,1
contrary,2
governors,1
preying,1
go,1
justly,1
form,1
management,2
he,13
promotion,1
very,1
practice,2
placed,1
congress,4
welfare,1
divine,1
legislative,1
authorization,2
agony,1
else,1
four,1
if,22
french,1
ii,2
issue,1
in,65
maturity,1
dependency,1
is,18
it,19
aimed,1
iv,1
ix,1
traditional,1
unceasingly,1
continuing,1
become,1
wider,1
turned,1
mecca,1
indefinitely,1
eventually,1
lithuania,1
hungarian,1
peril,2
ability,1
belief,1
seemed,1
suggestion,1
off,1
generally,1
places,2
equals,1
complete,1
conscious,1
accomplishment,1
domination,1
political,4
solitary,1
while,2
enterprises,1
second,1
that,40
than,5
sufficient,1
limit,1
me,2
claim,1
months,4
mr,1
enriching,1
turmoil,1
dominating,1
possessed,3
fissionable,6
feeling,1
my,5
chosen,1
expansion,1
expand,1
headquarters,1
dream,1
fiscal,2
prediction,1
noble,1
coal,1
devastating,1
no,8
legacy,1
ideology,1
burma,1
storage,1
illusion,1
elders,1
considerable,1
oil,1
productivity,4
misunderstanding,1
of,142
heal,1
oh,1
capacities,1
brick,1
fight,1
occupied,1
avenues,1
on,1
allocated,1
or,10
sports,1
families,1
intelligent,1
confer,1
madame,1
contractors,1
lands,1
easier,1
spiritual,3
exercised,4
strategic,1
nation,4
rocket,1
oratory,1
determination,3
convenience,1
expedient,1
speaking,1
truculence,1
engines,1
estimate,1
rebirth,1
hundreds,1
recent,1
promises,1
they,6
proposal,1
old,2
opponents,3
s:,1
recreation,1
frustration,1
them,3
then,2
concepts,1
abhorring,1
oppose,1
austria,1
bridge,1
checking,1
mistrust,1
archives,1
strengthening,1
conference,1
inflicting,1
seek,1
seen,2
seem,1
fourths,1
exporter,1
compelled,1
variety,1
persist,1
so,8
apart,1
decision,1
necessary,1
one,5
souls,1
closer,1
monster,1
single,1
uttering,1
assist,4
consequent,1
to,81
attained,1
purpose:,1
country,7
joint,1
separate,1
blessings,1
willing,1
reasonable,1
generations,1
endangered,2
risking,1
rules,2
sincerity,1
amazing,1
enthusiastically,1
embracing,1
military,2
details,1
up,5
futility,1
us,10
ensure,2
exploded,1
this,37
reasonably,1
fourth:,1
suppose,1
scruple,1
remarkable,1
vi,1
failure,1
solve,1
communizing,1
laboratories,1
know,7
region,3
support,5
superficially,1
shaped,1
changes,1
cold,1
disposes,1
we,66
life,7
expects,1
summoned,2
lies,2
wide,2
previous,1
teach,1
biblical,1
stilling,1
attested,1
proportions,1
profitably,1
held,3
chains,1
annihilation,1
competition,1
fruitful,1
none,1
beyond,4
troops,1
april,1
problem,2
closing,1
terms,2
voluntary,2
deeply,1
proof,1
abandoned,1
presence,1
swearing,1
method,1
makers,1
contract,1
profitable,1
come,3
elections,2
churches,1
exist,1
examples,2
columbia,1
coveted,1
force,2
north,1
conceived,1
our,58
out,2
capacity,1
eminence,1
confess,1
get,7
continues,1
dark,1
course,1
watchfulness,1
power,4
dare,1
rivers,1
precious,1
ulterior,1
desirability,1
continued,1
thou,1
example:,2
help,4
confers,1
mingle,1
additionally,1
firmness,1
ended,1
self,2
minimum,1
perished,1
date,1
magic,1
succeeds,1
rightful,1
corn,1
own,7
sound,3
treasures,1
strangulation,1
translate,1
healing,1
create,1
development,2
proud,2
like,1
resource,1
prolonged,1
prestige,1
ending,1
efforts,1
proposed,3
purposes,1
fraud,1
techniques,1
council,2
reaffirm,1
send,1
concrete,4
here,2
necessities,1
note,1
everybody,5
purpose,5
recovery,1
security,4
tempest,1
lengthened,1
hearts,1
station,1
affairs,2
costs,1
factory,1
stating,1
cost,1
confronts,2
will,4
confidence,1
confidently,1
groups,1
follow,1
intent,1
factors,1
subversion,1
treaty,3
wretchedness,1
assured,1
swollen,1
challenge,2
dignity,2
intend,1
dedicating,1
exceeding,1
govern,1
your,1
remote,1
without,2
youth,1
these,8
begins,1
contributions,3
protected,1
wasted,1
sovereignty,2
discernible,1
persistent,1
authorize,4
whatsoever,1
1947:,1
audience,1
thus,1
devices,1
possess,1
dedication,3
devise,1
apparent,1
expendable,1
historically,1
enlightened,1
beseeching,1
thoughtfully,1
explorations,1
much,3
placate,1
arab,3
humble,1
independent,2
rejecting,1
achieve,2
ahead,2
misery,1
arrived,1
economically,1
insidious,1
lights,1
committee,1
capitals,1
union,8
faculties,1
forests,1
soviet,16
americans,2
humbly,1
unprecedented,1
days,1
combined,1
indisputable,1
faces,1
god,5
harmony,1
acceptable,3
dominate,2
wish,1
institution,1
wise,1
injustices,1
amounts,1
aspirations,1
callous,1
contributed,1
area,21
invitation,1
european,1
pay,2
internationally,1
strange,1
governmental,3
lack,1
external,2
spending,2
erased,1
success,2
ingenuity,1
authority,1
child,1
young,8
regional,1
germany,2
divided,2
remove,1
wisdom,2
treasure,1
live,2
responded,1
victory,1
negotiations,1
evolution,2
exhilaration,1
armistice,2
with,19
laborers,2
amended,1
china,1
complaint,1
service,2
battlefield,1
there,4
hopeless,1
injustice,1
indifference,1
offense,1
monuments,1
considered,1
channel,1
american,1
delivered,1
favorable,1
proposition:,1
entire,2
approach,1
qualifications,1
russia,7
decisive,1
ceased,1
period,1
africa,3
proceed,1
loyalty,1
understand,1
slowly,1
groping,1
vigorously,1
ever,1
imaginations,1
loving,1
uniting,1
million,1
even,3
arrogance,1
manifested,1
shadows,1
despair,1
assumed,1
communique,1
engaged,1
gun,1
hundred,3
stemmed,1
kinds,4
instant,1
peer,1
costly,2
imperative,2
tempted,1
violence,1
laid,1
particularly,1
desolation,1
opportunities,1
lingering,1
framework,1
tensions,1
armaments,1
tide,2
prohibit,1
possibilities,1
tonight,1
predecessors,1
imposed,1
almost,1
equally,2
appropriated,1
sustained,1
associate,1
scrupulous,1
judgment,1
earlier,2
charity,1
whether,2
members,2
stock,1
everyone,3
instilled,1
guaranteed,1
basis,1
resolute,1
tutor,1
army,1
arms,3
october,3
rarely,1
evil,2
basic,2
forthcoming,1
fruit,1
prisoner,1
policies,1
cause,2
manifestly,1
these:,1
grievous,1
unity,3
godspeed,1
twentieth,2
ties,1
design,1
land,2
working,2
redeem,1
lane,1
couched,1
sacrifices,1
liberties,1
accord,1
contributing,1
followed,1
despite,2
burning,1
conduct,1
livelihood,1
crowns,1
objectives,1
interested,1
triumphant,1
quietly,1
discussion,1
nonsensical,1
liberty,1
arrangements,1
welcome,1
meeting,1
events,1
interchange,1
warship,1
chaos,1
mankind,1
began,1
abundant,1
want,1
recognize,1
thatthe,1
reassurance,1
difference,1
reality,1
must,10
actions,1
safeguard,1
diligent,1
fateful,2
realism,1
giving,1
facts,4
marine,1
hungary,4
inalienable,1
found,1
defense,3
chasm,1
forebears,1
kilograms,1
canal,5
arts,1
escape,1
emerging,1
gives,1
limits,1
latest,1
pointless,1
ideals,1
disarmament,1
nearing,1
intimate,1
theft,1
declaration,3
entrust,1
religion,1
tragedy,2
prosperous,1
representatives,1
rightfully,1
amassing,1
voting,1
had,1
secure,2
unshakable,1
guided,1
late,1
school,1
differing,2
continue,1
preserved,2
proclaimed,1
others:,1
things,1
avenue,3
immense,1
has,4
realize,1
cautiously,1
offers,1
given,1
pre,1
last,1
definite,1
weighs,2
adapt,1
weight,1
governments:,1
warm,1
measure,2
guilty,1
country:,1
employees,1
wars,1
effort,2
tirelessly,1
brute,1
settling,1
anything,2
agriculture,1
yesterday,1
weapon,2
courageous,1
ends,1
prudent,1
denying,1
vote,3
steady,1
early,2
disease,1
would:first,1
yet,1
gravely,1
genius,2
alike,1
hunkers,1
time,4
quotation,2
wither,1
gateway,1
bravery,1
aroused,1
shadow,1
governments,5
program,3
hydrogen,1
put,2
identified,1
her,2
engulfing,1
way:,1
deprive,1
struggle,1
redevelopment,2
having,1
laws,4
iran,1
iraq,1
heritage,2
supreme,2
philosophy,1
light,4
stubborn,2
consecrated,1
methods,1
overshadows,1
alien,2
elite,1
ways,1
distorting,1
grown,1
appropriation,1
tire,1
chain,2
desire,4
supplanted,1
efficient,1
consistent,1
lately,1
permanent,2
foster,1
centralization,1
choice,2
travel,1
governed,2
small,1
civilization,1
before,5
intensified,1
pakistan,1
him,1
assumptions,2
his,4
major,1
heeding,1
worldwide,2
funds,2
potential,2
gravest,1
group,2
repeatedly,1
vigilant,1
logically,1
history,6
instinctively,1
grossly,1
stimulate,1
reciprocity,1
twice,1
distrust,1
interference,3
distortion,1
request,3
devolves,1
values,1
reveals,1
their,13
shepherd,1
percent,1
point,1
general,4
september,1
inroads,1
induced,1
latvia,2
fronts,1
requirements,1
process,1
inventiveness,1
hereafter,1
clear,1
alternative,1
governing,1
mean,2
valued,1
neither,1
meat,1
nominated,1
hurry,1
settlements,1
been,2
undoubted,1
cordiality,1
harvested,1
rectitude,1
advance,1
appreciate,1
fiat,1
diverse,1
you,3
safely,1
knowledge,2
limitations,1
soft,1
prime,1
happen,1
intellect,1
preference,1
loyal,1
opportunity,1
july,1
population,1
atlantic,1
discern,1
deals,1
councils,1
millions,1
stems,1
negotiated,1
comes,1
soil,1
unmatched,1
how,2
opportunism,1
capability,3
assembly,2
democrats,3
emotional,1
repel,1
june,1
answer,1
meet,2
regarded,1
calls,2
series,1
misplaced,1
represent,1
compete,1
putting,1
sometimes,1
questions,2
promise,1
recreational,1
enjoying,1
hold,6
correctly,1
talk,1
reply,1
hundredth,1
dedicated,4
planet,1
count,1
vision,2
take,1
immediate,1
budgets,1
preconditions,1
relatively,1
confusion,1
carrying,1
some,2
barnburners,1
beginning,1
paternalistic,2
session,4
primarily,1
atoms,1
passed,2
just,2
sole,1
spans,1
holy,1
asia,1
affects,1
killed,1
tangible,1
home,2
pious,1
existing,2
material,2
although,1
proclaiming,1
spectacular,1
iron,1
decades,2
patriots,1
president,3
explain,1
answers,1
hope,7
norwegian,1
soon,1
america,3
executive,1
sons,1
surpasses,1
men:,1
bend,1
religions,3
action,2
guidelines,1
fired,1
sensitive,1
heavy,1
moslem,1
explored,2
reached,1
acting,1
machinery,1
britain,7
2056,1
reconciling,1
deliver,1
dealings,1
headed,1
obsession,1
products,1
eight,1
bloodiest,1
member,1
periods,1
elimination,1
creed,1
together,4
within,2
could,5
strike,1
health,1
gathered,1
positive,1
prospect,1
able,1
evening,1
forged,1
consonant,2
concerned,1
conscience,1
inheritance,1
british,1
serve,2
radio,1
callings,1
inviolate,1
geographic,1
solution,1
fine,1
find,1
international,12
regardless,1
calculated,1
selected,2
upward,1
citizen,3
cities,1
occur,1
pleasant,1
relaxing,1
dimly,2
difficult,1
steps,4
friends,4
heart,1
corporations,1
forget,1
task,1
scientists,1
true,4
principles,4
present,1
curtain,2
problems,2
since,1
sentiment,1
strife,1
belong,1
abundance,1
dangerous,2
best,1
cementing,1
hour,2
leadership,2
idealistic,1
magazines,1
troubled,1
genuine,1
heard,2
experienced,1
processes,1
immune,1
impressive,1
sought,1
writers,1
extraordinary,1
concerning,1
conventional,1
mere,1
helplessly,1
evident,1
opinions,1
coming,1
feared,1
understandably,1
theatre,1
firm,1
contribution,1
vigilantly,1
restatement,1
statesmanship,1
fire,1
reason:,1
covet,1
based,1
taxi,1
something,3
undertaken,1
thereby,1
disastrous,1
except,1
impulse,1
programs,2
grower,1
inflicted,1
religious,1
nevertheless,1
fact,2
superiority,1
ironic,1
illinois,1
respectable,1
global,1
outline,1
unless,1
plants,1
bonfires,2
christian,1
soilers,1
free,21
equality,2
ought,1
reaction,1
unnatural,1
accordance,1
weary,1
people,11
surpluses,1
democracy,1
face,1
oldest,1
cessation,1
showed,1
insistent,1
reactions,2
invite,1
intolerable,1
adverse,1
ratio,1
refugees,1
obligations,1
independence,16
beseech,1
needlessly,1
falsely,1
detests,1
five,1
commands,1
sufferings,1
hunger,1
announced,1
palestine,2
campaign,1
vital,1
conflict,1
loudly,1
reasons,1
decisiveness,1
rule,2
assistance,4
commerce,2
decrees,1
wants,3
wonder,1
every,4
blinds,1
akin,1
propaganda,1
madness,1
inferior,1
again,1
dramatic,1
indians,1
stockpile,1
certainty,1
indeed,1
america!,1
transcend,1
employ,2
guns,1
discussions,1
binding,1
desirable,1
fair,1
during,3
price,2
safety,1
enable,1
draining,1
defensive,1
slavery,1
include:1,1
dependent,2
competing,1
profession,1
arise,1
reduced,1
imagination,1
resistance,1
traceable,1
fail,1
welcomed,1
itself,2
anyone,1
pride,1
steel,2
regions,1
hoped,1
seize,1
isolated,1
protector,2
iii,1
privilege,2
substitute,1
foreign,1
land:i,1
fall,1
decisively,1
causes,1
henrik,1
hopes,2
collective,2
demonstrated,1
event,1
overshadowed,1
wherever,2
establishes,1
witnessed,2
atheistic,1
erase,1
agency,4
cannot,2
first,2
span,1
dawned,1
first:,1
perfect,1
prayerful,1
vegetarians,1
clearly,1
minority,1
stringent,1
tight,1
chamber,1
spite,1
from,8
assessing,1
bottom,1
ill,1
commitment,1
finished,1
fostered,1
intervention,1
accorded,1
solving,1
death,1
statements,1
factories,2
despotism,1
holding,1
shortcut,1
public,3
array,1
listening,1
centennial,2
quantity,1
unchanged,1
resources,1
rush,1
expensive,1
trade,1
performance,1
growth,1
resolution,1
building,1
setting,1
properly,1
quote,1
warns,1
farm,1
enduring,1
virtually,1
destroyers,1
cultural,1
persons,1
recalling,1
charges,1
800,1
intelligently,1
firmly,2
southern,1
fate,1
weeks,1
hasten,1
successors,1
uncertainty,1
founding,1
is:,1
aggressive,1
close,1
linked,1
accelerated,1
oppression,1
fast,1
overt,1
falsehoods,1
calling,1
shallow,1
tourists,1
citizens,4
register,1
asserting,1
moved,1
recklessly,1
act,2
post,1
helped,1
warsaw,1
requisites,1
swift,1
gifts,1
add,1
crosscurrents,1
educational,1
its,7
independents,2
constructive,1
helpless,1
respect,3
mutual,2
cultures,1
therefore,4
washington,7
trust,2
income,1
blackboard,1
united,3
production,1
smallest,1
universally,1
soldiers,1
peaceful,1
miles,1
prevent,1
previously,1
happiness,2
scope,1
strikes,1
democratic,2
message,1
improvement,2
steadfast,1
truth,3
pledge,1
pushed,2
age,4
enjoyed,1
iwo,1
smaller,1
are:1,1
ago,1
arithmetic,1
yearn,1
mobilized,1
years,4
gestures,2
number,2
disappointment,1
pleading,1
massed,1
nothing,2
testing,1
isolation,1
handle,2
masses,1
happily,1
system,1
mighty,1
aid,3
partial,1
other,1
fathers,2
aim,1
city,1
ain,1
confident,1
drastic,1
air,2
courage,1
local,3
steadily,2
electronic,1
promptly,2
speak,2
decisions,4
regimentation,1
shackles,1
incidentally,1
horrors,1
rests,1
satisfaction,1
alternates,1
powerful,1
removed,1
future,4
plainer,1
atom,1
movement,1
body,2
maintained,1
all,32
always,3
read,1
already,1
conducted,1
real,2
maintaining,1
communists,1
mock,1
territorial,3
uranium,1
coupled,1
peacefulrelations,1
equipped,1
humankind,1
deadens,1
allocations,1
and,101
today,1
saying,1
universal,2
ratios,1
diminishes,1
abroad,1
mills,1
any,7
wrongs,1
suggested,1
application,1
productive,1
reliant,1
until,1
honorable,1
reversed,1
comprehend,1
reason,1
thought,1
treaties,1
acts,1
anywhere,1
exalted,1
enrichment,1
uplifting,1
poverty,1
resort,1
manipulated,1
goodness,1
devoted,1
deeds,2
spirits,1
000,2
turkey,2
atomic,31
choices,1
annually,1
increased,2
housing,2
inspiring,1
handed,1
acquire,1
increases,1
releasing,1
fruits,2
are,19
taken,2
came,1
patience,1
visions,1
captive,1
where,4
broader,1
vice,1
delegates,1
potentialities,1
abraham,2
call,1
calm,1
armed,1
ask,2
relations,1
subjugation,1
dilemma,1
through,2
becoming,1
strength,10
run,2
occasional,1
enact,1
individuals,4
bomb,2
all!,1
debate,1
view,2
either,2
ours,1
pipelines,1
all:,1
neighbors,1
preach,1
helpful,1
results,1
those,4
courses,1
motives,1
mold,1
significant,1
intermingling,1
longer,1
everywhere,4
senate,1
gladly,1
instability,2
parties,2
name,1
worst,2
stalin,1
proposals:the,1
truce,1
boon,1
shop,1
prospects,2
unum,1
book,2
show,2
disappear,1
augmented,1
recession,1
vigilance,1
defend,1
street,1
plains,1
planter,1
learned,1
nineteenth,1
bond,1
target,1
guidance,1
duty,1
absorbing,1
doomed,1
symbolize,1
republicans,4
usage,1
proficiency,1
largely,1
broad,2
officials,1
pledges,1
awakened,1
participating,1
truly,1
severely,1
greater,1
elevate,1
case,3
generation,2
crises,1
waits,1
viii,1
anxieties,1
saving,1
miraculous,1
legislators,1
matched,1
care,2
damage,2
guard,1
settle,1
pattern,1
harsh,1
exercise,1
unilateral,1
appreciably,1
pressing,1
freedom,10
seldom,1
militantly,1
protect,1
stubbornly,1
stress,1
more,6
born,1
display,1
theworld,1
nomination,2
beings,1
disorder,1
onward,1
cured,1
persists,1
momentarily,1
colossal,1
mature,1
navy,1
persistently,1
imperiled,1
bonds,1
simple,1
minded,1
influence,2
cloud,1
responsibilities,3
percentage,1
shun,1
described,2
negotiate,1
marshall,1
crisis,1
king,1
kind,1
both,2
most,3
persuasion,1
important,1
phrase,1
heartened,1
affection,1
daily,1
menaces,1
daughter,1
marshals,1
limitation,2
largest,1
awaken,1
reject,1
inventor,1
destructiveness,1
depressing,1
rest,1
safeguards,1
amount,1
move,2
original,1
saw,2
also,1
say,2
enough,1
increase,1
said:,3
favor,1
organizations,3
guests,1
investigation,1
depression,1
simply,1
shuns,1
plane,1
equivalent,2
projects,1
bad,1
reflected,1
perpetual,1
suffer,1
diplomatic,1
bar,1
estonia,2
complex,3
draft,1
ours:,1
personal,1
plans,2
interdependent,1
plant,1
greatly,1
strong,1
geographical,1
deal,2
readiness,1
affect,1
dead,1
buildup,1
hebrew,1
proven,2
eyes,1
ministers,2
sea,1
civic,1
proved,1
see,2
responsibility,3
thermo,1
national,4
subsequent,1
wheat,1
poses,1
compared,1
set,3
contain,1
joined,1
jobs,1
words,1
medicine,1
entered,1
integrate,1
difficulties,1
fighter,1
somewhat,1
stamina,2
beckons,1
needless,1
developed,1
crusaders,1
lithuania!,1
contact,1
discharge,1
france,5
inadequately,1
defenses,1
anxiety,1
western,2
finances,1
philosophies,1
party,33
little,1
duties,1
however,5
deep,2
sources,1
relates,1
trembling,1
deem,1
compel,1
capable,1
deed,1
getting,1
unhappily,1
signs,1
related,1
savagery,1
over,2
practical,1
living,2
unacceptable,1
historic,1
false,1
steering,1
tyrant,1
football,2
rightness,1
farmer,1
avoid,2
prompt,1
big,2
advanced,1
invoke,1
nations,7
sick,1
convinced,1
illimitable,1
join,2
tasks,2
reduce,1
sky,1
malevolently,1
large,1
satisfied,1
vain,1
tomorrow,2
harmonious,1
mountaineer,1
operate,1
attracted,1
begin,1
brought,2
works,1
proportion,1
pursuit,1
thinking,1
ruthless,1
world,16
handicapped,1
viewed,1
hopefully,1
embarked,1
reactors,2
urgent,1
table,2
italy,1
side,2
creator,1
break,1
change,1
willingness,1
deceit,1
comfort,1
likewise,1
punishment,1
century,3
suspicions,1
discovery,2
report,2
transitory,1
facilities,1
powers,3
theirs,1
constant,1
several,1
sign,1
cotton,1
expresses,1
office,2
precepts,2
stands,1
high,1
son,1
scourges,1
different,2
petroleum,3
directly,1
awaits,1
level,2
sordid,1
thrown,1
permanently,1
deter,1
undamaged,1
proclaim,1
belongs,1
behind,1
scores,1
decent,1
bow,1
boy,1
afloat,1
says:,3
preservation,1
total,1
loses,1
countrymen,1
prices,1
reiteration,1
chance,1
initiative,1
plays,1
social,1
nature,1
interesting,1
cross,1
control,1
demanding,1
scored,1
earth,2
amen,1
reconstruction,1
essentially,1
inflict,1
backs,1
stanch,1
handles,1
vary,1
threatening,1
insensitive,1
intercourse,1
stood,2
decency,1
fighting,1
pilgrimage,1
improvisation,1
objective,1
encouraged,1
accomplishments,2
strengthen,1
draws,1
deny,1
closely,1
unrealistic,1
pleasure,1
accept,1
glory,1
requested,3
mission,1
stopping,1
conditions,1
sub,1
nations:,1
cooperate,2
recite,1
extended,1
serving,2
obliterate,1
current,1
secretary,1
artists,1
actively,1
plainly,1
conferences,1
preferred,1
makes,2
enemies,1
threatened,1
honoring,1
beloved,1
condemned,1
confirm,1
uppermost,1
discerning,1
paralyzed,1
appoint,1
fourth,1
vast,1
story,1
but,9
sincerely,1
symbol,1
declare,1
available,2
express,1
quest,2
pedestals:,1
recognizable,1
instantly,1
enticement,1
written,1
passion,1
generate,1
shrunken,1
degree,1
this:what,1
taiwan,1
168,1
discord,1
especially,2
once,1
demonstrate,1
rallying,1
doing,1
records,1
idea,1
prisoners,1
monument,1
throng,1
fraternal,1
initiation,1
throughout,1
conflicts,1
virtue,1
successful,1
lovely,1
normal,1
figure,1
deliberations,2
technology,1
drought,1
hammarskjold,1
passing,1
compromise,1
despots,1
reach,2
tested,1
backed,1
comparative,1
immensely,1
question:how,1
road,2
children,3
rulers,3
review,1
dreadful,1
sight,2
timber,1
1858,1
between,4
1856,1
$200,1
goal,1
natural,1
second:,1
comprehension,1
jeopardy,2
intact,1
tranquillity,1
1860,1
following,1
motto,3
acquainted,1
drivers,1
aggressor,1
spasmodic,1
range,2
weak,1
impress,1
place,1
informed,1
dispute,3
deepening,1
aggression,1
suggest,1
lead,1
expect,1
cease,1
preparedness,1
fanaticism,1
smugness,1
elements,1
gentlemen,1
argument,1
adequate,1
bombs,6
leaders,3
hopeful,1
tremendous,1
growing,1
utterly,1
assets,1
plain,1
only,3
should,3
justice,1
clothed,1
indirect,3
individual,1
goes,1
continents,2
person,1
testimony,1
safe,1
parenthetically,1
retaliation,2
presidential,2
prohibitions,1
bermuda,4
cab,1
stout,1
distinct,1
aware,1
guarding,1
can,6
ready,3
said,4
privately,1
greatest,2
idle,1
weakest,1
fearful,4
really,1
