andrewJackson,Occurences
extent,8
settlements,6
hands,13
year,13
allowed,9
objects,17
texas,12
executing,8
resolution,13
branch,4
without,16
sovereignty,7
because,11
thus,6
banks,20
past,7
league,10
bill,11
require,6
am,12
court,13
volunteers,7
yourselves,8
whose,6
former,7
authorities,14
population,10
persons,9
delay,10
reserved,6
peace,10
consideration,7
millions,7
formed,12
much,9
object,8
independent,5
immediately,6
result,6
opposition,7
same,6
adoption,9
responsibility,10
civil,10
whom,5
national,20
departments,23
after,7
resolved,14
policy,7
mind,7
committed,7
charge,10
address,10
committee,6
d,6
business,7
subjects,7
right,12
union,7
possible,8
advantages,8
information,6
under,11
citizens,17
adopted,5
liberal,8
quarter,8
harmony,5
transferred,7
notes,12
republic,7
official,11
emergency,10
good,7
institution,7
possessions,11
act,8
leave,10
discharge,7
france,26
others,6
making,7
minister,6
pay,11
respect,8
take,8
never,12
thereof,17
treasury,25
authority,22
claims,8
therefore,20
exchange,9
discriminating,7
debt,8
necessity,6
legislature,17
duties,7
however,17
occasion,8
trust,6
private,17
united,22
applied,5
session,11
importance,8
directors,11
pursuits,7
instrument,8
medium,6
states,22
society,9
sanction,7
happiness,6
responsible,18
prosperity,8
end,8
passed,6
just,3
human,6
views,9
over,10
spanish,7
message,7
improvement,16
considerations,7
existing,8
moneyed,6
form,8
although,9
service,3
well,9
president,53
very,9
practice,9
placed,9
offense,8
foreigners,8
congress,18
considered,6
charter,21
american,11
nations,5
hope,9
attempt,10
soon,6
years,7
legislative,8
executive,11
navigation,9
property,13
action,6
majority,11
proceedings,9
per,8
french,28
order,9
period,6
faithfully,10
large,7
issue,9
corporation,14
sense,9
being,7
custody,8
menace,6
ever,8
system,13
even,7
restriction,7
aid,7
senators,19
become,8
engaged,6
britain,14
works,10
against,7
protection,8
local,8
government,49
known,7
too,8
rights,12
ordinance,39
twenty,11
consequence,7
question,14
within,8
change,8
suggestion,7
spirit,13
expressly,8
satisfaction,6
agents,7
generally,3
disposition,7
future,10
regard,12
report,7
powers,15
improvements,16
imposed,14
capital,8
almost,7
subject,7
equally,7
honor,9
several,12
indemnity,9
political,8
british,16
office,9
manner,11
upon,28
body,7
while,8
employed,6
points,8
mode,6
ratifications,7
circulating,6
high,8
revenue,9
declares,8
whether,9
monopoly,6
sufficient,8
negotiation,8
members,7
me,8
expressed,9
colonies,8
different,7
stock,29
communication,8
always,8
new,12
circumstances,9
law,6
carolina,48
void,8
already,8
shall,18
establishment,9
less,19
expense,6
deposits,18
institutions,7
condition,9
obligation,9
violation,9
principles,8
true,6
governor,15
evil,8
present,8
taxation,12
collect,7
since,6
constitution,20
chambers,12
cause,12
best,8
preservation,4
times,8
ration,10
men,9
explanations,6
construction,14
department,7
prices,9
render,9
execution,12
nature,8
chief,11
control,10
any,24
conduct,6
due,6
lands,7
circulation,8
until,10
productions,8
vessels,13
01,12
nation,8
intercourse,6
acts,37
granted,9
bank,97
character,15
accusation,8
liberty,10
annual,7
exclusive,16
state,16
old,7
remain,3
received,14
countries,7
labor,7
000,8
himself,10
rendered,6
deposit,8
must,15
ministry,11
increased,8
another,7
jurisdiction,13
constitutional,6
recommend,6
sum,7
ports,10
facts,9
secretary,15
found,8
defense,7
does,12
taken,9
impeachment,25
currency,16
tariff,9
where,7
tonnage,5
free,9
limits,16
legislation,9
confederation,7
ought,6
receive,8
necessary,10
surplus,27
decision,9
appeal,9
such,11
charg,6
extensive,8
laboring,7
representatives,8
relations,7
operation,9
feelings,6
through,7
country,16
privileges,18
principle,9
commercial,8
agent,7
militia,8
strength,7
officer,8
administration,7
blessings,7
obligations,9
secure,8
independence,10
domestic,7
view,8
either,8
continue,7
houses,9
satisfactory,6
military,12
delegated,9
stockholders,26
sovereign,8
those,15
us,13
given,7
last,10
might,6
motives,8
degree,8
felt,6
doubt,6
collection,10
longer,8
guilty,12
measure,6
senate,14
installment,7
district,6
name,9
secured,9
support,14
full,7
injurious,7
away,8
reasons,9
unlawful,13
classes,8
proper,19
rule,7
resolutions,10
commerce,6
house,6
vested,11
life,7
nor,13
1833,8
1832,8
1831,9
common,8
interest,7
themselves,7
wants,8
every,7
early,6
1834,10
convention,16
commissioners,7
election,7
cases,10
again,8
refusal,9
purchase,7
yet,7
war,9
indians,9
equal,8
money,27
removal,8
paid,8
duty,12
held,10
taxes,9
whole,7
governments,6
courts,17
during,7
none,7
beyond,12
issues,7
required,8
put,6
relation,10
measures,18
payable,7
terms,5
far,13
safety,8
authorized,14
payment,12
case,18
between,9
stipulations,7
unconstitutional,16
treason,7
give,10
still,11
laws,9
having,7
roads,6
supreme,12
deemed,5
tribunals,14
resistance,9
judicial,12
provisions,10
itself,9
provide,9
light,7
expenditures,10
among,7
force,9
spain,10
internal,14
hoped,6
south,48
portion,7
direct,10
exercise,9
distribution,14
sheriff,8
foreign,16
causes,7
federal,10
course,10
hopes,6
power,33
place,7
appropriation,9
established,8
means,7
desire,8
lately,5
tribes,12
great,7
opinion,12
expect,7
mexico,5
fellow,9
interests,14
indian,10
board,10
passage,9
compact,12
before,15
injuries,8
navy,8
friendly,8
own,15
heretofore,7
existence,7
appointment,10
experience,8
influence,8
presented,7
only,15
should,13
justice,8
consequences,8
few,6
funds,10
majesty,7
consider,7
officers,17
speculation,7
otherwise,9
appropriations,14
individual,9
king,11
loans,7
particular,7
tax,16
done,6
both,7
most,12
important,8
efforts,7
provision,9
effect,6
enforce,11
expenses,7
here,8
acknowledged,7
purpose,14
banking,16
general,16
prescribed,9
security,9
paris,8
operations,9
public,52
paper,17
value,11
accompanying,7
affairs,8
amount,7
process,20
confidence,7
also,17
entertained,7
increase,12
trade,14
performance,7
oath,9
favor,9
various,16
treaty,6
conferred,10
attention,17
further,9
account,7
